1587014409791510,30
1587014410031639,23
1587014410073192,23
1587014410494226,27
1587014410496987,27
1587014410498135,27
1587014410498976,27
1587014410501537,27
1587014410508268,27
1587014410513238,27
1587014410519574,27
1587014410526590,27
1587014410567323,27
1587014410569588,27
1587014410572410,27
1587014410577731,27
1587014411080688,27
1587014411082731,27
1587014411084174,27
1587014411085074,27
1587014411086933,27
1587014411088445,27
1587014411098258,27
1587014411111732,27
1587014411113732,27
1587014411118033,27
1587014411124569,27
1587014411139478,27
1587014412223362,23
1587014414146444,27
1587014414690943,6878
1587014414709014,6878
1587014414709855,6878
1587014414716389,6878
1587014415725192,6878
1587014415726491,6878
1587014422744231,6878
1587014422745139,6878
1587014422746560,6878
1587014422747822,6878
1587014422748858,6878
1587014422761011,6878
1587014422791119,6878
1587014423298135,37649
1587014423313154,37649
1587014423324898,37649
1587014423350020,37649
1587014423352076,37649
1587014423357396,37649
1587014423360844,37649
1587014423368918,37649
1587014423372868,37649
1587014423377270,37649
1587014423388304,37649
1587014423389466,37649
1587014423391876,37649
1587014423959146,15278
1587014423962172,15278
1587014423963236,15278
1587014423965933,15278
1587014423967162,15278
1587014423981382,15278
1587014423983912,15278
1587014423984796,15278
1587014423989547,15278
1587014423991341,15278
1587014424002392,15278
1587014424004040,15278
1587014424026452,15278
1587014424539671,18092
1587014424541150,18092
1587014424542884,18092
1587014424546114,18092
1587014424547433,18092
1587014424549643,18092
1587014424550446,18092
1587014424554884,18092
1587014424556702,18092
1587014424557667,18092
1587014424559052,18092
1587014424559780,18092
1587014424565620,18092
1587014425077047,17262
1587014425079246,17262
1587014425080895,17262
1587014425083304,17262
1587014425085602,17262
1587014425087087,17262
1587014425098156,17262
1587014425100119,17262
1587014425113055,17262
1587014425116280,17262
1587014425117112,17262
1587014425118477,17262
1587014425134835,17262
1587014425638142,18647
1587014425639347,18647
1587014425640410,18647
1587014425641369,18647
1587014425642067,18647
1587014425644910,18647
1587014425646319,18647
1587014427097091,18647
1587014427103843,18647
1587014427115421,18647
1587014427116625,18647
1587014427117403,18647
1587014427119770,18647
1587014427623323,19084
1587014427625357,19084
1587014427627066,19084
1587014427627919,19084
1587014427633947,19084
1587014427635004,19084
1587014427636050,19084
1587014427637650,19084
1587014427638333,19084
1587014427639119,19084
1587014427657517,19084
1587014427670344,19084
1587014427684112,19084
1587014428196772,20277
1587014428198234,20277
1587014428198683,20277
1587014435228055,20277
1587014435229011,20277
1587014435230134,20277
1587014435231293,20277
1587014435232034,20277
1587014435233141,20277
1587014435244501,20277
1587014435246385,20277
1587014435250176,20277
1587014435273356,20277
1587014437355110,33668
1587014437365285,33668
1587014437367713,33668
1587014437369543,33668
1587014437370864,33668
1587014437372269,33668
1587014437375403,33668
1587014437395009,33668
1587014437407286,33668
1587014437409783,33668
1587014437425041,33668
1587014437443374,33668
1587014437446037,33668
1587014437956760,27871
1587014437958204,27871
1587014437959280,27871
1587014437960683,27871
1587014437965240,27871
1587014437966461,27871
1587014437970921,27871
1587014437982735,27871
1587014437984004,27871
1587014437985660,27871
1587014437991971,27871
1587014438003029,27871
1587014438006133,27871
1587014438514104,26247
1587014438515202,26247
1587014438517475,26247
1587014438518712,26247
1587014438532286,26247
1587014438536667,26247
1587014438549455,26247
1587014438563013,26247
1587014438568387,26247
1587014438570163,26247
1587014438571164,26247
1587014438580800,26247
1587014438581992,26247
1587014439084565,27560
1587014439086581,27560
1587014439087921,27560
1587014439093090,27560
1587014439096312,27560
1587014439101625,27560
1587014439108520,27560
1587014439123280,27560
1587014439125959,27560
1587014439133604,27560
1587014439140442,27560
1587014439142568,27560
1587014439154879,27560
1587014439662604,26744
1587014439667543,26744
1587014439668927,26744
1587014439669819,26744
1587014439670728,26744
1587014439674185,26744
1587014439688398,26744
1587014439695545,26744
1587014439699097,26744
1587014439702781,26744
1587014439716862,26744
1587014439719480,26744
1587014439721259,26744
1587014440231434,27241
1587014440234661,27241
1587014440245699,27241
1587014440249473,27241
1587014440251859,27241
1587014440253708,27241
1587014440258109,27241
1587014440271898,27241
1587014440276159,27241
1587014440290489,27241
1587014440293978,27241
1587014440297618,27241
1587014440299123,27241
1587014440806932,27969
1587014440807985,27969
1587014440811895,27969
1587014440813344,27969
1587014440818522,27969
1587014440821606,27969
1587014440823790,27969
1587014440850770,27969
1587014440869208,27969
1587014440883319,27969
1587014440897526,27969
1587014440903404,27969
1587014440915588,27969
1587014441426148,27655
1587014441427582,27655
1587014441428953,27655
1587014441430178,27655
1587014441431435,27655
1587014441441871,27655
1587014441447123,27655
1587014441451587,27655
1587014441456313,27655
1587014441460918,27655
1587014441463201,27655
1587014441465476,27655
1587014441468131,27655
1587014442526170,28569
1587014442528527,28569
1587014442529541,28569
1587014442530104,28569
1587014442530810,28569
1587014442531257,28569
1587014442533080,28569
1587014442534703,28569
1587014442537389,28569
1587014442538550,28569
1587014442552657,28569
1587014442553624,28569
1587014442565144,28569
1587014443071643,30395
1587014443074110,30395
1587014443086633,30395
1587014443089956,30395
1587014443095863,30395
1587014443097217,30395
1587014443101257,30395
1587014443113064,30395
1587014443114065,30395
1587014443118208,30395
1587014443130096,30395
1587014443131316,30395
1587014443132828,30395
1587014443638990,29269
1587014443639928,29269
1587014443640875,29269
1587014443648632,29269
1587014443649641,29269
1587014443650542,29269
1587014443651309,29269
1587014443663092,29269
1587014443664018,29269
1587014443666522,29269
1587014443670173,29269
1587014443693740,29269
1587014443694938,29269
1587014444202919,30027
1587014444203859,30027
1587014444204809,30027
1587014444205881,30027
1587014444206740,30027
1587014444209049,30027
1587014444212232,30027
1587014444213938,30027
1587014444225892,30027
1587014444234872,30027
1587014444236471,30027
1587014444248211,30027
1587014444262007,30027
1587014444772057,29769
1587014444773443,29769
1587014444776422,29769
1587014444777475,29769
1587014444778263,29769
1587014444782901,29769
1587014444795287,29769
1587014444809629,29769
1587014445812291,29769
1587014445812984,29769
1587014445814216,29769
1587014445817591,29769
1587014445820180,29769
1587014446332320,33374
1587014446333804,33374
1587014446346158,33374
1587014446350255,33374
1587014446351455,33374
1587014446352868,33374
1587014446353668,33374
1587014446358011,33374
1587014446360094,33374
1587014446372988,33374
1587014446374074,33374
1587014446385290,33374
1587014446386543,33374
1587014446888998,31135
1587014446901643,31135
1587014446902606,31135
1587014446904253,31135
1587014446905139,31135
1587014446906738,31135
1587014446907513,31135
1587014446911677,31135
1587014446923077,31135
1587014446924471,31135
1587014446935290,31135
1587014446945973,31135
1587014446946827,31135
1587014447448951,31795
1587014447450138,31795
1587014447451315,31795
1587014447463579,31795
1587014447464586,31795
1587014447465515,31795
1587014447466800,31795
1587014447469787,31795
1587014447482183,31795
1587014447483250,31795
1587014447483950,31795
1587014447495050,31795
1587014447495978,31795
1587014447998441,32183
1587014447999375,32183
1587014448000325,32183
1587014448001109,32183
1587014448001822,32183
1587014448005939,32183
1587014448006980,32183
1587014448007888,32183
1587014448019246,32183
1587014448020364,32183
1587014448021224,32183
1587014448022116,32183
1587014448022897,32183
1587014448525713,32608
1587014448526541,32608
1587014448527573,32608
1587014448529185,32608
1587014448530684,32608
1587014448535184,32608
1587014448537312,32608
1587014448539187,32608
1587014448546305,32608
1587014448547716,32608
1587014448560079,32608
1587014448563444,32608
1587014448564971,32608
1587014449072739,32778
1587014449073894,32778
1587014449074824,32778
1587014449076194,32778
1587014449078542,32778
1587014449079765,32778
1587014449080840,32778
1587014449081771,32778
1587014449086529,32778
1587014449098031,32778
1587014449099339,32778
1587014449104013,32778
1587014449107667,32778
1587014449610183,32988
1587014449615143,32988
1587014449616646,32988
1587014449623305,32988
1587014449625944,32988
1587014449627352,32988
1587014450639991,32988
1587014450641801,32988
1587014451644137,32988
1587014451646731,32988
1587014451647818,32988
1587014451648892,32988
1587014451649654,32988
1587014452151737,37056
1587014452152917,37056
1587014452153330,37056
1587014452153661,37056
1587014452164956,37056
1587014452165988,37056
1587014452168134,37056
1587014452169451,37056
1587014452182351,37056
1587014452195059,37056
1587014452196326,37056
1587014452197480,37056
1587014453198318,37056
1587014453711936,36817
1587014453713473,36817
1587014453724012,36817
1587014453726623,36817
1587014453727088,36817
1587014453727675,36817
1587014453729179,36817
1587014453730654,36817
1587014453731970,36817
1587014453732372,36817
1587014453734019,36817
1587014453736924,36817
1587014453749107,36817
1587014454258550,35821
1587014454259875,35821
1587014454260933,35821
1587014454272071,35821
1587014454272910,35821
1587014454273363,35821
1587014454274462,35821
1587014454278660,35821
1587014454279584,35821
1587014454280258,35821
1587014454280650,35821
1587014454281059,35821
1587014454285959,35821
1587014454787341,36461
1587014454787714,36461
1587014454788264,36461
1587014454789055,36461
1587014454790136,36461
1587014454791306,36461
1587014454795024,36461
1587014454806009,36461
1587014454806856,36461
1587014454808083,36461
1587014454808805,36461
1587014454809626,36461
1587014454810885,36461
1587014455320664,36669
1587014455321402,36669
1587014455322305,36669
1587014455322941,36669
1587014455325477,36669
1587014455326140,36669
1587014455327203,36669
1587014455327885,36669
1587014455328483,36669
1587014455329120,36669
1587014455329493,36669
1587014455331250,36669
1587014455332413,36669
1587014455834005,37000
1587014455834780,37000
1587014455835890,37000
1587014455837356,37000
1587014455838870,37000
1587014455850105,37000
1587014455851324,37000
1587014455852067,37000
1587014455853279,37000
1587014455858707,37000
1587014455859408,37000
1587014455861830,37000
1587014455872966,37000
1587014456374924,38169
1587014456385987,38169
1587014456386737,38169
1587014456387439,38169
1587014456389205,38169
1587014456389998,38169
1587014456392397,38169
1587014456403030,38169
1587014456416191,38169
1587014456416999,38169
1587014456417393,38169
1587014456418010,38169
1587014456419091,38169
1587014456921546,38242
1587014456923921,38242
1587014456934998,38242
1587014456944528,38242
1587014456945576,38242
1587014456946387,38242
1587014456949006,38242
1587014456949504,38242
1587014456949864,38242
1587014456950570,38242
1587014456952472,38242
1587014456953323,38242
1587014456954240,38242
1587014457465355,37830
1587014457466435,37830
1587014457467487,37830
1587014457468222,37830
1587014457468906,37830
1587014457470104,37830
1587014457473148,37830
1587014457474161,37830
1587014457476630,37830
1587014457478089,37830
1587014457478868,37830
1587014457484111,37830
1587014457505274,37830
1587014458022066,38057
1587014458023145,38057
1587014458023976,38057
1587014458024814,38057
1587014458025614,38057
1587014458031067,38057
1587014458033281,38057
1587014458045158,38057
1587014458046961,38057
1587014458048580,38057
1587014458055592,38057
1587014458067011,38057
1587014458067475,38057
1587014458588473,38407
1587014458589322,38407
1587014458590407,38407
1587014458591296,38407
1587014458591929,38407
1587014458592945,38407
1587014458594197,38407
1587014458595128,38407
1587014458595886,38407
1587014458597024,38407
1587014458598653,38407
1587014458599888,38407
1587014458601241,38407
1587014459212474,37
1587014459214783,38077
1587014459215849,38077
1587014459216987,38077
1587014459218159,38077
1587014459218900,38077
1587014459219323,38077
1587014459220292,38077
1587014459220936,38077
1587014459222255,38077
1587014459224027,38077
1587014459239018,38077
1587014459250942,38077
1587014459252085,38077
1587014459764070,40251
1587014459766206,40251
1587014459767128,40251
1587014459769052,40251
1587014459770878,40251
1587014459772373,40251
1587014459773032,40251
1587014459774000,40251
1587014459775211,40251
1587014459776458,40251
1587014459777245,40251
1587014459777980,40251
1587014459778997,40251
1587014460287374,39368
1587014460288526,39368
1587014460299041,39368
1587014460299873,39368
1587014460300317,39368
1587014460300896,39368
1587014460301589,39368
1587014460302994,39368
1587014460304104,39368
1587014460304712,39368
1587014460305738,39368
1587014460307319,39368
1587014460318042,39368
1587014460821480,40395
1587014460822384,40395
1587014460823452,40395
1587014460824328,40395
1587014460825027,40395
1587014460825651,40395
1587014460826878,40395
1587014460828655,40395
1587014460841484,40395
1587014460842806,40395
1587014460854097,40395
1587014460857024,40395
1587014460859467,40395
1587014461409597,40526
1587014461410534,40526
1587014461423001,40526
1587014461425831,40526
1587014461426377,40526
1587014461427627,40526
1587014461428974,40526
1587014461429998,40526
1587014461430425,40526
1587014461431426,40526
1587014461432525,40526
1587014461433807,40526
1587014461434976,40526
1587014461937057,40985
1587014461937542,40985
1587014461942616,40985
1587014461943452,40985
1587014461944653,40985
1587014461945903,40985
1587014461946914,40985
1587014461948011,40985
1587014461949112,40985
1587014461950224,40985
1587014461952101,40985
1587014461965894,40985
1587014461967558,40985
1587014462474408,40631
1587014462475559,40631
1587014462476698,40631
1587014462477136,40631
1587014462477931,40631
1587014462478306,40631
1587014462478646,40631
1587014462479048,40631
1587014462479722,40631
1587014462492323,40631
1587014462493470,40631
1587014462503958,40631
1587014462504357,40631
1587014463011222,41140
1587014463011915,41140
1587014463013127,41140
1587014463024641,41140
1587014463025962,41140
1587014463026573,41140
1587014463027643,41140
1587014463028923,41140
1587014463030634,41140
1587014463033229,41140
1587014463044625,41140
1587014463047869,41140
1587014463050477,41140
1587014463556270,41310
1587014463558192,41310
1587014463560817,41310
1587014463562386,41310
1587014463563813,41310
1587014463564893,41310
1587014463568969,41310
1587014463583298,41310
1587014463595979,41310
1587014463597255,41310
1587014463598900,41310
1587014464605227,41310
1587014464617193,41310
1587014464923350,37
1587014465121431,47511
1587014465122498,47511
1587014465134527,47511
1587014465135417,47511
1587014465136239,47511
1587014465138138,47511
1587014465142435,47511
1587014465152999,47511
1587014465154060,47511
1587014465165360,47511
1587014465166160,47511
1587014465167473,47511
1587014465177940,47511
1587014465681611,44911
1587014465682570,44911
1587014465684641,44911
1587014465692345,44911
1587014465693156,44911
1587014465695309,44911
1587014465696065,44911
1587014465697110,44911
1587014465697986,44911
1587014466700999,44911
1587014466701699,44911
1587014466702312,44911
1587014466703364,44911
1587014467208031,46519
1587014467218979,46519
1587014467220615,46519
1587014467221693,46519
1587014467223189,46519
1587014467223915,46519
1587014467225091,46519
1587014467235944,46519
1587014467244409,46519
1587014467245143,46519
1587014467247351,46519
1587014467260018,46519
1587014467261591,46519
1587014467769513,45341
1587014468770463,45341
1587014468773735,45341
1587014468787298,45341
1587014468799247,45341
1587014468800083,45341
1587014468801223,45341
1587014468802362,45341
1587014468812966,45341
1587014468814826,45341
1587014468816388,45341
1587014468818447,45341
1587014468819446,45341
1587014469337854,48419
1587014469348993,48419
1587014469353641,48419
1587014469354988,48419
1587014469355928,48419
1587014469357808,48419
1587014469359655,48419
1587014469364901,48419
1587014469365820,48419
1587014469368061,48419
1587014469380968,48419
1587014469383366,48419
1587014469386892,48419
1587014469892824,47420
1587014469894860,47420
1587014469895471,47420
1587014469895886,47420
1587014469896906,47420
1587014469898513,47420
1587014469902008,47420
1587014469903258,47420
1587014469904210,47420
1587014469918214,47420
1587014469930462,47420
1587014469940971,47420
1587014469954104,47420
1587014470459976,48585
1587014470461494,48585
1587014470461839,48585
1587014470462961,48585
1587014470463817,48585
1587014470464866,48585
1587014470475952,48585
1587014470487445,48585
1587014470488472,48585
1587014470490158,48585
1587014470491184,48585
1587014470493878,48585
1587014470509020,48585
1587014471014342,47978
1587014471015052,47978
1587014471015429,47978
1587014471016602,47978
1587014471020495,47978
1587014471036104,47978
1587014471037987,47978
1587014471038759,47978
1587014471040110,47978
1587014471041020,47978
1587014471042485,47978
1587014471044946,47978
1587014471047261,47978
1587014471553450,49413
1587014471564984,49413
1587014471565816,49413
1587014471566447,49413
1587014471567053,49413
1587014471567707,49413
1587014471574338,49413
1587014471575663,49413
1587014471576845,49413
1587014471589982,49413
1587014471591796,49413
1587014471593807,49413
1587014471595290,49413
1587014472097411,49804
1587014472099773,49804
1587014472100795,49804
1587014472101801,49804
1587014472102492,49804
1587014472110961,49804
1587014472112190,49804
1587014472113205,49804
1587014472113683,49804
1587014472114356,49804
1587014472115437,49804
1587014472125954,49804
1587014472126654,49804
1587014475634324,49243
1587014475635146,49243
1587014475636499,49243
1587014475637075,49243
1587014475641015,49243
1587014475641985,49243
1587014475653074,49243
1587014475653835,49243
1587014475654344,49243
1587014475654948,49243
1587014475665952,49243
1587014475670079,49243
1587014475671304,49243
1587014476184119,55452
1587014476185150,55452
1587014476191425,55452
1587014476192813,55452
1587014476204079,55452
1587014476204992,55452
1587014476206300,55452
1587014476217158,55452
1587014476219380,55452
1587014476219821,55452
1587014476220618,55452
1587014476221876,55452
1587014476225341,55452
1587014476735361,53113
1587014476746850,53113
1587014476748148,53113
1587014476749437,53113
1587014476751299,53113
1587014476767811,53113
1587014476769997,53113
1587014476771663,53113
1587014476785649,53113
1587014476789314,53113
1587014476790095,53113
1587014476801696,53113
1587014476802847,53113
1587014477310237,52653
1587014477312448,52653
1587014477324651,52653
1587014477337731,52653
1587014477339434,52653
1587014477342157,52653
1587014477343520,52653
1587014477347941,52653
1587014477348764,52653
1587014477349534,52653
1587014477350380,52653
1587014477351263,52653
1587014477362337,52653
1587014477868250,52922
1587014477869933,52922
1587014477870307,52922
1587014477871234,52922
1587014477872700,52922
1587014477873772,52922
1587014477874561,52922
1587014477876804,52922
1587014477877917,52922
1587014477889034,52922
1587014477890591,52922
1587014477901939,52922
1587014477915226,52922
1587014478426097,55781
1587014478426805,55781
1587014478427995,55781
1587014478439966,55781
1587014478452009,55781
1587014478452805,55781
1587014478456317,55781
1587014478457622,55781
1587014478459155,55781
1587014478470015,55781
1587014478472393,55781
1587014478474679,55781
1587014478486045,55781
1587014478999358,55121
1587014479000144,55121
1587014479001775,55121
1587014479013004,55121
1587014479014382,55121
1587014479015102,55121
1587014479016602,55121
1587014479024001,55121
1587014479035967,55121
1587014479036923,55121
1587014479038256,55121
1587014479039149,55121
1587014479039854,55121
1587014479560990,56207
1587014479561734,56207
1587014479564388,56207
1587014479565590,56207
1587014479566801,56207
1587014479568147,56207
1587014479569570,56207
1587014479580012,56207
1587014479580554,56207
1587014479582124,56207
1587014479584117,56207
1587014479585671,56207
1587014479598166,56207
1587014480111182,55812
1587014480114189,55812
1587014480126032,55812
1587014480137024,55812
1587014480153030,55812
1587014480156618,55812
1587014480168095,55812
1587014480174461,55812
1587014480181482,55812
1587014480185323,55812
1587014480186439,55812
1587014480199099,55812
1587014480209990,55812
1587014480712552,56975
1587014480723965,56975
1587014480726348,56975
1587014480727877,56975
1587014480729124,56975
1587014480740518,56975
1587014480752913,56975
1587014480755190,56975
1587014480757004,56975
1587014480758220,56975
1587014480758934,56975
1587014481762392,56975
1587014481763672,56975
1587014482268464,58633
1587014482270760,58633
1587014482271858,58633
1587014482272703,58633
1587014482273851,58633
1587014482276272,58633
1587014482277020,58633
1587014482277774,58633
1587014482289500,58633
1587014482292983,58633
1587014482296391,58633
1587014482308264,58633
1587014482319019,58633
1587014482829978,57568
1587014482832211,57568
1587014482832836,57568
1587014482833501,57568
1587014482833893,57568
1587014482834207,57568
1587014482836610,57568
1587014482838112,57568
1587014482838454,57568
1587014482838902,57568
1587014482839965,57568
1587014482841446,57568
1587014482843615,57568
1587014483345914,59330
1587014483356988,59330
1587014483368021,59330
1587014483370315,59330
1587014483380952,59330
1587014483383690,59330
1587014483385775,59330
1587014483387233,59330
1587014483388849,59330
1587014483389334,59330
1587014483389683,59330
1587014483402013,59330
1587014483403278,59330
1587014483954463,59098
1587014483956509,59098
1587014483957195,59098
1587014483959408,59098
1587014483960255,59098
1587014483961241,59098
1587014483961873,59098
1587014483962723,59098
1587014483965075,59098
1587014483966826,59098
1587014483967630,59098
1587014483968346,59098
1587014483969174,59098
1587014484482091,58502
1587014484488083,58502
1587014484489304,58502
1587014484490031,58502
1587014484491270,58502
1587014484492875,58502
1587014484493697,58502
1587014484494648,58502
1587014484495582,58502
1587014484496481,58502
1587014484498555,58502
1587014484500202,58502
1587014484502693,58502
1587014485006156,59028
1587014485008363,59028
1587014485010558,59028
1587014486017376,59028
1587014486019046,59028
1587014486019777,59028
1587014486020090,59028
1587014486023733,59028
1587014486024310,59028
1587014486025579,59028
1587014486026924,59028
1587014486028860,59028
1587014486042413,59028
1587014486551270,60933
1587014486564088,60933
1587014486565913,60933
1587014486566854,60933
1587014486567981,60933
1587014486569022,60933
1587014486569662,60933
1587014486918086,37
1587014487574322,60933
1587014487575344,60933
1587014487576456,60933
1587014487579118,60933
1587014487579944,60933
1587014487581252,60933
1587014488090025,63905
1587014488100963,63905
1587014488114067,63905
1587014488115003,63905
1587014488118436,63905
1587014488119550,63905
1587014488131701,63905
1587014488133152,63905
1587014488133957,63905
1587014488135348,63905
1587014488136808,63905
1587014488137857,63905
1587014488138705,63905
1587014488650289,61112
1587014488662097,61112
1587014488662919,61112
1587014488663232,61112
1587014488663913,61112
1587014488676358,61112
1587014488677447,61112
1587014488688900,61112
1587014488690903,61112
1587014488692180,61112
1587014488692987,61112
1587014488694633,61112
1587014488699439,61112
1587014489212021,61705
1587014489212792,61705
1587014489224984,61705
1587014489227771,61705
1587014489231417,61705
1587014489232818,61705
1587014489245886,61705
1587014489246794,61705
1587014489247657,61705
1587014489249615,61705
1587014489250591,61705
1587014489252159,61705
1587014489263988,61705
1587014489766890,64351
1587014489780185,64351
1587014489793018,64351
1587014489794222,64351
1587014489795101,64351
1587014489796094,64351
1587014489797150,64351
1587014489797961,64351
1587014489813006,64351
1587014489813954,64351
1587014489814898,64351
1587014489815489,64351
1587014489817269,64351
1587014490221359,37
1587014490326921,64048
1587014490327850,64048
1587014490328227,64048
1587014490330006,64048
1587014490331947,64048
1587014490333847,64048
1587014490366592,64048
1587014493384036,64048
1587014493386129,64048
1587014493396964,64048
1587014493542837,64048
1587014493544868,64048
1587014493546217,64048
1587014494048486,67621
1587014494048861,67621
1587014494809557,37
1587014495050370,67621
1587014495051157,67621
1587014495051985,67621
1587014495052388,67621
1587014495053082,67621
1587014495054719,67621
1587014495059036,67621
1587014495059994,67621
1587014495061665,67621
1587014495159002,4
1587014496073093,67621
1587014496084296,67621
1587014496567524,63
1587014496602251,67971
1587014496603334,67971
1587014496604788,67971
1587014496616097,67971
1587014496616658,67971
1587014497056128,63
1587014497620481,67971
1587014497623140,67971
1587014497634413,67971
1587014497645352,67971
1587014497645905,67971
1587014499080376,37
1587014500650996,67971
1587014500652510,67971
1587014500663197,67971
1587014501182393,73515
1587014501183222,73515
1587014501185301,73515
1587014501197030,73515
1587014501197797,73515
1587014501198362,73515
1587014501210090,73515
1587014501222394,73515
1587014501233102,73515
1587014501243961,73515
1587014501244617,73515
1587014501246274,73515
1587014501257205,73515
1587014501772055,69564
1587014501773016,69564
1587014501774559,69564
1587014501776313,69564
1587014501777892,69564
1587014501778268,69564
1587014501778619,69564
1587014501788992,69564
1587014501789637,69564
1587014501791762,69564
1587014501802970,69564
1587014501814191,69564
1587014501825381,69564
1587014502328916,69372
1587014502340879,69372
1587014502352296,69372
1587014502352694,69372
1587014502353554,69372
1587014502366064,69372
1587014502366914,69372
1587014502368248,69372
1587014502369962,69372
1587014502371861,69372
1587014502372413,69372
1587014502374040,69372
1587014502374914,69372
1587014502894819,69353
1587014502896329,69353
1587014502908921,69353
1587014502920248,69353
1587014502931034,69353
1587014502942012,69353
1587014502942808,69353
1587014502943461,69353
1587014502956385,69353
1587014502958510,69353
1587014502961405,69353
1587014502964657,69353
1587014502976597,69353
1587014503485898,71216
1587014503497054,71216
1587014503508086,71216
1587014503519218,71216
1587014503530024,71216
1587014503530903,71216
1587014503531825,71216
1587014503543156,71216
1587014503543735,71216
1587014503544636,71216
1587014503546412,71216
1587014503558060,71216
1587014503569007,71216
1587014504088053,70549
1587014504099271,70549
1587014504099682,70549
1587014504110958,70549
1587014504122232,70549
1587014504123024,70549
1587014504124388,70549
1587014504135012,70549
1587014504146236,70549
1587014504146873,70549
1587014504147517,70549
1587014504147960,70549
1587014504149996,70549
1587014504663035,70588
1587014504676180,70588
1587014504678006,70588
1587014504689362,70588
1587014504699983,70588
1587014504710991,70588
1587014504722298,70588
1587014504725134,70588
1587014504725699,70588
1587014504726765,70588
1587014504728504,70588
1587014504729262,70588
1587014504730059,70588
1587014505053427,37
1587014505239932,71308
1587014505242765,71308
1587014505244295,71308
1587014505244933,71308
1587014505247567,71308
1587014505248029,71308
1587014505249842,71308
1587014505260985,71308
1587014505272435,71308
1587014505273114,71308
1587014505274100,71308
1587014505285251,71308
1587014505285877,71308
1587014505806326,72238
1587014505807096,72238
1587014505808728,72238
1587014505809342,72238
1587014505810099,72238
1587014505812982,72238
1587014505825064,72238
1587014505836732,72238
1587014505848110,72238
1587014505859019,72238
1587014505869959,72238
1587014505881036,72238
1587014505892180,72238
1587014506317344,60
1587014506414481,72051
1587014506424984,72051
1587014506436361,72051
1587014506448198,72051
1587014506495564,72051
1587014506497985,72051
1587014506508980,72051
1587014506509722,72051
1587014506523671,72051
1587014506524620,72051
1587014506525593,72051
1587014506526828,72051
1587014506527964,72051
1587014507034964,71888
1587014507197319,4
1587014508041457,71888
1587014508042446,71888
1587014508053084,71888
1587014508054245,71888
1587014508055263,71888
1587014508055963,71888
1587014508057591,71888
1587014508067980,71888
1587014508068651,71888
1587014508080038,71888
1587014508080588,71888
1587014508081252,71888
1587014509593074,72764
1587014509593832,72764
1587014509595363,72764
1587014509597592,72764
1587014509608141,72764
1587014509619070,72764
1587014509619865,72764
1587014509620848,72764
1587014509633581,72764
1587014509635894,72764
1587014509658584,72764
1587014509671409,72764
1587014509693535,72764
1587014510110526,37
1587014510207232,73062
1587014510207986,73062
1587014510220410,73062
1587014510221986,73062
1587014510222943,73062
1587014510231805,73062
1587014510243504,73062
1587014510256012,73062
1587014510267045,73062
1587014510277973,73062
1587014510278694,73062
1587014510280137,73062
1587014510294435,73062
1587014510805588,72778
1587014510817033,72778
1587014510828065,72778
1587014510838965,72778
1587014510839914,72778
1587014510840545,72778
1587014510841608,72778
1587014510843395,72778
1587014510844096,72778
1587014510846390,72778
1587014510857031,72778
1587014510857757,72778
1587014510876290,72778
1587014511390206,74213
1587014511401070,74213
1587014511412036,74213
1587014511413089,74213
1587014511424119,74213
1587014511424509,74213
1587014511424860,74213
1587014511436129,74213
1587014511447296,74213
1587014511458231,74213
1587014511459998,74213
1587014511461813,74213
1587014511473050,74213
1587014511977624,74152
1587014511978782,74152
1587014511980264,74152
1587014511981772,74152
1587014511993672,74152
1587014511998137,74152
1587014512009072,74152
1587014512025737,74152
1587014512048389,74152
1587014512061073,74152
1587014512072881,74152
1587014512073578,74152
1587014512075526,74152
1587014512102816,37
1587014512630253,74052
1587014512631389,74052
1587014512632432,74052
1587014512634488,74052
1587014512636182,74052
1587014512638216,74052
1587014512649171,74052
1587014512660064,74052
1587014512663107,74052
1587014512674482,74052
1587014513684058,74052
1587014513694976,74052
1587014513695681,74052
1587014514200363,75836
1587014514201251,75836
1587014514201992,75836
1587014514203532,75836
1587014514205349,75836
1587014514216077,75836
1587014514218506,75836
1587014514229068,75836
1587014514232410,75836
1587014514232829,75836
1587014514233900,75836
1587014514245498,75836
1587014514258567,75836
1587014514761104,75196
1587014514761585,75196
1587014514762224,75196
1587014514816931,37
1587014515228398,37
1587014515770031,75196
1587014515770944,75196
1587014515772729,75196
1587014515784074,75196
1587014515784727,75196
1587014515786979,75196
1587014515787623,75196
1587014515789092,75196
1587014515789714,75196
1587014515790922,75196
1587014516294416,76851
1587014516294877,76851
1587014516306247,76851
1587014516308044,76851
1587014516308843,76851
1587014516309792,76851
1587014516321058,76851
1587014516332929,76851
1587014516333701,76851
1587014516335131,76851
1587014516337333,76851
1587014516348037,76851
1587014516349090,76851
1587014516857456,75568
1587014516858869,75568
1587014516870596,75568
1587014516871394,75568
1587014517881050,75568
1587014517881823,75568
1587014517882447,75568
1587014517883911,75568
1587014517968345,75568
1587014517969158,75568
1587014517969853,75568
1587014517971989,75568
1587014517973682,75568
1587014518533121,76813
1587014518534326,76813
1587014518534918,76813
1587014518535715,76813
1587014518536453,76813
1587014518541912,76813
1587014518553530,76813
1587014518564274,76813
1587014518575020,76813
1587014518586703,76813
1587014518589306,76813
1587014518601818,76813
1587014518609437,76813
1587014519111860,77273
1587014519112408,77273
1587014519122997,77273
1587014519133980,77273
1587014519134622,77273
1587014519136628,77273
1587014519148908,77273
1587014519160582,77273
1587014519172609,77273
1587014519173740,77273
1587014519175005,77273
1587014519175895,77273
1587014519177212,77273
1587014519680007,76714
1587014519680451,76714
1587014519682074,76714
1587014519683762,76714
1587014519684226,76714
1587014519695203,76714
1587014519706430,76714
1587014519708119,76714
1587014519709279,76714
1587014519723641,76714
1587014519725505,76714
1587014519726337,76714
1587014519728362,76714
1587014520149984,37
1587014520233703,76623
1587014520234966,76623
1587014520246566,76623
1587014520248634,76623
1587014520249134,76623
1587014520253314,76623
1587014520264080,76623
1587014520275283,76623
1587014520276079,76623
1587014520276922,76623
1587014520282595,76623
1587014520298460,76623
1587014520311117,76623
1587014520812938,77028
1587014520813355,77028
1587014520815340,77028
1587014520826228,77028
1587014520838466,77028
1587014520839380,77028
1587014520840078,77028
1587014521032933,77028
1587014521034816,77028
1587014521035929,77028
1587014521036550,77028
1587014521038418,77028
1587014521039149,77028
1587014521553265,77653
1587014521553968,77653
1587014521555950,77653
1587014521557070,77653
1587014521561413,77653
1587014521563184,77653
1587014521564383,77653
1587014521566696,77653
1587014521575309,77653
1587014521577049,77653
1587014521588096,77653
1587014521599050,77653
1587014521601092,77653
1587014522107013,78912
1587014522118064,78912
1587014522129395,78912
1587014522130146,78912
1587014522131204,78912
1587014522141977,78912
1587014522153049,78912
1587014522154520,78912
1587014522158284,78912
1587014522159606,78912
1587014522161555,78912
1587014522162524,78912
1587014522163547,78912
1587014522671278,78738
1587014522682002,78738
1587014522683836,78738
1587014522686278,78738
1587014522688949,78738
1587014522703410,78738
1587014522704575,78738
1587014522705555,78738
1587014522706323,78738
1587014522708232,78738
1587014522709791,78738
1587014522710669,78738
1587014522711686,78738
1587014523214057,79949
1587014523514522,79949
1587014523519623,79949
1587014523520977,79949
1587014523521685,79949
1587014523523368,79949
1587014523534357,79949
1587014523545018,79949
1587014523545722,79949
1587014523547753,79949
1587014523548592,79949
1587014523550333,79949
1587014523552328,79949
1587014524066380,79863
1587014524070138,79863
1587014524071105,79863
1587014524073796,79863
1587014524074190,79863
1587014524085233,79863
1587014524085929,79863
1587014524087757,79863
1587014524088724,79863
1587014524091927,79863
1587014524092558,79863
1587014524094194,79863
1587014524105124,79863
1587014524611942,79975
1587014524614364,79975
1587014524625054,79975
1587014524626201,79975
1587014524627199,79975
1587014524627857,79975
1587014524629633,79975
1587014524630319,79975
1587014524631353,79975
1587014524632490,79975
1587014524632898,79975
1587014524634615,79975
1587014524635335,79975
1587014525152064,79902
1587014525163029,79902
1587014525174282,79902
1587014525177000,79902
1587014525178253,79902
1587014525179645,79902
1587014525180471,79902
1587014525181253,79902
1587014525182073,79902
1587014525184170,79902
1587014525196269,79902
1587014525207009,79902
1587014525208060,79902
1587014525715972,81275
1587014525716660,81275
1587014525718870,81275
1587014525720470,81275
1587014525731268,81275
1587014525733703,81275
1587014525735782,81275
1587014525744234,81275
1587014525745861,81275
1587014525757075,81275
1587014525762099,81275
1587014525763083,81275
1587014525764683,81275
1587014526272066,80474
1587014526274524,80474
1587014526275157,80474
1587014526277256,80474
1587014526278643,80474
1587014526290159,80474
1587014526291120,80474
1587014526302706,80474
1587014526304141,80474
1587014526304836,80474
1587014526306734,80474
1587014526308699,80474
1587014526309425,80474
1587014526811335,81132
1587014526812263,81132
1587014526813115,81132
1587014526826168,81132
1587014526827263,81132
1587014526827938,81132
1587014526829047,81132
1587014526829939,81132
1587014526841368,81132
1587014526853598,81132
1587014526867128,81132
1587014526868256,81132
1587014526870115,81132
1587014527373585,85981
1587014527376507,85981
1587014527377660,85981
1587014527378698,85981
1587014527390474,85981
1587014527402018,85981
1587014527402868,85981
1587014527405447,85981
1587014527406981,85981
1587014527407816,85981
1587014527419501,85981
1587014527421886,85981
1587014527423738,85981
1587014527945058,83995
1587014527947409,83995
1587014527947916,83995
1587014527949677,83995
1587014527951387,83995
1587014527953592,83995
1587014527954821,83995
1587014527956409,83995
1587014527957172,83995
1587014527972890,83995
1587014527984404,83995
1587014527996415,83995
1587014527997242,83995
1587014528500984,84523
1587014528502659,84523
1587014528503273,84523
1587014528504008,84523
1587014528506421,84523
1587014528516987,84523
1587014528517336,84523
1587014528521185,84523
1587014528522726,84523
1587014528524581,84523
1587014528525109,84523
1587014528527279,84523
1587014528537986,84523
1587014528910712,61
1587014529046089,84025
1587014529046967,84025
1587014529048235,84025
1587014529050214,84025
1587014529051007,84025
1587014529051723,84025
1587014529054158,84025
1587014529065501,84025
1587014529066923,84025
1587014529068542,84025
1587014529080200,84025
1587014529093276,84025
1587014529094606,84025
1587014529597999,85774
1587014529598846,85774
1587014529599513,85774
1587014529611687,85774
1587014529613013,85774
1587014529614332,85774
1587014529628009,85774
1587014529628519,85774
1587014529629443,85774
1587014529638614,85774
1587014529640933,85774
1587014529655306,85774
1587014529657366,85774
1587014530170260,85658
1587014530172316,85658
1587014530173543,85658
1587014530184996,85658
1587014530187564,85658
1587014530188547,85658
1587014530189140,85658
1587014530190032,85658
1587014530192264,85658
1587014530193564,85658
1587014530195098,85658
1587014530201297,85658
1587014530212567,85658
1587014530725006,86176
1587014530725690,86176
1587014530727006,86176
1587014530728182,86176
1587014530740210,86176
1587014530744076,86176
1587014530776301,86176
1587014531785071,86176
1587014531787407,86176
1587014531787867,86176
1587014531799074,86176
1587014531800836,86176
1587014531801522,86176
1587014532304298,90937
1587014532317953,90937
1587014532321679,90937
1587014532323667,90937
1587014532326029,90937
1587014532326448,90937
1587014532327425,90937
1587014532328335,90937
1587014532330660,90937
1587014532332563,90937
1587014532333278,90937
1587014532345012,90937
1587014532345789,90937
1587014532865535,87875
1587014532866227,87875
1587014532867280,87875
1587014532869347,87875
1587014532880844,87875
1587014532893945,87875
1587014532896156,87875
1587014532908263,87875
1587014532914028,87875
1587014532919425,87875
1587014532920282,87875
1587014532920674,87875
1587014532923005,87875
1587014533439096,88172
1587014533441039,88172
1587014533451886,88172
1587014533453588,88172
1587014533469998,88172
1587014533471017,88172
1587014534474361,88172
1587014534475913,88172
1587014534477540,88172
1587014534478192,88172
1587014534482120,88172
1587014534483734,88172
1587014534484804,88172
1587014534994469,93054
1587014534995677,93054
1587014535009821,93054
1587014535012480,93054
1587014535016545,93054
1587014535039921,93054
1587014535042626,93054
1587014535047108,93054
1587014535049779,93054
1587014535050672,93054
1587014535051406,93054
1587014535064871,93054
1587014535067769,93054
1587014535573156,89910
1587014535574043,89910
1587014535588246,89910
1587014535589131,89910
1587014535591853,89910
1587014535594634,89910
1587014535606813,89910
1587014535609645,89910
1587014535611016,89910
1587014535611927,89910
1587014535613575,89910
1587014535614080,89910
1587014535618275,89910
1587014535742898,37
1587014535874956,37
1587014535924570,37
1587014535991058,37
1587014536109559,37
1587014536126326,90937
1587014536126914,90937
1587014536133190,90937
1587014536134091,90937
1587014536140429,90937
1587014536144816,90937
1587014536172805,90937
1587014536185248,90937
1587014536198799,90937
1587014536221831,90937
1587014536224774,90937
1587014536235653,90937
1587014536238308,90937
1587014536759529,90249
1587014536760687,90249
1587014536763043,90249
1587014536765996,90249
1587014536768674,90249
1587014536790794,90249
1587014536801277,90249
1587014536804444,90249
1587014536805197,90249
1587014536806999,90249
1587014536807723,90249
1587014536809656,90249
1587014536823106,90249
1587014537325112,92896
1587014537326605,92896
1587014537330628,92896
1587014537334357,92896
1587014537335224,92896
1587014537341892,92896
1587014537343024,92896
1587014537343648,92896
1587014537345470,92896
1587014537347195,92896
1587014537368827,92896
1587014537380788,92896
1587014537402841,92896
1587014537905513,92457
1587014537908429,92457
1587014537908831,92457
1587014537922177,92457
1587014537933230,92457
1587014537937107,92457
1587014537962822,92457
1587014537965592,92457
1587014537992784,92457
1587014538004149,92457
1587014538006241,92457
1587014538014303,92457
1587014538017295,92457
1587014538528094,94033
1587014538529806,94033
1587014538551825,94033
1587014538564058,94033
1587014538570089,94033
1587014538572186,94033
1587014538574631,94033
1587014538587512,94033
1587014538604895,94033
1587014538617674,94033
1587014538629067,94033
1587014538636554,94033
1587014538639903,94033
1587014539149598,93586
1587014539151159,93586
1587014539156546,93586
1587014539177818,93586
1587014539178593,93586
1587014539178971,93586
1587014539182631,93586
1587014539184570,93586
1587014539195056,93586
1587014539197976,93586
1587014539210046,93586
1587014539211026,93586
1587014539214149,93586
1587014539716676,94637
1587014539729200,94637
1587014539740978,94637
1587014539743604,94637
1587014539744436,94637
1587014539746575,94637
1587014539750955,94637
1587014539751788,94637
1587014539752451,94637
1587014539754411,94637
1587014539756660,94637
1587014539770841,94637
1587014539782301,94637
1587014540285049,95169
1587014540298504,95169
1587014540313820,95169
1587014540316447,95169
1587014540318014,95169
1587014540323923,95169
1587014540337812,95169
1587014540351832,95169
1587014540355531,95169
1587014540357676,95169
1587014540359697,95169
1587014540372068,95169
1587014540372460,95169
1587014540884828,95949
1587014540897953,95949
1587014540909229,95949
1587014540911663,95949
1587014540913928,95949
1587014540926099,95949
1587014540930348,95949
1587014540945846,95949
1587014540967824,95949
1587014540973135,95949
1587014540984052,95949
1587014540987519,95949
1587014540988235,95949
1587014541506797,97541
1587014541519929,37
1587014541520019,97541
1587014541522533,97541
1587014541525608,97541
1587014541527630,97541
1587014541540690,97541
1587014541545287,97541
1587014541556220,97541
1587014541559183,97541
1587014541692662,97541
1587014541697709,97541
1587014541704294,97541
1587014541717808,97541
1587014543236050,96385
1587014543242833,96385
1587014543248884,96385
1587014543260421,96385
1587014543262391,96385
1587014543263310,96385
1587014543275833,96385
1587014543290484,96385
1587014543292136,96385
1587014543301524,96385
1587014543304978,96385
1587014543317857,96385
1587014543321840,96385
1587014543830569,98936
1587014543835547,98936
1587014543846397,98936
1587014543850098,98936
1587014543863065,98936
1587014543874215,98936
1587014543890823,98936
1587014543892489,98936
1587014543895929,98936
1587014543903384,98936
1587014543906785,98936
1587014543929843,98936
1587014543930406,98936
1587014544439101,97865
1587014544440891,97865
1587014544442018,97865
1587014544444854,97865
1587014544445214,97865
1587014544453310,97865
1587014544464946,97865
1587014544467658,97865
1587014544480782,97865
1587014544493241,97865
1587014544497193,97865
1587014544501914,97865
1587014544514824,97865
1587014545020918,99833
1587014545023921,99833
1587014545026184,99833
1587014545028079,99833
1587014545030061,99833
1587014545042146,99833
1587014545044076,99833
1587014545065851,99833
1587014545068424,99833
1587014545072493,99833
1587014545077830,99833
1587014545091100,99833
1587014545104956,99833
1587014545723577,99798
1587014545726535,99798
1587014545727955,99798
1587014545745561,99798
1587014545750788,99798
1587014545752894,99798
1587014545757288,99798
1587014545760215,99798
1587014545760650,99798
1587014545774033,99798
1587014545775493,99798
1587014545789898,99798
1587014545790816,99798
1587014546318354,99790
1587014546322593,99790
1587014546323479,99790
1587014546325186,99790
1587014546327943,99790
1587014546331518,99790
1587014546335907,99790
1587014546341080,99790
1587014546342865,99790
1587014546350843,99790
1587014546351883,99790
1587014546356395,99790
1587014546357722,99790
1587014546985400,100522
1587014546987963,100522
1587014546992290,100522
1587014546993569,100522
1587014546994038,100522
1587014547007129,100522
1587014547007964,100522
1587014547011904,100522
1587014547016044,100522
1587014547029298,100522
1587014547044146,100522
1587014547046236,100522
1587014547051691,100522
1587014547558402,102505
1587014548563223,102505
1587014548579559,102505
1587014548582516,102505
1587014548604839,102505
1587014548620780,102505
1587014548621622,102505
1587014548622891,102505
1587014548628086,102505
1587014548640951,102505
1587014548642248,102505
1587014548644927,102505
1587014548654127,102505
1587014549155482,101960
1587014549170824,101960
1587014549171571,101960
1587014549176649,101960
1587014549188870,101960
1587014549202602,101960
1587014549205814,101960
1587014549211732,101960
1587014549212896,101960
1587014549216184,101960
1587014549228832,101960
1587014549230404,101960
1587014549234484,101960
1587014549741428,103533
1587014549742499,103533
1587014550750113,103533
1587014550756401,103533
1587014550759304,103533
1587014550762027,103533
1587014550774642,103533
1587014550777679,103533
1587014550783152,103533
1587014550795085,103533
1587014550798763,103533
1587014550801813,103533
1587014550814219,103533
1587014551317281,105880
1587014551319789,105880
1587014551321604,105880
1587014551322109,105880
1587014551323805,105880
1587014551324799,105880
1587014551325609,105880
1587014551329585,105880
1587014551331877,105880
1587014551347020,105880
1587014551352485,105880
1587014551374088,105880
1587014551374733,105880
1587014551877581,103543
1587014551881489,103543
1587014551884893,103543
1587014551888344,103543
1587014551891046,103543
1587014551903817,103543
1587014551918841,103543
1587014551922422,103543
1587014551925052,103543
1587014551925396,103543
1587014551928472,103543
1587014551929291,103543
1587014551940212,103543
1587014552449497,105752
1587014552453496,105752
1587014552464815,105752
1587014552476083,105752
1587014552478823,105752
1587014552482613,105752
1587014552495162,105752
1587014552497809,105752
1587014552510806,105752
1587014552512393,105752
1587014552514137,105752
1587014552514597,105752
1587014552517069,105752
1587014553019761,105369
1587014553020504,105369
1587014553021181,105369
1587014553025130,105369
1587014553029806,105369
1587014553042833,105369
1587014553045778,105369
1587014553048213,105369
1587014553059525,105369
1587014553060613,105369
1587014553071994,105369
1587014553074573,105369
1587014553076818,105369
1587014553593131,106695
1587014553594162,106695
1587014553596491,106695
1587014553597729,106695
1587014553598767,106695
1587014553628525,106695
1587014553631995,106695
1587014553637065,106695
1587014553643520,106695
1587014553645160,106695
1587014553647834,106695
1587014553651810,106695
1587014553655784,106695
1587014554168466,108167
1587014554173367,108167
1587014554186818,108167
1587014554194208,108167
1587014555212111,108167
1587014555218250,108167
1587014555219950,108167
1587014555225224,108167
1587014555227628,108167
1587014555242893,108167
1587014555248213,108167
1587014555248577,108167
1587014555251309,108167
1587014555765575,109627
1587014555769229,109627
1587014555770131,109627
1587014555783889,109627
1587014555787853,109627
1587014555788416,109627
1587014556790213,109627
1587014556792851,109627
1587014556794583,109627
1587014556798462,109627
1587014556809853,109627
1587014556823059,109627
1587014556831617,109627
1587014557339827,111533
1587014557344459,111533
1587014557348316,111533
1587014557349506,111533
1587014557350489,111533
1587014557363943,111533
1587014557367079,111533
1587014557379249,111533
1587014557380356,111533
1587014557386648,111533
1587014557387755,111533
1587014557390452,111533
1587014557392120,111533
1587014557897303,110326
1587014557902216,110326
1587014557904357,110326
1587014557917543,110326
1587014557920891,110326
1587014557926058,110326
1587014557934830,110326
1587014557936331,110326
1587014557939306,110326
1587014557940508,110326
1587014557945667,110326
1587014557951198,110326
1587014557951974,110326
1587014558461576,109798
1587014558473260,109798
1587014558477318,109798
1587014558480313,109798
1587014558481172,109798
1587014558486369,109798
1587014558487825,109798
1587014558501852,109798
1587014558504148,109798
1587014558518831,109798
1587014558522738,109798
1587014558529870,109798
1587014558533905,109798
1587014559040619,110585
1587014559052240,110585
1587014559055127,110585
1587014559061286,110585
1587014559068526,110585
1587014559069898,110585
1587014559071151,110585
1587014559087109,110585
1587014559091236,110585
1587014559095437,110585
1587014559099826,110585
1587014559103897,110585
1587014559106308,110585
1587014559622529,110766
1587014559624844,110766
1587014559627205,110766
1587014559629596,110766
1587014559630976,110766
1587014559633048,110766
1587014559634024,110766
1587014559637950,110766
1587014559644348,110766
1587014559646432,110766
1587014559662887,110766
1587014559665963,110766
1587014562674593,110766
1587014563179173,118886
1587014563181155,118886
1587014563181580,118886
1587014563188248,118886
1587014563201166,118886
1587014563204484,118886
1587014563210418,118886
1587014563213105,118886
1587014563224443,118886
1587014563227359,118886
1587014563228154,118886
1587014563232708,118886
1587014563245263,118886
1587014563756406,114793
1587014563760517,114793
1587014563761678,114793
1587014563769470,114793
1587014563772570,114793
1587014563773693,114793
1587014563777982,114793
1587014563784311,114793
1587014563807862,114793
1587014563808892,114793
1587014563809873,114793
1587014563814476,114793
1587014563818956,114793
1587014564331584,115767
1587014564335386,115767
1587014564336142,115767
1587014564342637,115767
1587014564344907,115767
1587014564350883,115767
1587014564352724,115767
1587014564356987,115767
1587014564357444,115767
1587014564370401,115767
1587014564374323,115767
1587014564387606,115767
1587014564390417,115767
1587014564893290,115166
1587014564893895,115166
1587014564895906,115166
1587014565526901,115166
1587014565530095,115166
1587014565534237,115166
1587014565543833,115166
1587014565546986,115166
1587014565547486,115166
1587014565547862,115166
1587014565550607,115166
1587014565554990,115166
1587014565567846,115166
1587014566069950,117164
1587014566072959,117164
1587014566075190,117164
1587014566077113,117164
1587014566078940,117164
1587014566084134,117164
1587014566095810,117164
1587014566119191,117164
1587014566122005,117164
1587014566126641,117164
1587014566129641,117164
1587014566145416,117164
1587014566150709,117164
1587014566659776,116349
1587014566661159,116349
1587014566664128,116349
1587014566678893,116349
1587014566682120,116349
1587014566697836,116349
1587014566702076,116349
1587014566715075,116349
1587014566715495,116349
1587014566726197,116349
1587014566740461,116349
1587014566746714,116349
1587014566749718,116349
1587014567262365,116890
1587014567284896,116890
1587014568286234,116890
1587014568289191,116890
1587014568289583,116890
1587014568300521,116890
1587014568305169,116890
1587014568325827,116890
1587014568326353,116890
1587014568343902,116890
1587014568355922,116890
1587014568358532,116890
1587014568362219,116890
1587014568877481,119117
1587014568879932,119117
1587014568884712,119117
1587014568896957,119117
1587014568903177,119117
1587014568917864,119117
1587014568922813,119117
1587014568926508,119117
1587014568947842,119117
1587014568955957,119117
1587014568960287,119117
1587014568974835,119117
1587014568976138,119117
1587014569510889,119022
1587014569523372,119022
1587014569528910,119022
1587014569531105,119022
1587014569544190,119022
1587014569546655,119022
1587014569550202,119022
1587014569554142,119022
1587014569556624,119022
1587014569568836,119022
1587014569569293,119022
1587014569582591,119022
1587014569597867,119022
1587014570100212,118720
1587014570116898,118720
1587014570119725,118720
1587014570124014,118720
1587014570145939,118720
1587014570152056,118720
1587014570153507,118720
1587014570160614,118720
1587014570166481,118720
1587014570187851,118720
1587014570189483,118720
1587014570190442,118720
1587014570201681,118720
1587014570703691,119758
1587014570715359,119758
1587014570726231,119758
1587014570728969,119758
1587014570733075,119758
1587014570733539,119758
1587014570746092,119758
1587014570748518,119758
1587014570753450,119758
1587014570767839,119758
1587014570780966,119758
1587014570783574,119758
1587014570788758,119758
1587014571302662,119299
1587014571314268,119299
1587014571318555,119299
1587014571330876,119299
1587014571344887,119299
1587014571347972,119299
1587014571361941,119299
1587014571365473,119299
1587014571368549,119299
1587014571370108,119299
1587014571370659,119299
1587014571373673,119299
1587014571376828,119299
1587014571878525,119775
1587014571884914,119775
1587014571900972,119775
1587014571904294,119775
1587014571917901,119775
1587014571920520,119775
1587014571920956,119775
1587014571923904,119775
1587014571944303,119775
1587014571947309,119775
1587014571952109,119775
1587014571952548,119775
1587014571969848,119775
1587014572482806,120812
1587014572494893,120812
1587014572498561,120812
1587014572503428,120812
1587014572506008,120812
1587014572518740,120812
1587014572522349,120812
1587014572527480,120812
1587014572528588,120812
1587014572529675,120812
1587014572533264,120812
1587014572536111,120812
1587014572540437,120812
1587014573055993,120447
1587014573056421,120447
1587014573056801,120447
1587014573057168,120447
1587014573060544,120447
1587014573063448,120447
1587014573065631,120447
1587014573078082,120447
1587014573091609,120447
1587014573093289,120447
1587014573094892,120447
1587014573110373,120447
1587014573111288,120447
1587014573630779,121610
1587014573642816,121610
1587014573656880,121610
1587014573659089,121610
1587014573662287,121610
1587014573664668,121610
1587014573665367,121610
1587014573668147,62
1587014573670928,121610
1587014573686406,121610
1587014573689404,121610
1587014573702396,121610
1587014573705922,121610
1587014573709671,121610
1587014574213657,121332
1587014574216801,121332
1587014574229820,121332
1587014574234419,121332
1587014574235611,121332
1587014574236166,121332
1587014574242016,121332
1587014574248619,121332
1587014574261915,121332
1587014574265074,121332
1587014574300542,121332
1587014574307775,121332
1587014574320880,121332
1587014574829479,121871
1587014574830643,121871
1587014575846897,121871
1587014575847785,121871
1587014575850279,121871
1587014575851885,121871
1587014575854869,121871
1587014575855643,121871
1587014575856167,121871
1587014575872867,121871
1587014575885821,121871
1587014575887693,121871
1587014575890297,121871
1587014576403297,125597
1587014576414829,125597
1587014576419989,125597
1587014576420863,125597
1587014576424147,125597
1587014576427062,125597
1587014576430429,125597
1587014576432538,125597
1587014576439566,125597
1587014576443454,125597
1587014576446522,125597
1587014576458110,125597
1587014576462107,125597
1587014576965832,123878
1587014576984870,123878
1587014576987852,123878
1587014576991157,123878
1587014577013874,123878
1587014577022017,123878
1587014577024890,123878
1587014577028026,123878
1587014577029059,123878
1587014577032136,123878
1587014577046318,123878
1587014577047632,123878
1587014577060595,123878
1587014577569254,123992
1587014577583095,123992
1587014577587611,123992
1587014577613365,123992
1587014577623912,123992
1587014577637071,123992
1587014577641828,123992
1587014577643383,123992
1587014577655766,123992
1587014577656684,123992
1587014577658300,123992
1587014577659405,123992
1587014577661884,123992
1587014578178180,124852
1587014578190831,124852
1587014578193112,124852
1587014578196221,124852
1587014578199433,124852
1587014578211937,124852
1587014578228464,124852
1587014578231232,124852
1587014578234366,124852
1587014578241580,124852
1587014578244667,124852
1587014578247362,124852
1587014578249285,124852
1587014578766915,124323
1587014578769771,124323
1587014578772630,124323
1587014578773413,124323
1587014578789069,124323
1587014578789944,124323
1587014578805629,124323
1587014578810796,124323
1587014578817804,124323
1587014578823502,124323
1587014578825466,124323
1587014578839351,124323
1587014578841124,124323
1587014579381801,125380
1587014579384906,125380
1587014579388105,125380
1587014579392255,125380
1587014579393634,125380
1587014579394589,125380
1587014579395572,125380
1587014579398443,125380
1587014579402076,125380
1587014579402517,125380
1587014579428053,125380
1587014579429336,125380
1587014579441261,125380
1587014579947554,125286
1587014579948652,125286
1587014579964060,125286
1587014579968403,125286
1587014579969570,125286
1587014579986480,125286
1587014579987271,125286
1587014579991366,125286
1587014579996816,125286
1587014580002867,125286
1587014580016167,125286
1587014580018492,125286
1587014580021231,125286
1587014580527694,126014
1587014580532815,126014
1587014580534028,126014
1587014580548882,126014
1587014580565343,126014
1587014580569122,126014
1587014580570362,126014
1587014580582014,126014
1587014580584551,126014
1587014580595632,126014
1587014580600048,126014
1587014580602267,126014
1587014580606465,126014
1587014581111101,126357
1587014581115143,126357
1587014581115584,126357
1587014581119705,126357
1587014581120689,126357
1587014581135031,126357
1587014581148170,126357
1587014581157848,126357
1587014581160376,126357
1587014581161406,126357
1587014581162432,126357
1587014581166209,126357
1587014581179688,126357
1587014581695235,126749
1587014581696017,126749
1587014581697181,126749
1587014581700561,126749
1587014581706685,126749
1587014581715980,126749
1587014581720071,126749
1587014581731874,126749
1587014581734026,126749
1587014581735936,126749
1587014581739989,126749
1587014581746447,126749
1587014581767887,126749
1587014582275480,126217
1587014582277879,126217
1587014582279528,126217
1587014582280797,126217
1587014582283439,126217
1587014582287709,126217
1587014582300267,126217
1587014582303726,126217
1587014582304825,126217
1587014582305425,126217
1587014582307737,126217
1587014582308992,126217
1587014582310447,126217
1587014582872510,127775
1587014582874153,127775
1587014582877065,127775
1587014582880038,127775
1587014582880824,127775
1587014582894538,127775
1587014582908219,127775
1587014582922149,127775
1587014582924947,127775
1587014582926059,127775
1587014582935970,127775
1587014582936802,127775
1587014582939187,127775
1587014583448074,128366
1587014583455612,128366
1587014583472321,128366
1587014583473017,128366
1587014583489557,128366
1587014583492041,128366
1587014583496201,128366
1587014583496647,128366
1587014583509366,128366
1587014583522881,128366
1587014583540887,128366
1587014583544178,128366
1587014583558813,128366
1587014584074678,128864
1587014584088511,128864
1587014584100304,128864
1587014584102292,128864
1587014584116881,128864
1587014584132067,128864
1587014584132556,128864
1587014584146033,128864
1587014584150079,128864
1587014584150668,128864
1587014587585899,128864
1587014587587662,128864
1587014587590630,128864
1587014588094246,135403
1587014588095095,135403
1587014588111078,135403
1587014588126589,135403
1587014588130716,135403
1587014588131690,135403
1587014588144880,135403
1587014588150068,135403
1587014588162879,135403
1587014588169501,135403
1587014588186336,135403
1587014588189442,135403
1587014588193185,135403
1587014588704352,131632
1587014588707116,131632
1587014588713206,131632
1587014588715874,131632
1587014588716603,131632
1587014588717523,131632
1587014588718730,131632
1587014588731897,131632
1587014588732386,131632
1587014588745974,131632
1587014588749277,131632
1587014588762708,131632
1587014588765012,131632
1587014589280039,132126
1587014589300195,132126
1587014589304396,132126
1587014589305412,132126
1587014589308508,132126
1587014589323868,132126
1587014589328336,132126
1587014589343787,132126
1587014589366081,132126
1587014589367921,132126
1587014589370875,132126
1587014589374801,132126
1587014589377940,132126
1587014589883262,133937
1587014589883665,133937
1587014589897172,133937
1587014589903303,133937
1587014589903797,133937
1587014589918988,133937
1587014589932757,133937
1587014589933511,133937
1587014589934818,133937
1587014589947568,133937
1587014589952701,133937
1587014589955927,133937
1587014589961393,133937
1587014590474976,133480
1587014590500932,133480
1587014590512354,133480
1587014590512834,133480
1587014590516875,133480
1587014590520937,133480
1587014590532910,133480
1587014597566981,133480
1587014597575353,133480
1587014597582029,133480
1587014597585303,133480
1587014597603047,133480
1587014597627910,133480
1587014598133876,145113
1587014598145321,145113
1587014598159334,145113
1587014598175323,145113
1587014598192363,145113
1587014598194487,145113
1587014598202247,145113
1587014598202695,145113
1587014598206754,145113
1587014598212009,145113
1587014598218022,145113
1587014598234376,145113
1587014598248127,145113
1587014598755270,137267
1587014598769977,137267
1587014598774121,137267
1587014598774618,137267
1587014598789107,137267
1587014598790218,137267
1587014598795009,137267
1587014598804230,137267
1587014598805498,137267
1587014598807512,137267
1587014598810855,137267
1587014598814419,137267
1587014598838451,137267
1587014599341539,138744
1587014599360604,138744
1587014599365511,138744
1587014599379526,138744
1587014599381177,138744
1587014599387897,138744
1587014599390847,138744
1587014599392804,138744
1587014599403882,138744
1587014599417879,138744
1587014599445684,138744
1587014599458243,138744
1587014599462571,138744
1587014600019928,138273
1587014600033176,138273
1587014600048843,138273
1587014600051900,138273
1587014600054839,138273
1587014600057956,138273
1587014600058472,138273
1587014600071610,138273
1587014600076173,138273
1587014600078423,138273
1587014600081346,138273
1587014600084852,138273
1587014600086825,138273
1587014600601003,139312
1587014600605541,139312
1587014600608511,139312
1587014600610071,139312
1587014600621256,139312
1587014600628813,139312
1587014600632393,139312
1587014600646189,139312
1587014600650512,139312
1587014600660163,139312
1587014600672534,139312
1587014600674717,139312
1587014600675708,139312
1587014601186979,139148
1587014601191281,139148
1587014601204575,139148
1587014601206390,139148
1587014601219107,139148
1587014601227987,139148
1587014601228588,139148
1587014601240545,139148
1587014601242300,139148
1587014601245109,139148
1587014601248073,139148
1587014601262659,139148
1587014601268320,139148
1587014601789037,139694
1587014601793428,139694
1587014601796662,139694
1587014601797209,139694
1587014601801540,139694
1587014601802956,139694
1587014601821294,139694
1587014601822943,139694
1587014601823426,139694
1587014601824046,139694
1587014601826428,139694
1587014601830360,139694
1587014601834793,139694
1587014602345171,139495
1587014602348671,139495
1587014602351928,139495
1587014602355566,139495
1587014602358094,139495
1587014602369098,139495
1587014603819868,139495
1587014603824692,139495
1587014603839102,139495
1587014603852777,139495
1587014603853438,139495
1587014603857846,139495
1587014603872849,139495
1587014604390001,142466
1587014604392206,142466
1587014604393136,142466
1587014604407285,142466
1587014604414565,142466
1587014604433506,142466
1587014604449962,142466
1587014604461983,142466
1587014604463158,142466
1587014604479899,142466
1587014604482549,142466
1587014604487127,142466
1587014604491899,142466
1587014605004941,140632
1587014605018891,140632
1587014605021847,140632
1587014605023437,140632
1587014605024118,140632
1587014605044149,140632
1587014605045250,140632
1587014605059277,140632
1587014605062464,140632
1587014605075921,140632
1587014605077505,140632
1587014605081546,140632
1587014605093356,140632
1587014605597445,140727
1587014605607869,140727
1587014605614917,140727
1587014605619225,140727
1587014605637034,140727
1587014605649424,140727
1587014605649888,140727
1587014605652827,140727
1587014605653778,140727
1587014605667081,140727
1587014605670985,140727
1587014605671708,140727
1587014605683894,140727
1587014606204985,141669
1587014606219030,141669
1587014606223578,141669
1587014606232676,141669
1587014606244589,141669
1587014606256331,141669
1587014606318235,141669
1587014606319808,141669
1587014606320381,141669
1587014606326607,141669
1587014606329225,141669
1587014606332061,141669
1587014606334401,141669
1587014606852182,141599
1587014606859549,141599
1587014606863780,141599
1587014606867919,141599
1587014606872700,141599
1587014606876954,141599
1587014606891294,141599
1587014606892055,141599
1587014606910432,141599
1587014606929441,141599
1587014606933597,141599
1587014606934206,141599
1587014606935284,141599
1587014607495320,141545
1587014607508511,141545
1587014607511170,141545
1587014607512450,141545
1587014607535577,141545
1587014607539239,141545
1587014607557455,141545
1587014607561106,141545
1587014607566827,141545
1587014607567629,141545
1587014607578608,141545
1587014607593929,141545
1587014607600203,141545
1587014608110615,142335
1587014608115695,142335
1587014608119983,142335
1587014608132325,142335
1587014608137127,142335
1587014608144766,142335
1587014608152169,142335
1587014608153672,142335
1587014608155083,142335
1587014608159370,142335
1587014608160541,142335
1587014608188386,142335
1587014608198543,142335
1587014608711651,141952
1587014608721196,141952
1587014608727537,141952
1587014608728782,141952
1587014608743379,141952
1587014608745152,141952
1587014608746100,141952
1587014608761617,141952
1587014608771133,141952
1587014608778879,141952
1587014608787958,141952
1587014608788702,141952
1587014608789333,141952
1587014609306118,142237
1587014609315938,142237
1587014609330104,142237
1587014609340590,142237
1587014609353008,142237
1587014609356802,142237
1587014609360928,142237
1587014609415306,142237
1587014609419077,142237
1587014609423367,142237
1587014609441144,142237
1587014609443236,142237
1587014609448054,142237
1587014609957862,142964
1587014609967676,142964
1587014609983309,142964
1587014609987969,142964
1587014609988569,142964
1587014609992159,142964
1587014609993084,142964
1587014609999495,142964
1587014610012045,142964
1587014610018001,142964
1587014610029981,142964
1587014610034983,142964
1587014610037063,142964
1587014610595873,143328
1587014610601812,143328
1587014610602518,143328
1587014610602976,143328
1587014610611395,143328
1587014610632967,143328
1587014610641818,143328
1587014610642459,143328
1587014610646980,143328
1587014610651356,143328
1587014610664997,143328
1587014610673163,143328
1587014610682135,143328
1587014611186175,143879
1587014611207993,143879
1587014611208711,143879
1587014611212468,143879
1587014611218910,143879
1587014611219566,143879
1587014611219990,143879
1587014611237022,143879
1587014611241357,143879
1587014611248770,143879
1587014611250751,143879
1587014611251307,143879
1587014611252111,143879
1587014611766642,144675
1587014611771461,144675
1587014611776346,144675
1587014611785048,144675
1587014611800112,144675
1587014611816917,144675
1587014611818305,144675
1587014611829625,144675
1587014611835936,144675
1587014611844754,144675
1587014611851281,144675
1587014611863076,144675
1587014611885823,144675
1587014612501791,144771
1587014612508050,144771
1587014612523558,144771
1587014612526860,144771
1587014612540035,144771
1587014612558889,144771
1587014612567378,144771
1587014612572809,144771
1587014612574272,144771
1587014612583112,144771
1587014612595954,144771
1587014612597458,144771
1587014612605602,144771
1587014613113778,145919
1587014613114460,145919
1587014613129007,145919
1587014613133833,145919
1587014613137463,145919
1587014613151901,145919
1587014613323263,145919
1587014613328696,145919
1587014613336282,145919
1587014613349584,145919
1587014613352499,145919
1587014613367835,145919
1587014613370371,145919
1587014613876853,146666
1587014613904011,146666
1587014613906545,146666
1587014613910499,146666
1587014613917157,146666
1587014613918653,146666
1587014613931463,146666
1587014613935368,146666
1587014613936372,146666
1587014613938226,146666
1587014613938825,146666
1587014613942905,146666
1587014613944242,146666
1587014614464089,146146
1587014614467165,146146
1587014614470215,146146
1587014614481975,146146
1587014614490476,146146
1587014614504553,146146
1587014614507621,146146
1587014614508971,146146
1587014614510292,146146
1587014614516454,146146
1587014614524757,146146
1587014614535125,146146
1587014614537084,146146
1587014615237069,146409
1587014615245531,146409
1587014615265013,146409
1587014615276687,146409
1587014615281408,146409
1587014615282015,146409
1587014615285476,146409
1587014615291629,146409
1587014615298463,146409
1587014615328924,146409
1587014615344945,146409
1587014615356924,146409
1587014615361570,146409
1587014615869365,146674
1587014615872991,146674
1587014615888089,146674
1587014615892297,146674
1587014615893004,146674
1587014615908704,146674
1587014615913165,146674
1587014615921786,146674
1587014615933011,146674
1587014615961093,146674
1587014615962333,146674
1587014615964013,146674
1587014615976353,146674
1587014616480047,146937
1587014616487608,146937
1587014616499289,146937
1587014616502905,146937
1587014616526997,146937
1587014616539916,146937
1587014616540664,146937
1587014616544176,146937
1587014616547442,146937
1587014616553487,146937
1587014616568312,146937
1587014616582038,146937
1587014616599329,146937
1587014617187197,146737
1587014617200016,146737
1587014617206840,146737
1587014617207505,146737
1587014617211489,146737
1587014617227648,146737
1587014617240934,146737
1587014617253067,146737
1587014617257153,146737
1587014617273407,146737
1587014617274586,146737
1587014617288469,146737
1587014617297597,146737
1587014617821964,148235
1587014617827047,148235
1587014617828261,148235
1587014617834606,148235
1587014617839126,148235
1587014617851880,148235
1587014617860228,148235
1587014617866498,148235
1587014617869940,148235
1587014617881595,148235
1587014617904004,148235
1587014617911086,148235
1587014617925952,148235
1587014618443450,147892
1587014618452481,147892
1587014618453923,147892
1587014618467907,147892
1587014618475366,147892
1587014618490312,147892
1587014618495868,147892
1587014618513450,147892
1587014618517260,147892
1587014618541935,147892
1587014618546354,147892
1587014618551634,147892
1587014618568029,147892
1587014619131009,147412
1587014619136496,147412
1587014619158185,147412
1587014619158931,147412
1587014619173030,147412
1587014619177634,147412
1587014619186027,147412
1587014619200356,147412
1587014619202223,147412
1587014619203431,147412
1587014619216247,147412
1587014619218080,147412
1587014619230505,147412
1587014619749951,148436
1587014619763118,148436
1587014619775790,148436
1587014619791986,148436
1587014619795947,148436
1587014619803269,148436
1587014619807125,148436
1587014619815124,148436
1587014619817363,148436
1587014619817900,148436
1587014619841249,148436
1587014619842318,148436
1587014619844146,148436
1587014620353214,148433
1587014620367293,148433
1587014620382644,148433
1587014620383378,148433
1587014620390016,148433
1587014620390691,148433
1587014620393885,148433
1587014620406035,148433
1587014620413713,148433
1587014620424909,148433
1587014620438300,148433
1587014620457185,148433
1587014620468955,148433
1587014621043071,150626
1587014621054847,150626
1587014621078035,150626
1587014621095821,150626
1587014621107048,150626
1587014621113500,150626
1587014621120233,150626
1587014621124976,150626
1587014621137022,150626
1587014621138660,150626
1587014621143805,150626
1587014621148036,150626
1587014621152895,150626
1587014621675529,150331
1587014621690721,150331
1587014621695957,150331
1587014621697403,150331
1587014621698619,150331
1587014621714080,150331
1587014621718740,150331
1587014621720365,150331
1587014621729217,150331
1587014621734716,150331
1587014621735541,150331
1587014621758087,150331
1587014621759021,150331
1587014622269010,151678
1587014622281471,151678
1587014622286870,151678
1587014622287835,151678
1587014622304120,151678
1587014622317012,151678
1587014622317699,151678
1587014622324121,151678
1587014622336620,151678
1587014622340376,151678
1587014622363051,151678
1587014622369326,151678
1587014622370044,151678
1587014622901734,150959
1587014622905561,150959
1587014622909221,150959
1587014622921391,150959
1587014622939340,150959
1587014622961662,150959
1587014622963067,150959
1587014622968470,150959
1587014622975190,150959
1587014622984526,150959
1587014622993249,150959
1587014622993881,150959
1587014622994302,150959
1587014623496160,151134
1587014623502192,151134
1587014623502884,151134
1587014623518242,151134
1587014623525198,151134
1587014623547004,151134
1587014623547893,151134
1587014623553470,151134
1587014623557421,151134
1587014623564512,151134
1587014623565218,151134
1587014623566349,151134
1587014623567130,151134
1587014624087370,150992
1587014624089485,150992
1587014624090086,150992
1587014624097472,150992
1587014624105133,150992
1587014624119122,150992
1587014624146877,150992
1587014624149285,150992
1587014624152973,150992
1587014624159908,150992
1587014624172329,150992
1587014624173345,150992
1587014624179029,150992
1587014624699087,152955
1587014624705330,152955
1587014624711678,152955
1587014624713836,152955
1587014624777901,152955
1587014624778518,152955
1587014624782534,152955
1587014624794248,152955
1587014624810009,152955
1587014624823018,152955
1587014624826627,152955
1587014624833403,152955
1587014624837325,152955
1587014625353425,152879
1587014625365456,152879
1587014625380012,152879
1587014625394052,152879
1587014625398703,152879
1587014625413701,152879
1587014625425927,152879
1587014625432639,152879
1587014625436477,152879
1587014625451479,152879
1587014625462653,152879
1587014625466313,152879
1587014625470381,152879
1587014625996054,153342
1587014625997789,153342
1587014626004137,153342
1587014626006325,153342
1587014626012381,153342
1587014626014207,153342
1587014626015249,153342
1587014626015815,153342
1587014626025390,153342
1587014626038399,153342
1587014626043505,153342
1587014626047975,153342
1587014626064681,153342
1587014626575810,152869
1587014626576509,152869
1587014626583279,152869
1587014626606382,152869
1587014626611650,152869
1587014626617760,152869
1587014626625914,152869
1587014626757313,152869
1587014626764786,152869
1587014626768863,152869
1587014626782833,152869
1587014626785044,152869
1587014626798189,152869
1587014627308642,154677
1587014627332097,154677
1587014627337427,154677
1587014627341523,154677
1587014627346274,154677
1587014627359195,154677
1587014627360284,154677
1587014627370209,154677
1587014627375349,154677
1587014627392280,154677
1587014627404387,154677
1587014627413807,154677
1587014627415305,154677
1587014627921214,154102
1587014627935261,154102
1587014627937520,154102
1587014627962044,154102
1587014627963557,154102
1587014627967651,154102
1587014627972707,154102
1587014627973478,154102
1587014627977977,154102
1587014627982493,154102
1587014627988417,154102
1587014627995950,154102
1587014628014769,154102
1587014628523375,154460
1587014628528053,154460
1587014628542313,154460
1587014628546299,154460
1587014628563878,154460
1587014628582070,154460
1587014628598932,154460
1587014628599705,154460
1587014628603800,154460
1587014628687556,154460
1587014628692890,154460
1587014628699199,154460
1587014628705257,154460
1587014629210877,154477
1587014629223775,154477
1587014629240168,154477
1587014629242650,154477
1587014629248600,154477
1587014629249867,154477
1587014629255175,154477
1587014629256144,154477
1587014629257910,154477
1587014629283757,154477
1587014629298137,154477
1587014629304035,154477
1587014629310156,154477
1587014629431518,64
1587014629935308,155046
1587014629958024,155046
1587014629964309,155046
1587014629968979,155046
1587014629981874,155046
1587014629983928,155046
1587014629995812,155046
1587014630002547,155046
1587014630005096,155046
1587014630013898,155046
1587014630033978,155046
1587014630046090,155046
1587014630061262,155046
1587014630563872,156035
1587014630573128,156035
1587014630573813,156035
1587014630583251,156035
1587014630597555,156035
1587014630599338,156035
1587014630609301,156035
1587014630616074,156035
1587014630628177,156035
1587014630634452,156035
1587014630736054,156035
1587014630736670,156035
1587014630739648,156035
1587014631244117,156405
1587014631251163,156405
1587014631253197,156405
1587014631269809,156405
1587014631282555,156405
1587014631290641,156405
1587014631304186,156405
1587014631310530,156405
1587014631311385,156405
1587014631312187,156405
1587014631312611,156405
1587014631316488,156405
1587014631326723,156405
1587014631833784,156434
1587014631834943,156434
1587014631850206,156434
1587014631854541,156434
1587014631869008,156434
1587014631869731,156434
1587014631886810,156434
1587014631893427,156434
1587014631894082,156434
1587014631914347,156434
1587014631924359,156434
1587014631939056,156434
1587014631967929,156434
1587014632472880,155919
1587014632480009,155919
1587014632483308,155919
1587014632491920,155919
1587014632495530,155919
1587014632513813,155919
1587014632525925,155919
1587014632548714,155919
1587014632557678,155919
1587014632565209,155919
1587014632571167,155919
1587014632583181,155919
1587014632595391,155919
1587014633115903,156518
1587014633127450,156518
1587014633128486,156518
1587014633142767,156518
1587014633146084,156518
1587014633148333,156518
1587014633156023,156518
1587014633160772,156518
1587014633168439,156518
1587014633169042,156518
1587014633172887,156518
1587014633190331,156518
1587014633212970,156518
1587014633730186,157682
1587014633749295,157682
1587014633764348,157682
1587014633775399,157682
1587014633787087,157682
1587014633821646,157682
1587014633833856,157682
1587014633838570,157682
1587014633852922,157682
1587014633860823,157682
1587014633866232,157682
1587014633882690,157682
1587014633888109,157682
1587014634395399,157399
1587014634399047,157399
1587014634427347,157399
1587014634438173,157399
1587014634444469,157399
1587014634458056,157399
1587014634468895,157399
1587014634470921,157399
1587014634474217,157399
1587014634479083,157399
1587014634480397,157399
1587014634497575,157399
1587014634520018,157399
1587014635028590,157383
1587014635035433,157383
1587014635039152,157383
1587014635052981,157383
1587014635057975,157383
1587014635069060,157383
1587014635106369,157383
1587014635110981,157383
1587014635125936,157383
1587014635131132,157383
1587014635135460,157383
1587014635158010,157383
1587014635159417,157383
1587014635721934,157830
1587014635733852,157830
1587014635750284,157830
1587014635754948,157830
1587014635769874,157830
1587014635771857,157830
1587014635779247,157830
1587014635789293,157830
1587014635793206,157830
1587014635793728,157830
1587014635795256,157830
1587014635814511,157830
1587014635815595,157830
1587014636328780,157722
1587014636334713,157722
1587014636339802,157722
1587014636346881,157722
1587014636355211,157722
1587014636372942,157722
1587014636377949,157722
1587014636394075,157722
1587014636398030,157722
1587014636400196,157722
1587014636405527,157722
1587014636406441,157722
1587014636407573,157722
1587014636927064,158982
1587014636929881,158982
1587014636931894,158982
1587014636932878,158982
1587014636948596,158982
1587014636965665,158982
1587014636971349,158982
1587014636987328,158982
1587014636994980,158982
1587014636999443,158982
1587014637000360,158982
1587014637006816,158982
1587014637008982,158982
1587014637571474,159316
1587014637581432,159316
1587014637595407,159316
1587014637598641,159316
1587014637599601,159316
1587014637611961,159316
1587014637621850,159316
1587014637636630,159316
1587014637639802,159316
1587014637652618,159316
1587014637660543,159316
1587014637661680,159316
1587014637665918,159316
1587014638174455,158939
1587014638175987,158939
1587014638180290,158939
1587014638207758,158939
1587014638230082,158939
1587014638230829,158939
1587014638234348,158939
1587014638240580,158939
1587014638253819,158939
1587014638259322,158939
1587014638261042,158939
1587014638266692,158939
1587014638267820,158939
1587014639777314,160404
1587014639784197,160404
1587014639787890,160404
1587014639791969,160404
1587014639808210,160404
1587014639812971,160404
1587014639833293,160404
1587014639836913,160404
1587014639851018,160404
1587014639854652,160404
1587014639861109,160404
1587014639871071,160404
1587014639873827,160404
1587014640377367,161128
1587014640393825,161128
1587014640398828,161128
1587014640405438,161128
1587014640408194,161128
1587014640413619,161128
1587014640424390,161128
1587014640429486,161128
1587014640440409,161128
1587014640461965,161128
1587014640468080,161128
1587014640473588,161128
1587014640487271,161128
1587014641003270,162157
1587014641010458,162157
1587014641011772,162157
1587014641040971,162157
1587014641045124,162157
1587014641049840,162157
1587014641052377,162157
1587014641057451,162157
1587014641065451,162157
1587014641066721,162157
1587014641075783,162157
1587014641078134,162157
1587014641087178,162157
1587014641602224,161458
1587014641610373,161458
1587014641629075,161458
1587014641645381,161458
1587014641652139,161458
1587014641659578,161458
1587014641671520,161458
1587014641672950,161458
1587014641680678,161458
1587014641688194,161458
1587014641691600,161458
1587014641693786,161458
1587014641700066,161458
1587014642214876,161545
1587014642230010,161545
1587014642234487,161545
1587014642238276,161545
1587014642239471,161545
1587014642246538,161545
1587014642265024,161545
1587014642271624,161545
1587014642283454,161545
1587014642284783,161545
1587014642291774,161545
1587014642306058,161545
1587014642323363,161545
1587014642831851,162392
1587014642843656,162392
1587014642867730,162392
1587014642883919,162392
1587014642888359,162392
1587014642893527,162392
1587014642900477,162392
1587014642910863,162392
1587014642912359,162392
1587014642929828,162392
1587014642952114,162392
1587014642961237,162392
1587014642967286,162392
1587014643550022,162078
1587014643562602,162078
1587014643563855,162078
1587014643572096,162078
1587014643584374,162078
1587014643604921,162078
1587014643612579,162078
1587014643616442,162078
1587014643622707,162078
1587014643632465,162078
1587014643634016,162078
1587014643656826,162078
1587014643661424,162078
1587014644169490,163262
1587014644170499,163262
1587014644181684,163262
1587014644195000,163262
1587014644221133,163262
1587014644224786,163262
1587014644235772,163262
1587014644237003,163262
1587014644256631,163262
1587014644267376,163262
1587014644290237,163262
1587014644295031,163262
1587014644316875,163262
1587014644821098,162949
1587014644831911,162949
1587014644846630,162949
1587014644853925,162949
1587014644871197,162949
1587014644886011,162949
1587014644894726,162949
1587014644896577,162949
1587014644912580,162949
1587014644923392,162949
1587014644928382,162949
1587014644933069,162949
1587014644939589,162949
1587014645459290,163088
1587014645465956,163088
1587014645484604,163088
1587014645510308,163088
1587014645512281,163088
