1587014410311067,30
1587014410608150,23
1587014410669185,18
1587014410806466,23
1587014410884635,45
1587014410894049,45
1587014410923835,45
1587014410932427,45
1587014410944811,45
1587014410946180,45
1587014410947065,45
1587014410947697,45
1587014410949003,45
1587014410949801,45
1587014410950565,45
1587014410970317,45
1587014410971051,45
1587014411482657,403
1587014411483929,403
1587014411486844,403
1587014411490287,403
1587014411491127,403
1587014411491918,403
1587014411496794,403
1587014411508642,403
1587014411545392,403
1587014411554052,403
1587014411558478,403
1587014411559839,403
1587014411569195,23
1587014411570627,403
1587014412099579,1982
1587014412101612,1982
1587014412110561,1982
1587014412117577,1982
1587014412118233,1982
1587014412121551,1982
1587014412122563,1982
1587014412124707,1982
1587014412126077,1982
1587014412144165,1982
1587014412144984,1982
1587014412150022,1982
1587014412151875,1982
1587014412653904,3091
1587014412654561,3091
1587014412655789,3091
1587014412656539,3091
1587014412658059,3091
1587014412659230,3091
1587014412665167,3091
1587014412665978,3091
1587014412666587,3091
1587014412667861,3091
1587014412669236,3091
1587014412680767,3091
1587014412681534,3091
1587014413184763,3950
1587014413185219,3950
1587014413192826,3950
1587014413193367,3950
1587014413194132,3950
1587014413201883,3950
1587014413212637,3950
1587014413214441,3950
1587014413215510,3950
1587014413217062,3950
1587014413220869,3950
1587014413231885,3950
1587014413232887,3950
1587014413738530,9167
1587014413740658,9167
1587014413741341,9167
1587014413742042,9167
1587014413753809,9167
1587014413754799,9167
1587014413755680,9167
1587014413761027,9167
1587014413762618,9167
1587014413764121,9167
1587014413764909,9167
1587014413765623,9167
1587014413772433,9167
1587014414274699,5896
1587014414275435,5896
1587014414281114,5896
1587014414282009,5896
1587014414286309,5896
1587014414287047,5896
1587014414287662,5896
1587014414293307,5896
1587014414293835,5896
1587014414296570,5896
1587014414297209,5896
1587014414297607,5896
1587014414308917,5896
1587014414825890,9671
1587014414837793,9671
1587014414840630,9671
1587014414841520,9671
1587014414843681,9671
1587014414855277,9671
1587014414858983,9671
1587014414859661,9671
1587014414860387,9671
1587014414860848,9671
1587014414861618,9671
1587014414862475,9671
1587014414863311,9671
1587014415365934,9697
1587014416373718,9697
1587014416374734,9697
1587014416375887,9697
1587014416380643,9697
1587014416382298,9697
1587014416382896,9697
1587014416385142,9697
1587014416399299,9697
1587014416402745,9697
1587014416413833,9697
1587014416420306,9697
1587014416425715,9697
1587014416929063,16420
1587014416931205,16420
1587014416934470,16420
1587014416938824,16420
1587014416941266,16420
1587014416947021,16420
1587014416950206,16420
1587014416956156,16420
1587014416959290,16420
1587014416960687,16420
1587014416974691,16420
1587014416978222,16420
1587014416979693,16420
1587014417483954,11197
1587014417485482,11197
1587014417488101,11197
1587014417488817,11197
1587014417489814,11197
1587014417490494,11197
1587014417491151,11197
1587014418493293,11197
1587014418494521,11197
1587014418495578,11197
1587014418497080,11197
1587014418498720,11197
1587014418509810,11197
1587014419024128,13810
1587014419026828,13810
1587014419027991,13810
1587014419028746,13810
1587014419031287,13810
1587014419032176,13810
1587014419032864,13810
1587014419034425,13810
1587014419034956,13810
1587014419036193,13810
1587014419048689,13810
1587014419052554,13810
1587014419057392,13810
1587014419579485,13211
1587014419581202,13211
1587014419582252,13211
1587014419583552,13211
1587014419585900,13211
1587014419586940,13211
1587014419587663,13211
1587014419588263,13211
1587014419588962,13211
1587014419589839,13211
1587014419591098,13211
1587014419595536,13211
1587014419606811,13211
1587014420111460,13656
1587014420114225,13656
1587014420115399,13656
1587014420117130,13656
1587014420119748,13656
1587014420130613,13656
1587014420131683,13656
1587014420142636,13656
1587014420143507,13656
1587014420156371,13656
1587014420157667,13656
1587014420160040,13656
1587014420161217,13656
1587014420666097,14167
1587014420667149,14167
1587014420667869,14167
1587014420668382,14167
1587014420668985,14167
1587014420669387,14167
1587014420670759,14167
1587014420672775,14167
1587014420680867,14167
1587014420681659,14167
1587014422808786,62
1587014422955616,63
1587014423007790,61
1587014423168926,62
1587014423308513,63
1587014423690831,14167
1587014423712459,14167
1587014423713624,14167
1587014423787486,63
1587014423958194,63
1587014424083848,64
1587014424226926,19742
1587014424227619,19742
1587014424228248,19742
1587014424228868,19742
1587014424230004,19742
1587014424230700,19742
1587014424231405,19742
1587014424232140,19742
1587014424233327,19742
1587014424235998,19742
1587014424239022,19742
1587014424239882,19742
1587014424240586,19742
1587014424749996,16357
1587014424750986,16357
1587014424751426,16357
1587014424752121,16357
1587014424757048,16357
1587014424758565,16357
1587014424760114,16357
1587014424760778,16357
1587014424762221,16357
1587014424762842,16357
1587014424764850,16357
1587014424775649,16357
1587014424786626,16357
1587014425369910,16063
1587014425381313,16063
1587014425382721,16063
1587014425383441,16063
1587014425388542,16063
1587014425390822,16063
1587014425394983,16063
1587014425408816,16063
1587014425422703,16063
1587014425434648,16063
1587014425436365,16063
1587014425436701,16063
1587014425447949,16063
1587014425959305,15943
1587014425962255,15943
1587014425964137,15943
1587014425967677,15943
1587014425976804,15943
1587014425981819,15943
1587014425983069,15943
1587014425985011,15943
1587014425987017,15943
1587014426001052,15943
1587014426005141,15943
1587014426007470,15943
1587014426014033,15943
1587014426531366,18071
1587014426533371,18071
1587014426534008,18071
1587014426536735,18071
1587014426539063,18071
1587014426540977,18071
1587014426544312,18071
1587014426547383,18071
1587014426552627,18071
1587014426554209,18071
1587014426560310,18071
1587014426561475,18071
1587014426563279,18071
1587014427077316,18376
1587014427080541,18376
1587014427081713,18376
1587014427086949,18376
1587014427088268,18376
1587014427092535,18376
1587014427095035,18376
1587014427096642,18376
1587014427107688,18376
1587014427110189,18376
1587014427137195,18376
1587014427138459,18376
1587014427144911,18376
1587014427654364,19528
1587014427655494,19528
1587014427657525,19528
1587014427668628,19528
1587014427679907,19528
1587014427681212,19528
1587014427681864,19528
1587014427683236,19528
1587014427684410,19528
1587014427695637,19528
1587014427697683,19528
1587014427709630,19528
1587014427721669,19528
1587014428231118,19486
1587014428232484,19486
1587014428233735,19486
1587014428245328,19486
1587014428246438,19486
1587014428258425,19486
1587014428259960,19486
1587014428261221,19486
1587014428262247,19486
1587014428264095,19486
1587014428265058,19486
1587014443301620,19486
1587014443302313,19486
1587014443809714,48139
1587014443811023,48139
1587014443812044,48139
1587014443812795,48139
1587014443813602,48139
1587014443826886,48139
1587014443837673,48139
1587014443838736,48139
1587014443839453,48139
1587014443840236,48139
1587014443842375,48139
1587014443842880,48139
1587014443844205,48139
1587014444353241,30101
1587014444364733,30101
1587014444365521,30101
1587014444366193,30101
1587014444366772,30101
1587014444368112,30101
1587014444369405,30101
1587014444371127,30101
1587014444374172,30101
1587014444385613,30101
1587014444386683,30101
1587014444387209,30101
1587014444387879,30101
1587014444889410,30089
1587014444890464,30089
1587014444891087,30089
1587014444891919,30089
1587014444892524,30089
1587014444893776,30089
1587014444894891,30089
1587014444895459,30089
1587014444896669,30089
1587014444907771,30089
1587014444908476,30089
1587014444920961,30089
1587014444921772,30089
1587014445425942,30972
1587014445426939,30972
1587014445427587,30972
1587014445428930,30972
1587014445439691,30972
1587014445440562,30972
1587014445441217,30972
1587014445442698,30972
1587014445453659,30972
1587014445454622,30972
1587014445455804,30972
1587014445456547,30972
1587014445457242,30972
1587014445959693,31250
1587014445960642,31250
1587014445972720,31250
1587014445975062,31250
1587014445975743,31250
1587014445977249,31250
1587014445977742,31250
1587014445978320,31250
1587014445978980,31250
1587014445989789,31250
1587014446001005,31250
1587014446002509,31250
1587014446003837,31250
1587014446505022,32014
1587014446505689,32014
1587014446508599,32014
1587014446512209,32014
1587014446513612,32014
1587014446514980,32014
1587014446526987,32014
1587014446529223,32014
1587014446530260,32014
1587014446533172,32014
1587014446544674,32014
1587014446546803,32014
1587014446557792,32014
1587014447064813,31618
1587014447067942,31618
1587014447070078,31618
1587014447070564,31618
1587014447072331,31618
1587014447083700,31618
1587014447087318,31618
1587014447094285,31618
1587014447105894,31618
1587014447107209,31618
1587014447107989,31618
1587014447110381,31618
1587014447111123,31618
1587014447629668,31439
1587014447630580,31439
1587014447631632,31439
1587014447642845,31439
1587014447644179,31439
1587014447648893,31439
1587014447649778,31439
1587014447651388,31439
1587014447652050,31439
1587014447652681,31439
1587014447663997,31439
1587014447664841,31439
1587014447666114,31439
1587014448175926,32153
1587014448176962,32153
1587014448177640,32153
1587014448178823,32153
1587014448189636,32153
1587014448190570,32153
1587014448191223,32153
1587014448191803,32153
1587014448192510,32153
1587014448194456,32153
1587014448194926,32153
1587014448195934,32153
1587014448198035,32153
1587014448709042,32548
1587014448709490,32548
1587014448710862,32548
1587014448711979,32548
1587014448712810,32548
1587014448713476,32548
1587014448716486,32548
1587014448717555,32548
1587014448728634,32548
1587014448739876,32548
1587014448751554,32548
1587014448753252,32548
1587014448754135,32548
1587014449256702,32874
1587014449257795,32874
1587014449269500,32874
1587014449270751,32874
1587014449272805,32874
1587014449273793,32874
1587014449274765,32874
1587014449275808,32874
1587014449288679,32874
1587014449289835,32874
1587014449291180,32874
1587014449293516,32874
1587014449294556,32874
1587014450088767,37
1587014450089487,33668
1587014450090551,33668
1587014450091435,33668
1587014450092337,33668
1587014450093177,33668
1587014450097278,33668
1587014450097958,33668
1587014450100171,33668
1587014450101003,33668
1587014450112210,33668
1587014450113022,33668
1587014450114858,33668
1587014450115334,33668
1587014450625201,33796
1587014450626156,33796
1587014450626692,33796
1587014450627526,33796
1587014450628433,33796
1587014450633970,33796
1587014450635019,33796
1587014450635856,33796
1587014450636460,33796
1587014450638108,33796
1587014450651080,33796
1587014450662868,33796
1587014450664075,33796
1587014451173824,34244
1587014451179057,34244
1587014451180034,34244
1587014451181696,34244
1587014451182465,34244
1587014451183385,34244
1587014451184170,34244
1587014451185231,34244
1587014451186214,34244
1587014451198402,34244
1587014451213575,34244
1587014451215476,34244
1587014451227717,34244
1587014452735551,34182
1587014452736961,34182
1587014452738412,34182
1587014452751238,34182
1587014452752329,34182
1587014452753212,34182
1587014452756697,34182
1587014452757555,34182
1587014452758449,34182
1587014452760567,34182
1587014452769220,34182
1587014452770342,34182
1587014452772817,34182
1587014453283152,35349
1587014453284610,35349
1587014453285655,35349
1587014453286649,35349
1587014453287776,35349
1587014453288555,35349
1587014453290522,35349
1587014453291443,35349
1587014453292447,35349
1587014453303852,35349
1587014453305188,35349
1587014453312237,35349
1587014453324288,35349
1587014453843165,36637
1587014453844649,36637
1587014453845261,36637
1587014453846866,36637
1587014453847652,36637
1587014453848613,36637
1587014453850538,36637
1587014453852171,36637
1587014453852911,36637
1587014453853846,36637
1587014453854635,36637
1587014453855755,36637
1587014453866804,36637
1587014454376737,35889
1587014454388714,35889
1587014454389440,35889
1587014454391893,35889
1587014454402643,35889
1587014454404392,35889
1587014454405974,35889
1587014454406733,35889
1587014454407556,35889
1587014454408529,35889
1587014454409952,35889
1587014454410926,35889
1587014454412088,35889
1587014454917355,36621
1587014454917791,36621
1587014454918976,36621
1587014454920321,36621
1587014454921740,36621
1587014454922607,36621
1587014454923402,36621
1587014454926601,36621
1587014454927518,36621
1587014454929318,36621
1587014454931138,36621
1587014454931920,36621
1587014454943115,36621
1587014455369228,37
1587014455445260,36770
1587014455446185,36770
1587014455447240,36770
1587014455452641,36770
1587014455453769,36770
1587014455455464,36770
1587014455456797,36770
1587014455457562,36770
1587014455458473,36770
1587014455459554,36770
1587014455471014,36770
1587014455472439,36770
1587014455473076,36770
1587014455983870,37750
1587014455984863,37750
1587014455985671,37750
1587014455988450,37750
1587014455989250,37750
1587014455989633,37750
1587014456002754,37750
1587014456005431,37750
1587014456007604,37750
1587014456008542,37750
1587014456009618,37750
1587014456010453,37750
1587014456010806,37750
1587014456512190,38593
1587014456512979,38593
1587014456513996,38593
1587014456521551,38593
1587014456523544,38593
1587014456526122,38593
1587014456538178,38593
1587014456550311,38593
1587014456551161,38593
1587014456552626,38593
1587014456554171,38593
1587014456554794,38593
1587014456555521,38593
1587014457057897,37947
1587014457059060,37947
1587014457060187,37947
1587014457060967,37947
1587014457066437,37947
1587014457067283,37947
1587014457068234,37947
1587014457069014,37947
1587014457072413,37947
1587014457073070,37947
1587014457073663,37947
1587014457074701,37947
1587014457075796,37947
1587014457596389,38058
1587014457597327,38058
1587014457598226,38058
1587014457600110,38058
1587014457601067,38058
1587014457601974,38058
1587014457602924,38058
1587014457603627,38058
1587014457604330,38058
1587014457604818,38058
1587014457605412,38058
1587014457606076,38058
1587014457606649,38058
1587014458124845,38403
1587014458126154,38403
1587014458128503,38403
1587014458129359,38403
1587014458130286,38403
1587014458130963,38403
1587014458134061,38403
1587014458146736,38403
1587014458148132,38403
1587014458148912,38403
1587014458150137,38403
1587014458152615,38403
1587014458153405,38403
1587014458668135,38077
1587014458669837,38077
1587014458671222,38077
1587014458672778,38077
1587014458673491,38077
1587014458674032,38077
1587014458688996,38077
1587014458692525,38077
1587014458695505,38077
1587014458711007,38077
1587014458712389,38077
1587014458714428,38077
1587014458715142,38077
1587014459217243,39971
1587014459218253,39971
1587014459219339,39971
1587014459228142,39971
1587014459241394,39971
1587014459243004,39971
1587014459245283,39971
1587014459246481,39971
1587014459248769,39971
1587014459249552,39971
1587014459257716,39971
1587014459262513,39971
1587014459263795,39971
1587014459769777,39457
1587014459770831,39457
1587014459772489,39457
1587014459775975,39457
1587014459776855,39457
1587014459777670,39457
1587014459778532,39457
1587014459780446,39457
1587014459781245,39457
1587014459783917,39457
1587014459784708,39457
1587014459786836,39457
1587014459798158,39457
1587014460311155,40544
1587014460313916,40544
1587014460315953,40544
1587014460317967,40544
1587014460318778,40544
1587014460320421,40544
1587014460323763,40544
1587014460325049,40544
1587014460327965,40544
1587014460329399,40544
1587014460330238,40544
1587014460331115,40544
1587014460331719,40544
1587014460961202,40377
1587014460962284,40377
1587014460962671,40377
1587014460969240,40377
1587014460970675,40377
1587014460981852,40377
1587014460983179,40377
1587014460994860,40377
1587014460995647,40377
1587014460996166,40377
1587014460996900,40377
1587014460998213,40377
1587014460999597,40377
1587014461503565,41042
1587014461505011,41042
1587014461505631,41042
1587014461507250,41042
1587014461507623,41042
1587014461508176,41042
1587014461509239,41042
1587014461523602,41042
1587014461525064,41042
1587014461526209,41042
1587014461527008,41042
1587014461528489,41042
1587014461529194,41042
1587014462040562,41103
1587014462041209,41103
1587014462043316,41103
1587014462055620,41103
1587014462056625,41103
1587014462057673,41103
1587014462070785,41103
1587014462071918,41103
1587014462072683,41103
1587014462073542,41103
1587014462073890,41103
1587014462074463,41103
1587014462075788,41103
1587014462584400,41489
1587014462584950,41489
1587014462589521,41489
1587014462590061,41489
1587014462600804,41489
1587014462602231,41489
1587014462603421,41489
1587014462605096,41489
1587014462605552,41489
1587014462606492,41489
1587014462606881,41489
1587014462617859,41489
1587014462618819,41489
1587014463123336,43217
1587014463134918,43217
1587014463138330,43217
1587014463138961,43217
1587014463140889,43217
1587014463141466,43217
1587014463141944,43217
1587014463142242,43217
1587014463143494,43217
1587014463154693,43217
1587014463155489,43217
1587014463156712,43217
1587014463157203,43217
1587014463664416,42738
1587014463665079,42738
1587014463666814,42738
1587014463667316,42738
1587014463668286,42738
1587014463679602,42738
1587014463680694,42738
1587014463682034,42738
1587014463683054,42738
1587014463684524,42738
1587014463685224,42738
1587014463687316,42738
1587014463687998,42738
1587014464198571,44407
1587014464200230,44407
1587014464211712,44407
1587014464212523,44407
1587014464226599,44407
1587014464228031,44407
1587014465230319,44407
1587014465240135,44407
1587014465243233,44407
1587014465244196,44407
1587014465250908,44407
1587014465252075,44407
1587014465252957,44407
1587014465760679,45518
1587014465762279,45518
1587014465763366,45518
1587014465764731,45518
1587014465775628,45518
1587014465777341,45518
1587014465777830,45518
1587014465779273,45518
1587014465779792,45518
1587014465780442,45518
1587014465792119,45518
1587014465803625,45518
1587014465804704,45518
1587014466307478,44662
1587014466318596,44662
1587014466319761,44662
1587014466330609,44662
1587014466338228,44662
1587014466339592,44662
1587014466350758,44662
1587014466351478,44662
1587014466352002,44662
1587014466353136,44662
1587014466354460,44662
1587014466355008,44662
1587014466356509,44662
1587014466859999,45430
1587014466861168,45430
1587014466862337,45430
1587014466873804,45430
1587014466874449,45430
1587014466875867,45430
1587014466876403,45430
1587014466876882,45430
1587014466878198,45430
1587014466888784,45430
1587014466889631,45430
1587014466892480,45430
1587014466893663,45430
1587014467399151,45601
1587014467400359,45601
1587014467401253,45601
1587014467402086,45601
1587014467403904,45601
1587014467404539,45601
1587014467405900,45601
1587014467413990,45601
1587014467427259,45601
1587014467438610,45601
1587014467440522,45601
1587014467441977,45601
1587014467443007,45601
1587014467945269,46250
1587014467945662,46250
1587014467946750,46250
1587014467947438,46250
1587014467959782,46250
1587014467970589,46250
1587014467971554,46250
1587014467971928,46250
1587014467972904,46250
1587014467973508,46250
1587014467974589,46250
1587014467975085,46250
1587014467976037,46250
1587014468489218,45880
1587014468490159,45880
1587014468492488,45880
1587014468493295,45880
1587014468505040,45880
1587014468505702,45880
1587014468506235,45880
1587014468507488,45880
1587014468508468,45880
1587014468509644,45880
1587014468520619,45880
1587014468531772,45880
1587014468533017,45880
1587014469034995,47341
1587014469035680,47341
1587014469036404,47341
1587014469037388,47341
1587014469048617,47341
1587014469050101,47341
1587014469050765,47341
1587014469052251,47341
1587014469052960,47341
1587014469054114,47341
1587014469056703,47341
1587014469067923,47341
1587014469070582,47341
1587014469576103,46946
1587014469576773,46946
1587014469577509,46946
1587014469578189,46946
1587014469578892,46946
1587014469579966,46946
1587014469593336,46946
1587014469593914,46946
1587014469604813,46946
1587014469607381,46946
1587014469608073,46946
1587014469609611,46946
1587014469610298,46946
1587014470113793,47960
1587014470114534,47960
1587014470115395,47960
1587014470116222,47960
1587014470116994,47960
1587014470117981,47960
1587014470119909,47960
1587014470120655,47960
1587014470121098,47960
1587014470121805,47960
1587014470124018,47960
1587014470134876,47960
1587014470137761,47960
1587014470646140,47832
1587014470647132,47832
1587014470648054,47832
1587014470648761,47832
1587014470649493,47832
1587014470650786,47832
1587014470651496,47832
1587014470652336,47832
1587014470653128,47832
1587014470653789,47832
1587014470654857,47832
1587014470655491,47832
1587014470656061,47832
1587014471166874,49053
1587014471167904,49053
1587014471168824,49053
1587014471169948,49053
1587014471171870,49053
1587014471172667,49053
1587014471173975,49053
1587014471175081,49053
1587014471176556,49053
1587014471189244,49053
1587014471191451,49053
1587014471192396,49053
1587014471193479,49053
1587014471714772,48659
1587014471716761,48659
1587014471717837,48659
1587014471719088,48659
1587014471720298,48659
1587014471723216,48659
1587014471724698,48659
1587014471726774,48659
1587014471728502,48659
1587014471729282,48659
1587014471730029,48659
1587014471730834,48659
1587014471733790,48659
1587014472236401,49860
1587014472238029,49860
1587014472239141,49860
1587014472240481,49860
1587014472242570,49860
1587014472243736,49860
1587014472245209,49860
1587014472259168,49860
1587014472270651,49860
1587014472272046,49860
1587014472273769,49860
1587014472278454,49860
1587014472279861,49860
1587014472783890,49429
1587014472784780,49429
1587014472786398,49429
1587014472787793,49429
1587014472788958,49429
1587014472790538,49429
1587014472793879,49429
1587014472797593,49429
1587014472809342,49429
1587014472810792,49429
1587014472811890,49429
1587014472812836,49429
1587014472813676,49429
1587014473320395,49937
1587014473322615,49937
1587014473324104,49937
1587014473324598,49937
1587014473325886,49937
1587014473336774,49937
1587014480353781,49937
1587014480355664,49937
1587014480356744,49937
1587014480358239,49937
1587014480358850,49937
1587014480359912,49937
1587014480370633,49937
1587014480882382,68302
1587014480883186,68302
1587014480883665,68302
1587014480884890,68302
1587014480886186,68302
1587014480887595,68302
1587014480888894,68302
1587014480899869,68302
1587014480903968,68302
1587014480915987,68302
1587014480916714,68302
1587014480918145,68302
1587014480918875,68302
1587014481427562,57277
1587014481438954,57277
1587014481441048,57277
1587014481442404,57277
1587014481453632,57277
1587014481456009,57277
1587014481458239,57277
1587014481468731,57277
1587014481479718,57277
1587014481481286,57277
1587014481481678,57277
1587014481482394,57277
1587014481483722,57277
1587014481985289,57054
1587014481987382,57054
1587014481991681,57054
1587014481993173,57054
1587014481993548,57054
1587014481994647,57054
1587014481996424,57054
1587014481997144,57054
1587014481997535,57054
1587014482009640,57054
1587014482020888,57054
1587014482022762,57054
1587014482023432,57054
1587014482557776,57722
1587014482558709,57722
1587014482560758,57722
1587014482564492,57722
1587014482576674,57722
1587014482577471,57722
1587014482578234,57722
1587014482579015,57722
1587014482580254,57722
1587014482581451,57722
1587014482582706,57722
1587014482584142,57722
1587014482594692,57722
1587014483096857,59203
1587014483097976,59203
1587014483099256,59203
1587014483100626,59203
1587014483101514,59203
1587014483112649,59203
1587014483116431,59203
1587014483117826,59203
1587014483130031,59203
1587014483131068,59203
1587014483132298,59203
1587014483140080,59203
1587014483140740,59203
1587014483651955,58749
1587014483653696,58749
1587014483654539,58749
1587014483656251,58749
1587014483657809,58749
1587014483658788,58749
1587014483660070,58749
1587014483672680,58749
1587014483673319,58749
1587014483673914,58749
1587014483674573,58749
1587014483676305,58749
1587014483688665,58749
1587014484195415,58426
1587014484198040,58426
1587014484199235,58426
1587014484203829,58426
1587014484204226,58426
1587014484206258,58426
1587014484207485,58426
1587014484208164,58426
1587014484208740,58426
1587014484210140,58426
1587014484211614,58426
1587014484222613,58426
1587014484225304,58426
1587014484727687,58809
1587014484728082,58809
1587014484730119,58809
1587014484731575,58809
1587014484731913,58809
1587014484732257,58809
1587014484743712,58809
1587014485751658,58809
1587014485752843,58809
1587014485755746,58809
1587014485756987,58809
1587014485758099,58809
1587014486763010,58809
1587014487272209,60778
1587014487274690,60778
1587014487285751,60778
1587014487287426,60778
1587014487288011,60778
1587014487298808,60778
1587014487301311,60778
1587014487302033,60778
1587014487303561,60778
1587014487314634,60778
1587014487316126,60778
1587014487326733,60778
1587014487327979,60778
1587014487840902,59457
1587014487842509,59457
1587014487844479,59457
1587014487845502,59457
1587014487857649,59457
1587014487868612,59457
1587014487870285,59457
1587014487881686,59457
1587014487882499,59457
1587014487883532,59457
1587014487885574,59457
1587014487897170,59457
1587014487908627,59457
1587014488424064,59803
1587014488426049,59803
1587014488427342,59803
1587014488428696,59803
1587014488439571,59803
1587014488450692,59803
1587014488452724,59803
1587014488453399,59803
1587014488455273,59803
1587014488456534,59803
1587014488467849,59803
1587014488468817,59803
1587014488470288,59803
1587014488989684,60710
1587014489000641,60710
1587014489011658,60710
1587014489021958,60710
1587014490025573,60710
1587014490027243,60710
1587014490027615,60710
1587014490029076,60710
1587014490039680,60710
1587014490040228,60710
1587014490050631,60710
1587014490052267,60710
1587014490052884,60710
1587014490554695,62451
1587014490566687,62451
1587014490567134,62451
1587014490577911,62451
1587014490578417,62451
1587014490580427,62451
1587014490580806,62451
1587014490602416,62451
1587014493424590,37
1587014494797416,61
1587014497527318,37
1587014500104239,63
1587014502751450,37
1587014502751631,63
1587014505634800,62451
1587014505635546,62451
1587014505637133,62451
1587014505647628,62451
1587014505658672,62451
1587014506174144,90499
1587014506175006,90499
1587014506175547,90499
1587014507180731,90499
1587014507181978,90499
1587014507183010,90499
1587014507184000,90499
1587014507195204,90499
1587014507206877,90499
1587014507218235,90499
1587014507219327,90499
1587014507220299,90499
1587014507220984,90499
1587014507394105,37
1587014507723573,75263
1587014507724729,75263
1587014507725716,75263
1587014507726928,75263
1587014507731280,75263
1587014507732965,75263
1587014507734696,75263
1587014507746033,75263
1587014507758640,75263
1587014507769891,75263
1587014507780677,75263
1587014507782524,75263
1587014507783392,75263
1587014508287240,74875
1587014508288190,74875
1587014508289672,74875
1587014508290887,74875
1587014508291691,74875
1587014508294030,74875
1587014508295045,74875
1587014508296125,74875
1587014508308059,74875
1587014508309304,74875
1587014508320646,74875
1587014508321826,74875
1587014508322584,74875
1587014508844677,73957
1587014508847044,73957
1587014508848028,73957
1587014508859922,73957
1587014508863436,73957
1587014508864510,73957
1587014508866588,73957
1587014508867187,73957
1587014508870321,73957
1587014508872055,73957
1587014508882680,73957
1587014508898189,73957
1587014508899412,73957
1587014509409778,75060
1587014509411915,75060
1587014509422744,75060
1587014509423567,75060
1587014509424229,75060
1587014509436873,75060
1587014509438145,75060
1587014509439142,75060
1587014509439841,75060
1587014509447973,75060
1587014509449206,75060
1587014509450709,75060
1587014509452001,75060
1587014509974663,75734
1587014509976084,75734
1587014509976658,75734
1587014509977627,75734
1587014509981432,75734
1587014509985831,75734
1587014509986948,75734
1587014509987669,75734
1587014509988314,75734
1587014509989762,75734
1587014511002682,75734
1587014511013855,75734
1587014511015811,75734
1587014511522647,76391
1587014511524551,76391
1587014511526729,76391
1587014511527089,76391
1587014511528681,76391
1587014511529512,76391
1587014511530124,76391
1587014511531895,76391
1587014511533413,76391
1587014511534270,76391
1587014511545744,76391
1587014511546945,76391
1587014511558737,76391
1587014512071739,75866
1587014512072875,75866
1587014512074938,75866
1587014512076662,75866
1587014512077281,75866
1587014512078961,75866
1587014512080538,75866
1587014512082290,75866
1587014512086859,75866
1587014512097751,75866
1587014512098399,75866
1587014512099090,75866
1587014512102664,75866
1587014512604692,76255
1587014512606329,76255
1587014512606998,76255
1587014512608533,76255
1587014512619685,76255
1587014512620810,76255
1587014512622520,76255
1587014512633833,76255
1587014512634365,76255
1587014512635506,76255
1587014512637065,76255
1587014512637725,76255
1587014512638757,76255
1587014513150998,78192
1587014513151930,78192
1587014513152709,78192
1587014513163665,78192
1587014513164369,78192
1587014513165035,78192
1587014513166205,78192
1587014513166853,78192
1587014513167833,78192
1587014513179028,78192
1587014513191419,78192
1587014513192280,78192
1587014513194287,78192
1587014513701091,76907
1587014513712889,76907
1587014513713642,76907
1587014513714307,76907
1587014513715041,76907
1587014513716154,76907
1587014513720299,76907
1587014513734824,76907
1587014513745765,76907
1587014513747076,76907
1587014513748464,76907
1587014513759681,76907
1587014514368385,62
1587014514665046,4
1587014514767639,76907
1587014515275775,77658
1587014515277370,77658
1587014515289377,77658
1587014515290396,77658
1587014515302328,77658
1587014515303803,77658
1587014517556597,4
1587014522323675,77658
1587014522335775,77658
1587014522337885,77658
1587014522339163,77658
1587014522342193,77658
1587014522342688,77658
1587014522344453,77658
1587014522853721,93735
1587014522854799,93735
1587014522858111,93735
1587014522873534,93735
1587014522898983,93735
1587014522901962,93735
1587014522903735,93735
1587014522906105,93735
1587014522907253,93735
1587014522919221,93735
1587014522935494,93735
1587014522936955,93735
1587014522960686,93735
1587014523466027,84365
1587014523477296,84365
1587014523478098,84365
1587014523488955,84365
1587014523489838,84365
1587014523507976,84365
1587014523509632,84365
1587014523510396,84365
1587014523512237,84365
1587014523523642,84365
1587014523527572,84365
1587014523528791,84365
1587014523539706,84365
1587014524045728,83736
1587014524046509,83736
1587014524047153,83736
1587014524048371,83736
1587014524060718,83736
1587014524074738,83736
1587014524075342,83736
1587014524077435,83736
1587014524079163,83736
1587014524089703,83736
1587014524100971,83736
1587014524102199,83736
1587014524105446,83736
1587014524632855,83933
1587014524634229,83933
1587014524635041,83933
1587014524635923,83933
1587014524637136,83933
1587014524638712,83933
1587014524639944,83933
1587014524641540,83933
1587014524642199,83933
1587014524643812,83933
1587014524654632,83933
1587014524657147,83933
1587014524662593,83933
1587014525166808,85840
1587014525178693,85840
1587014525183985,85840
1587014525185271,85840
1587014525196705,85840
1587014525216644,85840
1587014525219463,85840
1587014525221318,85840
1587014525232675,85840
1587014525233607,85840
1587014525236836,85840
1587014525238046,85840
1587014525238491,85840
1587014525773395,86686
1587014525776640,86686
1587014525780196,86686
1587014532797767,86686
1587014532801909,86686
1587014532812754,86686
1587014532824407,86686
1587014532826320,86686
1587014532838281,86686
1587014532839654,86686
1587014532853014,86686
1587014532856391,86686
1587014532857084,86686
1587014533381637,102559
1587014533383048,102559
1587014533390176,102559
1587014533392046,102559
1587014533393380,102559
1587014533396891,102559
1587014533397575,102559
1587014533409683,102559
1587014534433631,102559
1587014534436551,102559
1587014534448395,102559
1587014534451432,102559
1587014534452112,102559
1587014534954195,94736
1587014535960256,94736
1587014535960908,94736
1587014535965081,94736
1587014535979449,94736
1587014535994462,94736
1587014535995427,94736
1587014535998638,94736
1587014536000135,94736
1587014536014954,94736
1587014536016574,94736
1587014536018061,94736
1587014536030326,94736
1587014536547571,95366
1587014536559952,95366
1587014536560941,95366
1587014536573684,95366
1587014537580892,95366
1587014537582631,95366
1587014537584979,95366
1587014537596005,95366
1587014537607598,95366
1587014537608402,95366
1587014537610447,95366
1587014537621418,95366
1587014537625285,95366
1587014538146573,98124
1587014538149647,98124
1587014538150786,98124
1587014538162835,98124
1587014538164650,98124
1587014538166272,98124
1587014538166978,98124
1587014538173115,98124
1587014538174024,98124
1587014538186612,98124
1587014538188410,98124
1587014538194992,98124
1587014538836241,98124
1587014539353803,97690
1587014539355822,97690
1587014539357124,97690
1587014539366232,97690
1587014539372291,97690
1587014539374300,97690
1587014539385765,97690
1587014539392518,97690
1587014539393035,97690
1587014539394561,97690
1587014539406445,97690
1587014539407589,97690
1587014539421881,97690
1587014539925889,96251
1587014539927706,96251
1587014539929049,96251
1587014539931454,96251
1587014539932376,96251
1587014539940746,96251
1587014539964848,96251
1587014539965413,96251
1587014539968295,96251
1587014539969464,96251
1587014539970086,96251
1587014539971586,96251
1587014539974004,96251
1587014540482190,97894
1587014540487046,97894
1587014540489592,97894
1587014540501433,97894
1587014540507576,97894
1587014547742837,97894
1587014547745497,97894
1587014547746448,97894
1587014547747706,97894
1587014547749428,97894
1587014547757717,97894
1587014547771492,97894
1587014547772003,97894
1587014548281374,112934
1587014548283876,112934
1587014548306486,112934
1587014548308522,112934
1587014548309304,112934
1587014548314743,112934
1587014548320144,112934
1587014548332250,112934
1587014548339979,112934
1587014548354635,112934
1587014548355670,112934
1587014548362750,112934
1587014548366614,112934
1587014548889517,103806
1587014548890538,103806
1587014548893434,103806
1587014548893882,103806
1587014548907035,103806
1587014548909873,103806
1587014548914095,103806
1587014548915957,103806
1587014548916804,103806
1587014548929014,103806
1587014548943429,103806
1587014548944687,103806
1587014548945447,103806
1587014549450214,103893
1587014549453861,103893
1587014549457501,103893
1587014549470727,103893
1587014549471718,103893
1587014550162936,63
1587014550221630,62
1587014553183016,62
1587014556500668,103893
1587014556513129,103893
1587014556516587,103893
1587014556527475,103893
1587014556528437,103893
1587014556531256,103893
1587014556532202,103893
1587014556536126,103893
1587014557042468,118402
1587014557046082,118402
1587014557049275,118402
1587014557071477,118402
1587014557072371,118402
1587014557073543,118402
1587014557077793,118402
1587014557078743,118402
1587014557086309,118402
1587014557094924,118402
1587014557119595,118402
1587014557123775,118402
1587014557124410,118402
1587014557626291,110315
1587014557629859,110315
1587014557630721,110315
1587014557633546,110315
1587014557656716,110315
1587014557657703,110315
1587014557664905,110315
1587014557670413,110315
1587014557686488,110315
1587014557689975,110315
1587014557704885,110315
1587014557711153,110315
1587014557713330,110315
1587014558216314,110536
1587014558229106,110536
1587014558230489,110536
1587014558235904,110536
1587014558240024,110536
1587014558242561,110536
1587014558244976,110536
1587014558246565,110536
1587014558250429,110536
1587014558254845,110536
1587014558259887,110536
1587014558282752,110536
1587014559286845,110536
1587014559792222,112770
1587014559792700,112770
1587014559801972,112770
1587014559804764,112770
1587014559807078,112770
1587014559812068,112770
1587014559815492,112770
1587014559816037,112770
1587014559817308,112770
1587014559822181,112770
1587014559825550,112770
1587014559847517,112770
1587014559848538,112770
1587014560356679,110877
1587014560407896,110877
1587014560411163,110877
1587014560415559,110877
1587014560417410,110877
1587014560421010,110877
1587014560423137,110877
1587014560430051,110877
1587014560443120,110877
1587014560443734,110877
1587014560458767,110877
1587014560478535,110877
1587014560486844,110877
1587014560990300,113145
1587014561005209,113145
1587014561019523,113145
1587014561020530,113145
1587014561032466,113145
1587014561036411,113145
1587014561041845,113145
1587014561055997,113145
1587014561068684,113145
1587014561069282,113145
1587014561076317,113145
1587014561080576,113145
1587014561081037,113145
1587014561590611,112759
1587014561595007,112759
1587014561599059,112759
1587014561620455,112759
1587014561621073,112759
1587014561625079,112759
1587014561635668,112759
1587014561637790,112759
1587014561664517,112759
1587014561668747,112759
1587014561671038,112759
1587014561681850,112759
1587014561684917,112759
1587014562202505,113247
1587014562205396,113247
1587014562219312,113247
1587014562235719,113247
1587014562240978,113247
1587014562478503,113247
1587014562494633,113247
1587014562496847,113247
1587014562502115,113247
1587014562504583,113247
1587014562508425,113247
1587014562523393,113247
1587014562524400,113247
1587014563039339,115350
1587014563042008,115350
1587014563055693,115350
1587014563058250,115350
1587014563071852,115350
1587014563078301,115350
1587014563102726,115350
1587014563107080,115350
1587014563109874,115350
1587014563113315,115350
1587014563127132,115350
1587014563129215,115350
1587014563130505,115350
1587014563643009,114985
1587014563648977,114985
1587014563653393,114985
1587014563658222,114985
1587014563658987,114985
1587014563660090,114985
1587014563673806,114985
1587014563677382,114985
1587014563683205,114985
1587014563700913,114985
1587014563704938,114985
1587014563711261,114985
1587014563712478,114985
1587014564283991,115131
1587014564287489,115131
1587014564290677,115131
1587014564302942,115131
1587014564306404,115131
1587014564311123,115131
1587014567527665,115131
1587014567541777,115131
1587014567553499,115131
1587014567554423,115131
1587014567558139,115131
1587014567560978,115131
1587014567563762,115131
1587014568078464,121028
1587014568079103,121028
1587014568081675,121028
1587014568086416,121028
1587014568087974,121028
1587014568096418,121028
1587014568109570,121028
1587014568122881,121028
1587014568127098,121028
1587014568130188,121028
1587014568133126,121028
1587014568137749,121028
1587014568142266,121028
1587014568666329,117221
1587014568667127,117221
1587014568669309,117221
1587014568683871,117221
1587014568689068,117221
1587014568691976,117221
1587014568695149,117221
1587014568696216,117221
1587014568712468,117221
1587014568740926,117221
1587014568742095,117221
1587014568746171,117221
1587014568747290,117221
1587014569262131,119162
1587014569265427,119162
1587014569270248,119162
1587014569284281,119162
1587014569286980,119162
1587014569288147,119162
1587014569292580,119162
1587014569298378,119162
1587014569299608,119162
1587014569300732,119162
1587014569304167,119162
1587014569311361,119162
1587014569325128,119162
1587014569827958,118183
1587014569843696,118183
1587014569844867,118183
1587014569850579,118183
1587014569855162,118183
1587014569862257,118183
1587014569867199,118183
1587014569868868,118183
1587014569883550,118183
1587014569889525,118183
1587014569899042,118183
1587014569902641,118183
1587014569906056,118183
1587014571425578,119375
1587014571428223,119375
1587014571428938,119375
1587014571443501,119375
1587014571446310,119375
1587014571461135,119375
1587014571474630,119375
1587014571475937,119375
1587014571477292,119375
1587014571492819,119375
1587014571499141,119375
1587014571512907,119375
1587014571516556,119375
1587014572041700,121850
1587014572044341,121850
1587014572048780,121850
1587014572052481,121850
1587014572056134,121850
1587014572058748,121850
1587014572059938,121850
1587014572067237,121850
1587014572071673,121850
1587014572099830,121850
1587014572106438,121850
1587014572110329,121850
1587014572113765,121850
1587014572638496,120280
1587014572652540,120280
1587014572666674,120280
1587014572689782,120280
1587014572695112,120280
1587014572718999,120280
1587014572722051,120280
1587014572734811,120280
1587014572738429,120280
1587014572741420,120280
1587014572741975,120280
1587014572745556,120280
1587014572760908,120280
1587014573278243,120422
1587014573280757,120422
1587014573293734,120422
1587014573299585,120422
1587014573301407,120422
1587014573306491,120422
1587014573309416,120422
1587014573313118,120422
1587014573316300,120422
1587014573327210,120422
1587014573340816,120422
1587014573343166,120422
1587014573356307,120422
1587014573863676,121643
1587014573868334,121643
1587014573881306,121643
1587014573905813,121643
1587014573907083,121643
1587014573910502,121643
1587014573936087,121643
1587014573948171,121643
1587014573953691,121643
1587014573958506,121643
1587014573959973,121643
1587014573993514,121643
1587014574007798,121643
1587014574513120,121918
1587014574516070,121918
1587014574518687,121918
1587014574531516,121918
1587014574533570,121918
1587014574537161,121918
1587014574550997,121918
1587014574556746,121918
1587014574559381,121918
1587014574565232,121918
1587014574578277,121918
1587014574591906,121918
1587014574592387,121918
1587014575102967,122011
1587014575115825,122011
1587014575116932,122011
1587014575120668,122011
1587014575125633,122011
1587014575132815,122011
1587014575133937,122011
1587014575138794,122011
1587014575148609,122011
1587014575152228,122011
1587014575176494,122011
1587014575180614,122011
1587014575181070,122011
1587014575695489,122902
1587014575698504,122902
1587014575699890,122902
1587014575713621,122902
1587014575719633,122902
1587014575726393,122902
1587014575727406,122902
1587014575741262,122902
1587014575743969,122902
1587014575746838,122902
1587014575759461,122902
1587014575763885,122902
1587014575769762,122902
1587014576280653,123521
1587014576283586,123521
1587014576291713,123521
1587014576308846,123521
1587014576313511,123521
1587014576326277,123521
1587014576329864,123521
1587014576331798,123521
1587014576336734,123521
1587014576350507,123521
1587014576355769,123521
1587014576370854,123521
1587014576375138,123521
1587014576880565,123989
1587014576881285,123989
1587014576886448,123989
1587014576888550,123989
1587014576892363,123989
1587014576894271,123989
1587014576909674,123989
1587014576912128,123989
1587014576914692,123989
1587014576918166,123989
1587014576918715,123989
1587014576921879,123989
1587014576935538,123989
1587014576941527,37
1587014576943983,37
1587014576945702,37
1587014577436831,124048
1587014577450736,124048
1587014577453152,124048
1587014577455932,124048
1587014577469098,124048
1587014577470196,124048
1587014577488796,124048
1587014577500800,124048
1587014577501883,124048
1587014579367845,63
1587014584539521,124048
1587014584551446,124048
1587014584554727,124048
1587014584567301,124048
1587014585099562,137640
1587014585120496,137640
1587014585121474,137640
1587014585133277,137640
1587014585138429,137640
1587014585153495,137640
1587014586169562,137640
1587014586171656,137640
1587014586176901,137640
1587014586198542,137640
1587014586201860,137640
1587014586205135,137640
1587014586210698,137640
1587014586728926,131884
1587014586741612,131884
1587014586746601,131884
1587014586750304,131884
1587014586753897,131884
1587014586756973,131884
1587014586769397,131884
1587014586775052,131884
1587014586776550,131884
1587014586790075,131884
1587014586803488,131884
1587014586804217,131884
1587014586809039,131884
1587014587319680,130777
1587014587332329,130777
1587014587345639,130777
1587014587347732,130777
1587014587352375,130777
1587014587354813,130777
1587014587355554,130777
1587014587369963,130777
1587014587371025,130777
1587014587372711,130777
1587014587377366,130777
1587014587382166,130777
1587014587382855,130777
1587014587886464,131365
1587014587888106,131365
1587014587891083,131365
1587014587894529,131365
1587014587923867,131365
1587014587929411,131365
1587014587934100,131365
1587014587948130,131365
1587014587953628,131365
1587014587967517,131365
1587014587971111,131365
1587014587985543,131365
1587014587990034,131365
1587014588502935,131633
1587014588508390,131633
1587014588509014,131633
1587014588549459,131633
1587014588550963,131633
1587014588566723,131633
1587014588568194,131633
1587014588573756,131633
1587014588590515,131633
1587014588596806,131633
1587014588610828,131633
1587014588614081,131633
1587014588621013,131633
1587014589135189,131739
1587014589137319,131739
1587014589152285,131739
1587014589159512,131739
1587014589163794,131739
1587014589176911,131739
1587014589181319,131739
1587014589187587,131739
1587014589204734,131739
1587014589211647,131739
1587014589226587,131739
1587014589228740,131739
1587014590244554,131739
1587014590764388,136518
1587014590770014,136518
1587014590770634,136518
1587014590775855,136518
1587014590791046,136518
1587014590794954,136518
1587014590808848,136518
1587014590812458,136518
1587014590815174,136518
1587014590825583,136518
1587014590827537,136518
1587014590828895,136518
1587014590832617,136518
1587014591394106,134111
1587014591397701,134111
1587014591410473,134111
1587014591415677,134111
1587014591419958,134111
1587014591436502,134111
1587014591445840,134111
1587014591464615,134111
1587014591477328,134111
1587014591481180,134111
1587014591491591,134111
1587014591496015,134111
1587014591512718,134111
1587014592148053,133918
1587014592152318,133918
1587014592157684,133918
1587014592161173,133918
1587014592164512,133918
1587014592167338,133918
1587014592167857,133918
1587014592195583,133918
1587014592205873,133918
1587014592219522,133918
1587014592229258,133918
1587014592244941,133918
1587014592249535,133918
1587014592758836,134921
1587014607803322,134921
1587014607807523,134921
1587014607818007,134921
1587014607819643,134921
1587014607824297,134921
1587014607827924,134921
1587014607830613,134921
1587014607831811,134921
1587014607850190,134921
1587014607857710,134921
1587014607871611,134921
1587014607872648,134921
1587014608375430,158923
1587014608378843,158923
1587014608381172,158923
1587014608381834,158923
1587014608401673,158923
1587014608405141,158923
1587014608407773,158923
1587014608408689,158923
1587014608409170,158923
1587014608413932,158923
1587014608435589,158923
1587014608453573,158923
1587014608455074,158923
1587014608957607,143794
1587014608963935,143794
1587014608971076,143794
1587014608974852,143794
1587014608976072,143794
1587014608979199,143794
1587014608987715,143794
1587014608991763,143794
1587014609007298,143794
1587014609022642,143794
1587014609023314,143794
1587014609027916,143794
1587014609029816,143794
1587014609532807,144499
1587014609533435,144499
1587014609558711,144499
1587014609560017,144499
1587014609565248,144499
1587014609573703,144499
1587014609656167,144499
1587014609663578,144499
1587014609677681,144499
1587014609689581,144499
1587014609712274,144499
1587014609712992,144499
1587014609719343,144499
1587014610221668,145140
1587014610235244,145140
1587014610236390,145140
1587014610239430,145140
1587014610244487,145140
1587014610262059,145140
1587014610265258,145140
1587014610271490,145140
1587014610272825,145140
1587014610276780,145140
1587014610333986,145140
1587014610339819,145140
1587014610345608,145140
1587014610859032,145958
1587014610874822,145958
1587014610878922,145958
1587014610884941,145958
1587014610890047,145958
1587014610898420,145958
1587014610913019,145958
1587014610915150,145958
1587014610920264,145958
1587014610926161,145958
1587014610927714,145958
1587014610933474,145958
1587014610956617,145958
1587014611473586,145828
1587014611482679,145828
1587014611498011,145828
1587014611514482,145828
1587014611519673,145828
1587014611524294,145828
1587014611529880,145828
1587014611530467,145828
1587014611543556,145828
1587014611548889,145828
1587014611562595,145828
1587014611565314,145828
1587014611569125,145828
1587014612072374,146193
1587014612079415,146193
1587014612080878,146193
1587014612084407,146193
1587014612085291,146193
1587014612100152,146193
1587014612101054,146193
1587014612104080,146193
1587014612119903,146193
1587014612123264,146193
1587014612129103,146193
1587014612142974,146193
1587014612147123,146193
1587014613654100,146367
1587014613655541,146367
1587014613656558,146367
1587014613657243,146367
1587014613670881,146367
1587014613678050,146367
1587014613678855,146367
1587014613697135,146367
1587014613702623,146367
1587014613718591,146367
1587014613722561,146367
1587014613723722,146367
1587014613737165,146367
1587014614240988,149647
1587014614241943,149647
1587014614242473,149647
1587014614243078,149647
1587014614249773,149647
1587014614253787,149647
1587014614255453,149647
1587014614268651,149647
1587014614280420,149647
1587014614294637,149647
1587014614301040,149647
1587014614304246,149647
1587014614311313,149647
1587014614828508,147645
1587014614837505,147645
1587014614863552,147645
1587014614866358,147645
1587014614870262,147645
1587014614884909,147645
1587014614886172,147645
1587014614889695,147645
1587014614906093,147645
1587014614910917,147645
1587014614924725,147645
1587014614930156,147645
1587014614931038,147645
1587014615437399,147813
1587014615452023,147813
1587014615453718,147813
1587014615455434,147813
1587014615464002,147813
1587014615468470,147813
1587014615473579,147813
1587014615474823,147813
1587014615488885,147813
1587014615489903,147813
1587014615490639,147813
1587014615509158,147813
1587014615522551,147813
1587014616025657,148069
1587014616028877,148069
1587014616037083,148069
1587014616063452,148069
1587014616067708,148069
1587014616071567,148069
1587014616075336,148069
1587014616076445,148069
1587014616079417,148069
1587014616081913,148069
1587014616084780,148069
1587014616100332,148069
1587014616113711,148069
1587014616629509,148649
1587014616640671,148649
1587014616647095,148649
1587014616662290,148649
1587014616674934,148649
1587014616679306,148649
1587014616683656,148649
1587014616702925,148649
1587014616705494,148649
1587014616710261,148649
1587014616711178,148649
1587014616714235,148649
1587014616731131,148649
1587014617233785,149628
1587014617236532,149628
1587014617248599,149628
1587014617255551,149628
1587014617261899,149628
1587014617265292,149628
1587014617280583,149628
1587014617285837,149628
1587014618302202,149628
1587014618306485,149628
1587014618320988,149628
1587014618327169,149628
1587014618340747,149628
1587014618854825,151219
1587014622713737,151219
1587014622718600,151219
1587014622721625,151219
1587014622723957,151219
1587014622729998,151219
1587014622744531,151219
1587014622747967,151219
1587014622752056,151219
1587014622767195,151219
1587014622776626,151219
1587014622779159,151219
1587014622792223,151219
1587014623304811,157551
1587014623306851,157551
1587014623315542,157551
1587014623320373,157551
1587014623324552,157551
1587014623329782,157551
1587014623346810,157551
1587014623348737,157551
1587014623356414,157551
1587014623370976,157551
1587014623374224,157551
1587014623383086,157551
1587014623387795,157551
1587014623891311,153015
1587014623896444,153015
1587014623914079,153015
1587014623920827,153015
1587014623925637,153015
1587014623931279,153015
1587014623935310,153015
1587014623947206,153015
1587014623951914,153015
1587014623955994,153015
1587014623956892,153015
1587014623964597,153015
1587014623977103,153015
1587014624489027,154550
1587014624494998,154550
1587014624496559,154550
1587014624498013,154550
1587014624521592,154550
1587014624523382,154550
1587014624541128,154550
1587014624780732,154550
1587014624802221,154550
1587014624815564,154550
1587014624827616,154550
1587014624831127,154550
1587014624832320,154550
1587014625351175,154505
1587014625366646,154505
1587014625367868,154505
1587014625385482,154505
1587014625413629,154505
1587014625419043,154505
1587014625433817,154505
1587014625438043,154505
1587014625438885,154505
1587014625454816,154505
1587014625469068,154505
1587014625470660,154505
1587014625477368,154505
1587014625986401,154837
1587014626001582,154837
1587014626013836,154837
1587014626015098,154837
1587014626019915,154837
1587014626023198,154837
1587014626029386,154837
1587014626042646,154837
1587014626046313,154837
1587014626052362,154837
1587014626055447,154837
1587014626069965,154837
1587014626073466,154837
1587014626592488,155520
1587014626607979,155520
1587014626613456,155520
1587014626617320,155520
1587014626622970,155520
1587014626624105,155520
1587014626639618,155520
1587014626654141,155520
1587014626660426,155520
1587014626661622,155520
1587014626665749,155520
1587014626666428,155520
1587014626672614,155520
1587014627181329,155262
1587014627182092,155262
1587014627195617,155262
1587014627214822,155262
1587014627228975,155262
1587014627240606,155262
1587014627245199,155262
1587014627260547,155262
1587014627264265,155262
1587014627277576,155262
1587014627285241,155262
1587014627288786,155262
1587014627304259,155262
1587014627818635,155866
1587014627832490,155866
1587014627833983,155866
1587014627848640,155866
1587014627852041,155866
1587014627853674,155866
1587014627867833,155866
1587014627868546,155866
1587014627872871,155866
1587014627884732,155866
1587014627896567,155866
1587014627900609,155866
1587014627905497,155866
1587014628432858,156979
1587014628449549,156979
1587014628463742,156979
1587014628471232,156979
1587014628485612,156979
1587014628489078,156979
1587014628502897,156979
1587014628508768,156979
1587014628528005,156979
1587014628528681,156979
1587014628542339,156979
1587014628545319,156979
1587014628552692,156979
1587014629068067,156205
1587014629074553,156205
1587014629078033,156205
1587014629091253,156205
1587014629096771,156205
1587014629103387,156205
1587014629118830,156205
1587014629132862,156205
1587014629133683,156205
1587014629134316,156205
1587014629139464,156205
1587014629142605,156205
1587014629144712,156205
1587014629651279,157081
1587014629666607,157081
1587014629674574,157081
1587014629687664,157081
1587014629694452,157081
1587014629698962,157081
1587014629701390,157081
1587014629701936,157081
1587014629718605,157081
1587014629724071,157081
1587014629737844,157081
1587014629745526,157081
1587014629762569,157081
1587014630297646,157107
1587014630301272,157107
1587014630308329,157107
1587014630323487,157107
1587014630337817,157107
1587014630343473,157107
1587014630357621,157107
1587014630362588,157107
1587014630385461,157107
1587014630392558,157107
1587014630399551,157107
1587014630415572,157107
1587014630420111,157107
1587014630996582,157460
1587014630997260,157460
1587014631005337,157460
1587014631006934,157460
1587014631023147,157460
1587014631027892,157460
1587014631033617,157460
1587014631039421,157460
1587014631051619,157460
1587014631056984,157460
1587014631063646,157460
1587014631066737,157460
1587014631089999,157460
1587014631600071,158037
1587014631615319,158037
1587014631620669,158037
1587014631626988,158037
1587014631633032,158037
1587014631636550,158037
1587014631638815,158037
1587014631639888,158037
1587014631665318,158037
1587014631670376,158037
1587014631672964,158037
1587014631679719,158037
1587014631685202,158037
1587014632212528,158436
1587014632216186,158436
1587014632220113,158436
1587014632221243,158436
1587014632224791,158436
1587014632225813,158436
1587014632226830,158436
1587014632234590,158436
1587014632249836,158436
1587014632254872,158436
1587014632261849,158436
1587014632263750,158436
1587014632265660,158436
1587014632781181,158184
1587014632782646,158184
1587014632799057,158184
1587014632800737,158184
1587014632808566,158184
1587014632815711,158184
1587014632836763,158184
1587014632841923,158184
1587014632843885,158184
1587014632845117,158184
1587014632859688,158184
1587014632866611,158184
1587014632874847,158184
1587014633393599,159368
1587014633397529,159368
1587014633398125,159368
1587014633405188,159368
1587014633421767,159368
1587014633422869,159368
1587014633428076,159368
1587014633428701,159368
1587014633443251,159368
1587014633454251,159368
1587014633459040,159368
1587014633472568,159368
1587014633476692,159368
1587014633997763,159526
1587014633998765,159526
1587014634003221,159526
1587014634017551,159526
1587014634033577,159526
1587014634036081,159526
1587014634037852,159526
1587014634038806,159526
1587014634042945,159526
1587014634059543,159526
1587014634063428,159526
1587014634069630,159526
1587014634083927,159526
1587014634598514,159729
1587014634607435,159729
1587014634624669,159729
1587014634650018,159729
1587014634662584,159729
1587014634664735,159729
1587014634676921,159729
1587014634692634,159729
1587014634693685,159729
1587014635712017,159729
1587014635727560,159729
1587014635742624,159729
1587014635744445,159729
1587014636253654,161839
1587014636257633,161839
1587014636259024,161839
1587014636276294,161839
1587014638832212,161839
1587014638855563,161839
1587014638867572,161839
1587014638881561,161839
1587014638898261,161839
1587014638920624,161839
1587014638937559,161839
1587014638938458,161839
1587014638953935,161839
1587014639475032,163726
1587014639487767,163726
1587014639499668,163726
1587014639512178,163726
1587014639516575,163726
1587014639531437,163726
1587014639543874,163726
1587014639548290,163726
1587014639560840,163726
1587014639579762,163726
1587014639605970,163726
1587014639616105,163726
1587014639619606,163726
1587014640137016,163625
1587014640149766,163625
1587014640162579,163625
1587014640172867,163625
1587014640174917,163625
1587014640201338,163625
1587014640204306,163625
1587014640205058,163625
1587014640218682,163625
1587014640232659,163625
1587014640236482,163625
1587014640238515,163625
1587014640245207,163625
1587014640764066,162908
1587014640778442,162908
1587014640792417,162908
1587014640793416,162908
1587014640802171,162908
1587014640803711,162908
1587014640805524,162908
1587014640816401,162908
1587014640822710,162908
1587014640833429,162908
1587014640835543,162908
1587014640851782,162908
1587014640863492,162908
1587014641376933,163084
1587014641379798,163084
1587014641385511,163084
1587014641389476,163084
1587014641413897,163084
1587014641415878,163084
1587014641419818,163084
1587014641435591,163084
1587014641440790,163084
1587014641447573,163084
1587014641461450,163084
1587014641466036,163084
1587014641478539,163084
1587014641987751,163412
1587014641991142,163412
1587014642006102,163412
1587014642007967,163412
1587014642018721,163412
1587014642025662,163412
1587014642032647,163412
1587014642040621,163412
1587014642058697,163412
1587014642073125,163412
1587014642087654,163412
1587014642097108,163412
1587014642098549,163412
1587014642601659,164034
1587014642603550,164034
1587014642611243,164034
1587014642616648,164034
1587014642618019,164034
1587014642624138,164034
1587014642636988,164034
1587014642643034,164034
1587014642644180,164034
1587014642648064,164034
1587014642653500,164034
1587014642658024,164034
1587014642658701,164034
1587014643177035,164541
1587014643183873,164541
1587014643185441,164541
1587014643189288,164541
1587014643196519,164541
1587014643218808,164541
1587014643222867,164541
1587014643227982,164541
1587014643231707,164541
1587014643246685,164541
1587014643263105,164541
1587014643267712,164541
1587014643275603,164541
1587014643798661,164872
1587014643806013,164872
1587014643821233,164872
1587014643835599,164872
1587014643849604,164872
1587014643863622,164872
1587014643877684,164872
1587014643881431,164872
1587014643898095,164872
1587014643911611,164872
1587014644923120,164872
1587014644934641,164872
1587014644938852,164872
1587014645458471,165826
1587014645463290,165826
1587014645478227,165826
1587014645491681,165826
1587014645510674,165826
1587014645515611,165826
1587014645530986,165826
1587014645534325,165826
1587014645537996,165826
1587014645551956,165826
1587014645555632,165826
1587014645560896,165826
1587014645564966,165826
1587014646074058,165761
1587014646081942,165761
1587014646098526,165761
1587014646101300,165761
1587014646106681,165761
1587014646121300,165761
1587014646123018,165761
1587014646131960,165761
1587014646139031,165761
1587014646144776,165761
1587014646161441,165761
1587014646175443,165761
1587014646181301,165761
1587014646694799,166689
1587014646701042,166689
1587014646706401,166689
1587014646716251,166689
1587014646742989,166689
1587014646752509,166689
1587014646756887,166689
1587014646762317,166689
1587014646775660,166689
1587014646777847,166689
1587014646778621,166689
1587014646785475,166689
1587014646790127,166689
1587014647304265,167534
1587014647318961,167534
1587014647339640,167534
1587014647343198,167534
1587014647343771,167534
1587014647370657,167534
1587014647403889,167534
1587014647405694,167534
1587014647411823,167534
1587014647438505,167534
