1587014403092930,30
1587014404284579,23
1587014404340166,23
1587014404737952,27
1587014404817704,27
1587014404819938,27
1587014404820419,27
1587014404821345,27
1587014404822662,27
1587014404823985,27
1587014404829211,27
1587014404893932,27
1587014404907297,27
1587014404916552,27
1587014404918243,27
1587014404920281,27
1587014404926405,358
1587014405328505,396
1587014405465319,2227
1587014405466609,2227
1587014405467828,2227
1587014405482866,2227
1587014405483781,2227
1587014405484667,2227
1587014405485982,2227
1587014405490793,2227
1587014405513771,23
1587014405534974,2227
1587014405538554,2227
1587014405539826,2227
1587014405540524,2227
1587014405542501,2227
1587014406057313,1218
1587014406068761,1218
1587014406069413,1218
1587014406124938,1218
1587014406130836,1218
1587014406132537,1218
1587014406137800,1218
1587014406233661,1218
1587014406234942,1218
1587014406236318,1218
1587014406237140,1218
1587014406237837,1218
1587014406238659,1218
1587014406742068,2268
1587014406742616,2268
1587014406743923,2268
1587014406752309,2268
1587014406757007,2268
1587014406757548,2268
1587014406764079,2268
1587014406764724,2268
1587014406765610,2268
1587014406766384,2268
1587014406783233,2268
1587014406797108,2268
1587014406797934,2268
1587014407325265,2848
1587014407326070,2848
1587014407329739,2848
1587014407331301,2848
1587014407341989,2848
1587014407342548,2848
1587014407347475,2848
1587014407348104,2848
1587014407367490,2848
1587014407400190,2848
1587014407425975,2848
1587014407428932,2848
1587014407429896,2848
1587014407935605,2301
1587014407936797,2301
1587014407937655,2301
1587014407945386,2301
1587014407946759,2301
1587014407949604,2301
1587014407950383,2301
1587014407952472,2301
1587014407966917,2301
1587014407968937,2301
1587014407979908,2301
1587014407981154,2301
1587014407983330,2301
1587014408490120,4060
1587014408492779,4060
1587014408493172,4060
1587014408495337,4060
1587014408497962,4060
1587014408498555,4060
1587014408499388,4060
1587014408501801,4060
1587014408502364,4060
1587014408503360,4060
1587014408503960,4060
1587014408514365,4060
1587014408524944,4060
1587014409035280,3279
1587014409064921,3279
1587014409065934,3279
1587014409067416,3279
1587014409079097,3279
1587014409086019,3279
1587014409090771,3279
1587014409091647,3279
1587014409093870,3279
1587014409100096,3279
1587014409101448,3279
1587014409104119,3279
1587014409106077,3279
1587014409608608,3439
1587014409609967,3439
1587014409611033,3439
1587014409622336,3439
1587014409623945,3439
1587014409624807,3439
1587014409633230,3439
1587014409637570,3439
1587014409657480,3439
1587014409678940,3439
1587014409691954,3439
1587014409709431,3439
1587014409712347,3439
1587014409769835,413
1587014409862140,432
1587014410083356,414
1587014410216429,3142
1587014410217600,3142
1587014410218251,3142
1587014410219767,3142
1587014410227701,3142
1587014410228555,3142
1587014410229568,3142
1587014410230764,3142
1587014410231682,3142
1587014410259330,3142
1587014410264544,3142
1587014410267380,3142
1587014410270036,3142
1587014410778167,3329
1587014410780776,3329
1587014410783887,3329
1587014410791045,3329
1587014410791991,3329
1587014410802911,3329
1587014410803807,3329
1587014410804661,3329
1587014410806573,3329
1587014410816209,3329
1587014410822985,3329
1587014410826209,3329
1587014410837790,3329
1587014411343102,3762
1587014411344060,3762
1587014411344966,3762
1587014411346369,3762
1587014411365293,3762
1587014411367088,3762
1587014411369251,3762
1587014411371798,3762
1587014411374459,3762
1587014411381707,3762
1587014411384164,3762
1587014411385856,3762
1587014411404065,3762
1587014411917499,6989
1587014411929638,6989
1587014411931477,6989
1587014411942735,6989
1587014411954997,6989
1587014411956054,6989
1587014411957037,6989
1587014411958865,6989
1587014411959791,6989
1587014411962262,6989
1587014411968701,6989
1587014411969841,6989
1587014411975119,6989
1587014412036767,413
1587014412498794,5061
1587014412499861,5061
1587014412500808,5061
1587014412501424,5061
1587014412503360,5061
1587014412504217,5061
1587014412505095,5061
1587014412507817,5061
1587014412510512,5061
1587014412514183,5061
1587014412515120,5061
1587014412515982,5061
1587014412518476,5061
1587014413024445,5282
1587014413033403,5282
1587014413035128,5282
1587014413036375,5282
1587014413037456,5282
1587014413038676,5282
1587014413039476,5282
1587014413040426,5282
1587014413041541,5282
1587014413043267,5282
1587014413044818,5282
1587014413046026,5282
1587014413057954,5282
1587014413562221,5267
1587014413563808,5267
1587014413564411,5267
1587014413572265,5267
1587014413572874,5267
1587014413573975,5267
1587014413574411,5267
1587014413586025,5267
1587014413596954,5267
1587014413597512,5267
1587014413599260,5267
1587014413600176,5267
1587014413610926,5267
1587014413789604,37
1587014413882181,37
1587014413890302,413
1587014414023962,37
1587014414037891,37
1587014414048955,37
1587014414052782,37
1587014414055796,37
1587014414072170,37
1587014414075164,37
1587014414076330,37
1587014414079538,37
1587014414084833,37
1587014414096981,37
1587014414119807,6281
1587014414120217,37
1587014414120377,6281
1587014414121118,6281
1587014414121766,6281
1587014414122134,37
1587014414122292,6281
1587014414126015,6281
1587014414126665,6281
1587014414127033,6281
1587014414127460,6281
1587014414128261,6281
1587014414139213,6281
1587014414139683,37
1587014414139853,6281
1587014414140415,6281
1587014414173720,37
1587014414175394,37
1587014414177531,37
1587014414179090,37
1587014414181388,37
1587014414184780,37
1587014414244094,37
1587014414245662,37
1587014414262538,37
1587014414314226,37
1587014414352849,37
1587014414368682,37
1587014414371521,37
1587014414375287,37
1587014414379715,37
1587014414381371,37
1587014419459118,37
1587014419481193,414
1587014419493698,7543
1587014419494359,37
1587014419494504,7543
1587014419497859,7543
1587014419498241,37
1587014419498399,7543
1587014419501426,37
1587014419501580,7543
1587014419502906,7543
1587014419503304,37
1587014419503438,7543
1587014419514488,7543
1587014419514947,37
1587014419518054,37
1587014419518243,7543
1587014419522716,37
1587014419540858,7543
1587014419541914,37
1587014419564093,7543
1587014419589208,37
1587014419593886,7543
1587014419595048,37
1587014419595245,7543
1587014419596467,37
1587014419597771,37
1587014419608971,37
1587014419621553,37
1587014419634002,37
1587014419647153,37
1587014419648453,37
1587014419654639,37
1587014419656591,37
1587014419657683,37
1587014419664110,37
1587014419667308,37
1587014419690769,37
1587014419714418,37
1587014419739162,37
1587014419750830,37
1587014419755778,37
1587014419756810,37
1587014419758483,37
1587014419759823,37
1587014419761065,37
1587014419762180,37
1587014419765593,37
1587014419799144,37
1587014419803664,37
1587014419805058,37
1587014419806678,37
1587014420116424,16961
1587014420120929,16961
1587014420121717,16961
1587014420122686,16961
1587014420130483,16961
1587014420131375,16961
1587014420132257,16961
1587014420137235,16961
1587014420148291,16961
1587014420160335,16961
1587014420173886,16961
1587014420174592,16961
1587014420186393,16961
1587014420689899,11263
1587014420692495,11263
1587014420693267,11263
1587014420693659,11263
1587014420694836,11263
1587014420695514,11263
1587014420696969,11263
1587014420699283,11263
1587014420706772,11263
1587014420723127,11263
1587014420732955,11263
1587014420735007,11263
1587014420736473,11263
1587014421251295,12247
1587014421262879,12247
1587014421267600,12247
1587014421269101,12247
1587014421281262,12247
1587014421282706,12247
1587014421285096,12247
1587014421286042,12247
1587014421288137,12247
1587014421361108,12247
1587014421362642,12247
1587014421364034,12247
1587014421365532,12247
1587014421884038,12419
1587014421884943,12419
1587014421885924,12419
1587014421890226,12419
1587014421890956,12419
1587014421891563,12419
1587014421891929,12419
1587014421896974,12419
1587014421898315,12419
1587014421902650,12419
1587014421903725,12419
1587014421905002,12419
1587014421906464,12419
1587014422409823,11868
1587014422421059,11868
1587014423422050,11868
1587014423422825,11868
1587014423425887,11868
1587014423426656,11868
1587014423427357,11868
1587014423427710,11868
1587014423428307,11868
1587014423439913,11868
1587014423440612,11868
1587014423443260,11868
1587014423446162,11868
1587014423950531,14286
1587014423957341,14286
1587014423957922,14286
1587014423959869,14286
1587014423960998,14286
1587014423962706,14286
1587014423964417,14286
1587014423966425,14286
1587014423970376,14286
1587014423973763,14286
1587014423982098,14286
1587014423982909,14286
1587014423984499,14286
1587014424027803,414
1587014426875483,14370
1587014426879180,14370
1587014426887404,14370
1587014426888422,14370
1587014426888903,14370
1587014426889954,14370
1587014426890498,14370
1587014426890904,14370
1587014426910451,14370
1587014426928040,14370
1587014426932323,14370
1587014426934474,14370
1587014426946165,14370
1587014427452920,21499
1587014427454627,21499
1587014427456678,21499
1587014427467970,21499
1587014427473510,21499
1587014427474806,21499
1587014427477692,21499
1587014427479122,21499
1587014427559881,21499
1587014427574085,21499
1587014427585120,21499
1587014427587916,21499
1587014427589131,21499
1587014428102862,17564
1587014428114512,17564
1587014428117441,17564
1587014428118341,17564
1587014428118631,17564
1587014428131370,17564
1587014428133160,17564
1587014428134072,17564
1587014428135782,17564
1587014428148691,17564
1587014428149412,17564
1587014428151762,17564
1587014428155234,17564
1587014428660429,17879
1587014428670952,17879
1587014428672046,17879
1587014428683018,17879
1587014428694205,17879
1587014428698243,17879
1587014428701269,17879
1587014428702280,17879
1587014428703887,17879
1587014428704241,17879
1587014428706788,17879
1587014428707676,17879
1587014428711197,17879
1587014429230010,18761
1587014429231714,18761
1587014429232441,18761
1587014429233203,18761
1587014429243951,18761
1587014429245556,18761
1587014429246509,18761
1587014429247500,18761
1587014429248386,18761
1587014429249205,18761
1587014429250081,18761
1587014429250458,18761
1587014429251343,18761
1587014429757148,18060
1587014429757597,18060
1587014429758628,18060
1587014429769952,18060
1587014429772880,18060
1587014429784186,18060
1587014429784551,18060
1587014429787166,18060
1587014429788640,18060
1587014429790572,18060
1587014429791255,18060
1587014429792475,18060
1587014429802952,18060
1587014431467076,18564
1587014431468116,18564
1587014431469426,18564
1587014431480117,18564
1587014431492383,18564
1587014431504098,18564
1587014431504912,18564
1587014431505377,18564
1587014431516352,18564
1587014431526943,18564
1587014431527423,18564
1587014431528723,18564
1587014431530124,18564
1587014432035872,22177
1587014432043758,22177
1587014432044428,22177
1587014432045710,22177
1587014432046249,22177
1587014432057168,22177
1587014432067994,22177
1587014432068939,22177
1587014432069491,22177
1587014432070093,22177
1587014432082028,22177
1587014432082707,22177
1587014432083051,22177
1587014432593807,20378
1587014432594534,20378
1587014432595024,20378
1587014432600873,20378
1587014432602674,20378
1587014432603639,20378
1587014432614922,20378
1587014432616326,20378
1587014432617249,20378
1587014432618528,20378
1587014432629986,20378
1587014432652251,20378
1587014432653060,20378
1587014433172083,20301
1587014433183090,20301
1587014433183794,20301
1587014433185223,20301
1587014433185841,20301
1587014433186476,20301
1587014433187533,20301
1587014433194512,20301
1587014433195999,20301
1587014433207177,20301
1587014433207912,20301
1587014433208496,20301
1587014433218972,20301
1587014433723441,20934
1587014433724805,20934
1587014433736084,20934
1587014433747140,20934
1587014433758021,20934
1587014433758863,20934
1587014433759965,20934
1587014433760287,20934
1587014433761579,20934
1587014433762657,20934
1587014433763590,20934
1587014433764494,20934
1587014433764823,20934
1587014434266982,21075
1587014434277983,21075
1587014434280263,21075
1587014434291069,21075
1587014434291737,21075
1587014434292727,21075
1587014434304401,21075
1587014434316887,21075
1587014434318034,21075
1587014434318776,21075
1587014434319445,21075
1587014434319802,21075
1587014434320619,21075
1587014434821968,21343
1587014434833164,21343
1587014434833647,21343
1587014434845001,21343
1587014434845738,21343
1587014434846385,21343
1587014434846984,21343
1587014434847508,21343
1587014434847866,21343
1587014434861909,21343
1587014434866477,21343
1587014435875123,21343
1587014435876335,21343
1587014436450215,26072
1587014436453602,26072
1587014436455394,26072
1587014436466971,26072
1587014436473177,26072
1587014436475642,26072
1587014436519314,26072
1587014436534151,26072
1587014436535823,26072
1587014436540347,26072
1587014436540657,26072
1587014436555280,26072
1587014436571981,26072
1587014437089336,22800
1587014437090555,22800
1587014437092058,22800
1587014437092910,22800
1587014437093686,22800
1587014437094456,22800
1587014440148682,22800
1587014440170142,22800
1587014440172347,22800
1587014440173067,22800
1587014440173385,22800
1587014440173965,22800
1587014440174597,22800
1587014440679804,31007
1587014440680494,31007
1587014440681110,31007
1587014440691998,31007
1587014440692832,31007
1587014440704986,31007
1587014440708448,31007
1587014440709203,31007
1587014440711125,31007
1587014440712422,31007
1587014440713830,31007
1587014440725047,31007
1587014440736169,31007
1587014441241040,26324
1587014441252251,26324
1587014441262986,26324
1587014441263707,26324
1587014441264358,26324
1587014441265531,26324
1587014441265912,26324
1587014441277146,26324
1587014441278697,26324
1587014441279374,26324
1587014441280466,26324
1587014441281074,26324
1587014441283015,26324
1587014441795999,28039
1587014441806990,28039
1587014441807830,28039
1587014441809236,28039
1587014441820303,28039
1587014441831019,28039
1587014441842098,28039
1587014441842890,28039
1587014441843563,28039
1587014441844201,28039
1587014441846279,28039
1587014441846919,28039
1587014441849220,28039
1587014442388397,27499
1587014442391166,27499
1587014442404020,27499
1587014442405066,27499
1587014442405886,27499
1587014442406709,27499
1587014442407637,27499
1587014442408023,27499
1587014442410794,27499
1587014442422042,27499
1587014442424242,27499
1587014442435192,27499
1587014442436386,27499
1587014442959670,27431
1587014442960656,27431
1587014442961679,27431
1587014442962596,27431
1587014442963502,27431
1587014442978705,27431
1587014443003074,27431
1587014443005131,27431
1587014443006982,27431
1587014443013192,27431
1587014443024254,27431
1587014443025338,27431
1587014443026067,27431
1587014443527411,27404
1587014443529149,27404
1587014443530047,27404
1587014443531133,27404
1587014443531925,27404
1587014443533009,27404
1587014443534075,27404
1587014443535881,27404
1587014443537195,27404
1587014443538157,27404
1587014443539243,27404
1587014443541555,27404
1587014443552935,27404
1587014444058225,28432
1587014444059278,28432
1587014444060280,28432
1587014444063557,28432
1587014444064430,28432
1587014444065429,28432
1587014444066283,28432
1587014444068101,28432
1587014444068881,28432
1587014444069945,28432
1587014444072040,28432
1587014444093971,28432
1587014444096099,28432
1587014444597910,28863
1587014444609042,28863
1587014444610639,28863
1587014444611523,28863
1587014444612476,28863
1587014444613429,28863
1587014444614377,28863
1587014444615247,28863
1587014444631405,28863
1587014444632302,28863
1587014444633100,28863
1587014444634116,28863
1587014444645264,28863
1587014445157472,28367
1587014445158794,28367
1587014445159770,28367
1587014445160362,28367
1587014445164447,28367
1587014445186803,28367
1587014445189769,28367
1587014445190703,28367
1587014445191538,28367
1587014445192408,28367
1587014445193307,28367
1587014445197110,28367
1587014445198576,28367
1587014445707100,28560
1587014445707787,28560
1587014445708423,28560
1587014445709003,28560
1587014445709908,28560
1587014445710894,28560
1587014445711877,28560
1587014445713357,28560
1587014445724030,28560
1587014445725432,28560
1587014445726055,28560
1587014445727240,28560
1587014445727838,28560
1587014446229845,29713
1587014446231013,29713
1587014446231870,29713
1587014446232800,29713
1587014446233562,29713
1587014446234356,29713
1587014446238341,29713
1587014446239165,29713
1587014446240088,29713
1587014446243413,29713
1587014446254050,29713
1587014446255170,29713
1587014446255957,29713
1587014446769222,29369
1587014446770332,29369
1587014446771277,29369
1587014446772369,29369
1587014446783018,29369
1587014446784176,29369
1587014446784928,29369
1587014446785511,29369
1587014446786899,29369
1587014446787736,29369
1587014446799538,29369
1587014446803331,29369
1587014446803996,29369
1587014447308147,29755
1587014447309581,29755
1587014447310158,29755
1587014447310825,29755
1587014447311867,29755
1587014447312984,29755
1587014447313340,29755
1587014447325069,29755
1587014447327608,29755
1587014447341616,29755
1587014447353898,29755
1587014447354797,29755
1587014454372981,29755
1587014454876975,45815
1587014454878195,45815
1587014454881141,45815
1587014454881780,45815
1587014454882824,45815
1587014454883429,45815
1587014454884594,45815
1587014454895023,45815
1587014454899637,45815
1587014454900969,45815
1587014454901332,45815
1587014454902316,45815
1587014454906843,45815
1587014455408431,35613
1587014455418989,35613
1587014455420104,35613
1587014455420679,35613
1587014455421856,35613
1587014455422498,35613
1587014455422851,35613
1587014456431983,35613
1587014456432420,35613
1587014456433064,35613
1587014456434183,35613
1587014456434786,35613
1587014456435896,35613
1587014456944013,40146
1587014456945182,40146
1587014456945969,40146
1587014456948533,40146
1587014456952034,40146
1587014456952951,40146
1587014456953827,40146
1587014456954509,40146
1587014456955113,40146
1587014456956262,40146
1587014456956782,40146
1587014456958371,40146
1587014456959128,40146
1587014457465957,38982
1587014457466849,38982
1587014457467917,38982
1587014457469601,38982
1587014457470545,38982
1587014457471551,38982
1587014457472414,38982
1587014457472769,38982
1587014457473791,38982
1587014457476237,38982
1587014457477632,38982
1587014457478492,38982
1587014457483827,38982
1587014457993088,37815
1587014457993957,37815
1587014457994522,37815
1587014457995331,37815
1587014457995650,37815
1587014457996672,37815
1587014457997835,37815
1587014458022690,37815
1587014458024391,37815
1587014458025223,37815
1587014458026090,37815
1587014458027172,37815
1587014458031506,37815
1587014458533581,39054
1587014458536355,39054
1587014458536997,39054
1587014458538091,39054
1587014458548928,39054
1587014458549275,39054
1587014458559959,39054
1587014458560530,39054
1587014458561123,39054
1587014458562048,39054
1587014458562973,39054
1587014458563598,39054
1587014458564790,39054
1587014459069144,39238
1587014459070176,39238
1587014459070862,39238
1587014459071867,39238
1587014459083008,39238
1587014459083807,39238
1587014459084607,39238
1587014459085678,39238
1587014459086845,39238
1587014459098007,39238
1587014459099023,39238
1587014459099569,39238
1587014459099923,39238
1587014459629835,39141
1587014459630703,39141
1587014459631432,39141
1587014459632634,39141
1587014459633814,39141
1587014459634455,39141
1587014459635655,39141
1587014459637152,39141
1587014459637863,39141
1587014459643300,39141
1587014459643652,39141
1587014459644670,39141
1587014459646249,39141
1587014460155365,39239
1587014460157740,39239
1587014460158355,39239
1587014460159692,39239
1587014460160768,39239
1587014460161428,39239
1587014460161767,39239
1587014460162393,39239
1587014460167022,39239
1587014460168590,39239
1587014460169665,39239
1587014460171042,39239
1587014460172546,39239
1587014460681454,40887
1587014460682415,40887
1587014460683116,40887
1587014460684359,40887
1587014460684944,40887
1587014460686067,40887
1587014460687878,40887
1587014460688562,40887
1587014460689493,40887
1587014460690374,40887
1587014460691272,40887
1587014460691561,40887
1587014460692465,40887
1587014461204528,41034
1587014461205923,41034
1587014461206652,41034
1587014461208115,41034
1587014461219013,41034
1587014461220984,41034
1587014461222966,41034
1587014461224962,41034
1587014461225817,41034
1587014461238191,41034
1587014461239600,41034
1587014461240882,41034
1587014461253049,41034
1587014461762414,40691
1587014461770967,40691
1587014461773229,40691
1587014461774614,40691
1587014461775504,40691
1587014461776793,40691
1587014461777630,40691
1587014461779189,40691
1587014461790932,40691
1587014461791801,40691
1587014461792602,40691
1587014461804252,40691
1587014461805164,40691
1587014462312944,41171
1587014462314360,41171
1587014462315529,41171
1587014462316954,41171
1587014462318109,41171
1587014462322188,41171
1587014462323498,41171
1587014462325112,41171
1587014462339618,41171
1587014462348919,41171
1587014462350873,41171
1587014462363977,41171
1587014462364994,41171
1587014462869307,41650
1587014462870239,41650
1587014462871088,41650
1587014462872289,41650
1587014462875875,41650
1587014462876627,41650
1587014462877699,41650
1587014462889134,41650
1587014462890225,41650
1587014462891046,41650
1587014462891636,41650
1587014462893915,41650
1587014462894757,41650
1587014463416539,43043
1587014463419963,43043
1587014463420558,43043
1587014463431958,43043
1587014463433137,43043
1587014463434001,43043
1587014463434802,43043
1587014463435734,43043
1587014463436548,43043
1587014463438078,43043
1587014463438978,43043
1587014463439795,43043
1587014463440724,43043
1587014463950765,43108
1587014463952225,43108
1587014463953263,43108
1587014463953764,43108
1587014463954131,43108
1587014463955274,43108
1587014463956042,43108
1587014463957178,43108
1587014463979570,43108
1587014463980514,43108
1587014463981256,43108
1587014463982197,43108
1587014463984019,43108
1587014464486621,43791
1587014464487069,43791
1587014464488264,43791
1587014464489196,43791
1587014464500350,43791
1587014464501563,43791
1587014464511945,43791
1587014464512618,43791
1587014464514202,43791
1587014464521130,43791
1587014464521717,43791
1587014464522664,43791
1587014464523347,43791
1587014464839988,37
1587014465026162,43328
1587014466035078,43328
1587014466037153,43328
1587014466037486,43328
1587014466048867,43328
1587014466049888,43328
1587014466050400,43328
1587014466050989,43328
1587014466052873,43328
1587014466064086,43328
1587014466064441,43328
1587014466065818,43328
1587014466066934,43328
1587014466569436,46328
1587014466570033,46328
1587014466570582,46328
1587014466570983,46328
1587014466571906,46328
1587014466572915,46328
1587014466573379,46328
1587014466580104,46328
1587014466581447,46328
1587014466592020,46328
1587014466592802,46328
1587014466593202,46328
1587014466594171,46328
1587014467099980,45914
1587014467100549,45914
1587014467101335,45914
1587014467103253,45914
1587014467115178,45914
1587014467115778,45914
1587014467116365,45914
1587014467117536,45914
1587014467118111,45914
1587014467118432,45914
1587014467118811,45914
1587014467129996,45914
1587014467130572,45914
1587014467635795,45623
1587014467636479,45623
1587014467637617,45623
1587014467639133,45623
1587014467650016,45623
1587014467650755,45623
1587014467661937,45623
1587014467662468,45623
1587014467663255,45623
1587014467663572,45623
1587014467664815,45623
1587014467665506,45623
1587014467666152,45623
1587014468173542,46105
1587014468174328,46105
1587014468174909,46105
1587014468176018,46105
1587014468176903,46105
1587014468178165,46105
1587014468179155,46105
1587014468189963,46105
1587014468191299,46105
1587014468192442,46105
1587014468193719,46105
1587014468205216,46105
1587014468206330,46105
1587014468712620,46189
1587014468713530,46189
1587014468714156,46189
1587014468715016,46189
1587014468716105,46189
1587014468716910,46189
1587014468717282,46189
1587014468721110,46189
1587014468722263,46189
1587014468722627,46189
1587014468734765,46189
1587014468736481,46189
1587014468737395,46189
1587014469239431,47562
1587014469250175,47562
1587014469251336,47562
1587014469252361,47562
1587014469253177,47562
1587014469263982,47562
1587014469276027,47562
1587014469276998,47562
1587014469277993,47562
1587014469281905,47562
1587014469292960,47562
1587014469293851,47562
1587014469294559,47562
1587014469802604,46833
1587014469802999,46833
1587014469804327,46833
1587014469805091,46833
1587014470808202,46833
1587014470820589,46833
1587014470821870,46833
1587014470822841,46833
1587014470823881,46833
1587014470824688,46833
1587014470825336,46833
1587014470826025,46833
1587014470828152,46833
1587014471338415,50630
1587014471339319,50630
1587014471340124,50630
1587014471341450,50630
1587014471342369,50630
1587014471343526,50630
1587014471344300,50630
1587014471355975,50630
1587014471357055,50630
1587014471359263,50630
1587014471360437,50630
1587014471360896,50630
1587014471361977,50630
1587014471868364,49570
1587014471869409,49570
1587014471870189,49570
1587014471871052,49570
1587014471878356,49570
1587014471887160,49570
1587014471888546,49570
1587014471889491,49570
1587014471890366,49570
1587014471893125,49570
1587014471900379,49570
1587014471901401,49570
1587014471902599,49570
1587014472411952,49198
1587014472412633,49198
1587014472426274,49198
1587014472427690,49198
1587014472428474,49198
1587014472429339,49198
1587014472430228,49198
1587014472431092,49198
1587014472431920,49198
1587014472440059,49198
1587014472441592,49198
1587014472452467,49198
1587014472453327,49198
1587014472966762,49614
1587014472969377,49614
1587014472981432,49614
1587014472982219,49614
1587014472983162,49614
1587014472983910,49614
1587014472985397,49614
1587014472986220,49614
1587014472988010,49614
1587014472988576,49614
1587014472989332,49614
1587014472990606,49614
1587014472992549,49614
1587014473512761,50377
1587014473513878,50377
1587014473514690,50377
1587014473516777,50377
1587014473518030,50377
1587014473518882,50377
1587014473519693,50377
1587014473520529,50377
1587014473521267,50377
1587014473522853,50377
1587014473534017,50377
1587014473534912,50377
1587014473535989,50377
1587014474064266,50465
1587014474065230,50465
1587014474076859,50465
1587014474078569,50465
1587014474079369,50465
1587014474080413,50465
1587014474081301,50465
1587014474082458,50465
1587014474083179,50465
1587014474084079,50465
1587014474085127,50465
1587014474086120,50465
1587014474087548,50465
1587014474619055,50705
1587014474620641,50705
1587014474621528,50705
1587014474622698,50705
1587014474623776,50705
1587014474625284,50705
1587014474637523,50705
1587014474639077,50705
1587014474641491,50705
1587014474642996,50705
1587014474644382,50705
1587014474646668,50705
1587014474647352,50705
1587014475158036,51558
1587014475159947,51558
1587014475161180,51558
1587014475163017,51558
1587014475163979,51558
1587014475164981,51558
1587014475167473,51558
1587014475169324,51558
1587014475170845,51558
1587014475171579,51558
1587014475173031,51558
1587014475174741,51558
1587014475175852,51558
1587014475685036,51677
1587014475686110,51677
1587014475686881,51677
1587014475699097,51677
1587014475699892,51677
1587014475700691,51677
1587014475704160,51677
1587014475706269,51677
1587014475707446,51677
1587014475708301,51677
1587014475709394,51677
1587014475721022,51677
1587014475721895,51677
1587014476223624,52224
1587014476224896,52224
1587014476226046,52224
1587014476226798,52224
1587014476228082,52224
1587014476229026,52224
1587014476232842,52224
1587014476233591,52224
1587014476234459,52224
1587014476235303,52224
1587014476236473,52224
1587014476237545,52224
1587014476238111,52224
1587014476747471,52286
1587014476748883,52286
1587014476749834,52286
1587014476750226,52286
1587014476750778,52286
1587014476766655,52286
1587014476768879,52286
1587014476769622,52286
1587014476771130,52286
1587014476784219,52286
1587014476788252,52286
1587014476789730,52286
1587014476790417,52286
1587014476836283,37
1587014477293858,53048
1587014477296119,53048
1587014477296544,53048
1587014477308111,53048
1587014477309781,53048
1587014477310657,53048
1587014477311025,53048
1587014477323661,53048
1587014477337021,53048
1587014477338684,53048
1587014477339879,53048
1587014477344018,53048
1587014477344880,53048
1587014477853519,53605
1587014477854560,53605
1587014477855772,53605
1587014477857025,53605
1587014480869044,53605
1587014480870624,53605
1587014480871735,53605
1587014480872676,53605
1587014480873417,53605
1587014480874329,53605
1587014480875663,53605
1587014480876820,53605
1587014480877736,53605
1587014481379255,60792
1587014481380976,60792
1587014481381973,60792
1587014481382985,60792
1587014481384044,60792
1587014481385304,60792
1587014481386070,60792
1587014481387311,60792
1587014481388254,60792
1587014481389078,60792
1587014481390428,60792
1587014481391371,60792
1587014481392629,60792
1587014481900827,57992
1587014481902143,57992
1587014481902873,57992
1587014481904875,57992
1587014481907452,57992
1587014481908365,57992
1587014481909983,57992
1587014481914609,57992
1587014481917920,57992
1587014481918957,57992
1587014481920270,57992
1587014481921081,57992
1587014481933014,57992
1587014482444226,57739
1587014482445708,57739
1587014482448312,57739
1587014482449129,57739
1587014482449926,57739
1587014482450319,57739
1587014482451431,57739
1587014482452532,57739
1587014482453478,57739
1587014482454514,57739
1587014482465559,57739
1587014482466877,57739
1587014482468580,57739
1587014482974139,57361
1587014482975909,57361
1587014482976892,57361
1587014482978500,57361
1587014482979343,57361
1587014482980179,57361
1587014482981755,57361
1587014482982646,57361
1587014482983729,57361
1587014482985655,57361
1587014482988481,57361
1587014482989269,57361
1587014482990157,57361
1587014483492120,59202
1587014483492900,59202
1587014483493797,59202
1587014483494953,59202
1587014483496254,59202
1587014483497909,59202
1587014483498786,59202
1587014483499895,59202
1587014483501006,59202
1587014483512242,59202
1587014483513270,59202
1587014483527087,59202
1587014483527883,59202
1587014484033236,58375
1587014484034986,58375
1587014484046584,58375
1587014484047642,58375
1587014484049138,58375
1587014484049489,58375
1587014484050284,58375
1587014484050972,58375
1587014484052407,58375
1587014484064211,58375
1587014484066837,58375
1587014484070844,58375
1587014484072215,58375
1587014484576721,58482
1587014484577623,58482
1587014484579763,58482
1587014484581228,58482
1587014484582131,58482
1587014484583051,58482
1587014484584496,58482
1587014484587186,58482
1587014484588055,58482
1587014484605078,58482
1587014484607711,58482
1587014484620091,58482
1587014484631994,58482
1587014485152430,58930
1587014485163566,58930
1587014485164792,58930
1587014485165494,58930
1587014485166494,58930
1587014485167913,58930
1587014485173458,58930
1587014485174889,58930
1587014485180581,58930
1587014485194050,58930
1587014485196047,58930
1587014485197793,58930
1587014485200475,58930
1587014485704384,59007
1587014485707201,59007
1587014485709799,59007
1587014485710509,59007
1587014485713189,59007
1587014485713952,59007
1587014485835202,59007
1587014485837242,59007
1587014485838413,59007
1587014485840407,59007
1587014488851981,59007
1587014488863035,59007
1587014488866431,59007
1587014489376215,64512
1587014489376559,64512
1587014489388138,64512
1587014489389092,64512
1587014489389856,64512
1587014489391011,64512
1587014489402604,64512
1587014489404067,64512
1587014489414963,64512
1587014489415337,64512
1587014489416356,64512
1587014489418234,64512
1587014489428975,64512
1587014489936278,61089
1587014489949999,61089
1587014489951044,61089
1587014489954656,61089
1587014489959775,61089
1587014489961449,61089
1587014489972996,61089
1587014489973892,61089
1587014489984977,61089
1587014489995960,61089
1587014490006977,61089
1587014490018046,61089
1587014490018432,61089
1587014490530985,61789
1587014490531777,61789
1587014490533480,61789
1587014490544258,61789
1587014490545053,61789
1587014490546356,61789
1587014490547666,61789
1587014490559240,61789
1587014490560133,61789
1587014490560485,61789
1587014490561014,61789
1587014490561525,61789
1587014490563022,61789
1587014491065440,62209
1587014491065875,62209
1587014491066585,62209
1587014491067511,62209
1587014491067971,62209
1587014491068787,62209
1587014491071310,62209
1587014491071687,62209
1587014491072731,62209
1587014491073562,62209
1587014494084982,62209
1587014494096539,62209
1587014494108094,62209
1587014494627286,68251
1587014494639297,68251
1587014494640118,68251
1587014494640925,68251
1587014494641572,68251
1587014494642259,68251
1587014494646955,68251
1587014494648678,68251
1587014494650215,68251
1587014494652319,68251
1587014494652727,68251
1587014494654164,68251
1587014494666193,68251
1587014495176034,64106
1587014495177444,64106
1587014495188012,64106
1587014495189020,64106
1587014495200872,64106
1587014495212192,64106
1587014495223060,64106
1587014495225070,64106
1587014495225710,64106
1587014495238052,64106
1587014495238867,64106
1587014495239440,64106
1587014495245507,64106
1587014495456939,37
1587014495764146,64825
1587014495776365,64825
1587014495787774,64825
1587014495789047,64825
1587014496801082,64825
1587014496802005,64825
1587014496802580,64825
1587014496804615,64825
1587014496806341,64825
1587014496820708,64825
1587014496821639,64825
1587014496834414,64825
1587014496835439,64825
1587014497340179,67085
1587014497341471,67085
1587014497344416,67085
1587014497355173,67085
1587014497355797,67085
1587014497357546,67085
1587014497367977,67085
1587014497368587,67085
1587014497369414,67085
1587014497371084,67085
1587014497371442,67085
1587014497382703,67085
1587014497395054,67085
1587014497906524,66300
1587014497908006,66300
1587014497908859,66300
1587014497910257,66300
1587014497910638,66300
1587014497911182,66300
1587014497912664,66300
1587014497914207,66300
1587014497915824,66300
1587014497927098,66300
1587014497932175,66300
1587014497937777,66300
1587014497950128,66300
1587014498469245,66383
1587014498470276,66383
1587014498470718,66383
1587014498471715,66383
1587014498472562,66383
1587014498484266,66383
1587014498486654,66383
1587014498488127,66383
1587014498488712,66383
1587014498502496,66383
1587014498503572,66383
1587014498504388,66383
1587014498518076,66383
1587014499020685,66742
1587014499022117,66742
1587014499023619,66742
1587014499024649,66742
1587014499025294,66742
1587014499030108,66742
1587014499031140,66742
1587014499031939,66742
1587014499032658,66742
1587014499034375,66742
1587014499036640,66742
1587014499048210,66742
1587014499049227,66742
1587014499551181,66663
1587014499552853,66663
1587014499564090,66663
1587014499565143,66663
1587014499566538,66663
1587014499579067,66663
1587014499579804,66663
1587014499580640,66663
1587014499583040,66663
1587014499598004,66663
1587014499599559,66663
1587014499600034,66663
1587014499601403,66663
1587014500103932,68130
1587014500104359,68130
1587014500104949,68130
1587014500105504,68130
1587014500106385,68130
1587014500107831,68130
1587014500110356,68130
1587014500218302,68130
1587014500219015,37
1587014500219558,68130
1587014500220957,68130
1587014500221920,68130
1587014500226872,68130
1587014500227574,68130
1587014500729242,69130
1587014500740201,69130
1587014500751356,69130
1587014500752103,69130
1587014500753161,69130
1587014500754444,69130
1587014500755829,69130
1587014500757378,69130
1587014500758027,69130
1587014500766663,69130
1587014500777986,69130
1587014500779665,69130
1587014500783513,69130
1587014500882950,63
1587014504782249,4
1587014511750881,60
1587014511755739,61
1587014511766785,61
1587014511936168,37
1587014511936794,61
1587014511937436,60
1587014511939395,82245
1587014511940616,82245
1587014511952046,82245
1587014511963301,82245
1587014511965318,82245
1587014511976893,82245
1587014511978328,82245
1587014511979541,82245
1587014511981001,82245
1587014511993218,82245
1587014511997730,82245
1587014512024887,82245
1587014512026284,82245
1587014512535144,73458
1587014512537114,73458
1587014512547957,73458
1587014512559052,73458
1587014512559557,73458
1587014512570019,73458
1587014512570931,73458
1587014512572979,73458
1587014512585113,73458
1587014512596242,73458
1587014512597217,73458
1587014512599151,73458
1587014512610061,73458
1587014513122232,74402
1587014513124448,74402
1587014513126273,74402
1587014513137094,74402
1587014513137621,74402
1587014513148096,74402
1587014513159058,74402
1587014513170000,74402
1587014513170768,74402
1587014513171458,74402
1587014513173432,74402
1587014513184266,74402
1587014513195283,74402
1587014513698681,74214
1587014513710333,74214
1587014513710977,74214
1587014513712913,74214
1587014513724348,74214
1587014513725164,74214
1587014513736305,74214
1587014513747046,74214
1587014513749007,74214
1587014513749967,74214
1587014513750358,74214
1587014513752380,74214
1587014513763287,74214
1587014514280083,74257
1587014514280960,74257
1587014514282269,74257
1587014514303908,37
1587014515285098,74257
1587014515296035,74257
1587014515296584,74257
1587014515308329,74257
1587014515309084,74257
1587014515310912,74257
1587014515320164,74257
1587014515320698,74257
1587014515321349,74257
1587014515322247,74257
1587014515825396,76473
1587014515826348,76473
1587014515827283,76473
1587014515839566,76473
1587014515841326,76473
1587014515842024,76473
1587014515842623,76473
1587014515866910,76473
1587014515882109,76473
1587014515883794,76473
1587014515904166,76473
1587014515916161,76473
1587014515916854,76473
1587014516424861,76426
1587014516436058,76426
1587014516447197,76426
1587014516448904,76426
1587014516450706,76426
1587014516462175,76426
1587014516473384,76426
1587014516475984,76426
1587014516477072,76426
1587014516490117,76426
1587014516490693,37
1587014516503006,76426
1587014516515029,76426
1587014516515542,76426
1587014517037349,76246
1587014517048028,76246
1587014517058978,76246
1587014517059739,76246
1587014517061486,76246
1587014517062075,76246
1587014517063488,76246
1587014517073971,76246
1587014517074365,76246
1587014517076360,76246
1587014517076975,76246
1587014517079846,76246
1587014517091267,76246
1587014517605149,76732
1587014517606327,76732
1587014517606978,76732
1587014517607577,76732
1587014517609352,76732
1587014517705672,76732
1587014517706429,76732
1587014517707727,76732
1587014517719288,76732
1587014517719682,76732
1587014517720160,76732
1587014517721874,76732
1587014517733123,76732
1587014517934876,37
1587014518237635,77552
1587014518239077,77552
1587014518240770,77552
1587014518241178,77552
1587014518252064,77552
1587014518253172,77552
1587014518254625,77552
1587014518255444,77552
1587014518256493,77552
1587014518269076,77552
1587014518270899,77552
1587014518274273,77552
1587014518276870,77552
1587014518785051,76966
1587014518787109,76966
1587014518789846,76966
1587014518791458,76966
1587014518792898,76966
1587014518793732,76966
1587014518794696,76966
1587014518806486,76966
1587014519160946,37
1587014519809022,76966
1587014519809886,76966
1587014519812007,76966
1587014519813509,76966
1587014519815171,76966
1587014520316900,79139
1587014520317241,79139
1587014520318063,79139
1587014520319593,79139
1587014520322188,79139
1587014521331146,79139
1587014521335271,79139
1587014521336177,79139
1587014521338240,79139
1587014521341090,79139
1587014521341734,79139
1587014521343852,79139
1587014521344540,79139
1587014521849036,80200
1587014521850600,80200
1587014521850984,80200
1587014521862043,80200
1587014521862795,80200
1587014521864631,80200
1587014521866650,80200
1587014521868411,80200
1587014521879627,80200
1587014521880117,80200
1587014521892330,80200
1587014521903066,80200
1587014521914082,80200
1587014522422603,79072
1587014522424086,79072
1587014522424516,79072
1587014522435438,79072
1587014522445987,79072
1587014522456965,79072
1587014522457326,79072
1587014522457902,79072
1587014522458354,79072
1587014522469026,79072
1587014522480030,79072
1587014522482286,79072
1587014522484251,79072
1587014522990025,79261
1587014523000989,79261
1587014523012012,79261
1587014523013048,79261
1587014523093204,79261
1587014523095507,79261
1587014523106094,79261
1587014523106888,79261
1587014523107911,79261
1587014523109467,79261
1587014523113017,79261
1587014523113641,79261
1587014523115147,79261
1587014523627985,79281
1587014523629630,79281
1587014523629980,79281
1587014523630563,79281
1587014523632224,79281
1587014523643074,79281
1587014523643830,79281
1587014523655015,79281
1587014523657134,79281
1587014523658123,79281
1587014523658483,79281
1587014523659042,79281
1587014523660722,79281
1587014524165951,80439
1587014524166764,80439
1587014524167811,80439
1587014524169252,80439
1587014524171701,80439
1587014524173128,80439
1587014525174726,80439
1587014525176528,80439
1587014525177453,80439
1587014525178953,80439
1587014525180087,80439
1587014525180868,80439
1587014525183555,80439
1587014525805986,82323
1587014525809039,82323
1587014525810800,82323
1587014525812538,82323
1587014525823085,82323
1587014525834194,82323
1587014525845598,82323
1587014525858062,82323
1587014525858899,82323
1587014525860609,82323
1587014525861707,82323
1587014525862114,82323
1587014525863954,82323
1587014526369704,82107
1587014526381073,82107
1587014526381963,82107
1587014526384245,82107
1587014526395084,82107
1587014526396878,82107
1587014526397800,82107
1587014526398727,82107
1587014526400622,82107
1587014526402262,82107
1587014526413416,82107
1587014526415405,82107
1587014526415990,82107
1587014526919239,83868
1587014526930102,83868
1587014526942503,83868
1587014526943464,83868
1587014526944884,83868
1587014526945991,83868
1587014526947018,83868
1587014526947938,83868
1587014526950297,83868
1587014526963624,83868
1587014526975287,83868
1587014526987051,83868
1587014526988150,83868
1587014534568686,83750
1587014534570224,83750
1587014534573570,83750
1587014534585094,83750
1587014534585907,83750
1587014534589051,83750
1587014534600881,83750
1587014534601709,83750
1587014534603935,83750
1587014534604916,83750
1587014534605544,83750
1587014534607783,83750
1587014534611551,83750
1587014535120121,102696
1587014535132957,102696
1587014535146858,102696
1587014535147887,102696
1587014535148327,102696
1587014535152997,102696
1587014535153405,102696
1587014535174968,102696
1587014535176070,102696
1587014535176847,102696
1587014535189821,102696
1587014535203025,102696
1587014535203626,102696
1587014535716433,90231
1587014535716908,90231
1587014535721314,90231
1587014535743020,90231
1587014535745516,90231
1587014535758886,90231
1587014535759420,90231
1587014535759940,90231
1587014535761783,90231
1587014535765492,90231
1587014535777826,90231
1587014535790858,90231
1587014535791373,90231
1587014536403821,90579
1587014536404327,90579
1587014536416766,90579
1587014536428294,90579
1587014536428670,90579
1587014536431195,90579
1587014536443597,90579
1587014536446445,90579
1587014536447491,90579
1587014539459098,90579
1587014539459555,90579
1587014539462925,90579
1587014539475738,90579
1587014540030301,99763
1587014540041124,99763
1587014540041899,99763
1587014540043080,99763
1587014540045643,99763
1587014540068840,99763
1587014540072329,99763
1587014540075928,99763
1587014540078060,99763
1587014540083044,99763
1587014540085119,99763
1587014540087033,99763
1587014540099275,99763
1587014540624090,95974
1587014540626165,95974
1587014540627411,95974
1587014540631151,95974
1587014540644668,95974
1587014540645857,95974
1587014540648443,95974
1587014540650620,95974
1587014540651070,95974
1587014540655225,95974
1587014540664987,95974
1587014540669200,95974
1587014540691827,95974
1587014541193619,98518
1587014541211046,98518
1587014541285660,98518
1587014541289464,98518
1587014541289846,98518
1587014541290212,98518
1587014541292048,98518
1587014541292672,98518
1587014541296885,98518
1587014541301225,98518
1587014541313509,98518
1587014541317161,98518
1587014541334039,98518
1587014541543422,62
1587014541845877,98006
1587014541846670,98006
1587014541861206,98006
1587014541863652,98006
1587014541864356,98006
1587014541871825,98006
1587014541884815,98006
1587014541901847,98006
1587014541902540,98006
1587014541923822,98006
1587014541932515,98006
1587014541936478,98006
1587014541937232,98006
1587014542458298,97556
1587014542474882,97556
1587014542487800,97556
1587014542503840,97556
1587014542504816,97556
1587014542507680,97556
1587014542514584,97556
1587014542515537,97556
1587014542521044,97556
1587014542524276,97556
1587014542536068,97556
1587014542540490,97556
1587014542542812,97556
1587014543056834,98165
1587014543057586,98165
1587014543059482,98165
1587014543062352,98165
1587014543075094,98165
1587014543075993,98165
1587014543084985,98165
1587014543086251,98165
1587014543089273,98165
1587014543090703,98165
1587014543092730,98165
1587014543100219,98165
1587014543113578,98165
1587014543624094,99060
1587014543641118,99060
1587014543645502,99060
1587014543647723,99060
1587014543648770,99060
1587014543652209,99060
1587014543653046,99060
1587014543657648,99060
1587014543659033,99060
1587014543661873,99060
1587014543662806,99060
1587014543691595,99060
1587014543705837,99060
1587014544221720,100396
1587014544224542,100396
1587014544227870,100396
1587014544230243,100396
1587014544248471,100396
1587014544249656,100396
1587014544275831,100396
1587014544285044,100396
1587014545287266,100396
1587014545310840,100396
1587014545312051,100396
1587014545313918,100396
1587014545325932,100396
1587014545830754,104220
1587014545832471,104220
1587014545833521,104220
1587014545836016,104220
1587014545836386,104220
1587014545838680,104220
1587014545839588,104220
1587014545843973,104220
1587014545861367,104220
1587014545883507,104220
1587014545885431,104220
1587014545886391,104220
1587014545889182,104220
1587014546396264,101123
1587014546398505,101123
1587014546403330,101123
1587014546406362,101123
1587014546407604,101123
1587014546410663,101123
1587014546417947,101123
1587014546421062,101123
1587014546423707,101123
1587014546428241,101123
1587014546432384,101123
1587014546433143,101123
1587014546456168,101123
1587014549966362,102274
1587014549978826,102274
1587014549979930,102274
1587014550010814,102274
1587014550027849,102274
1587014550041473,102274
1587014550042478,102274
1587014550059829,102274
1587014550071429,102274
1587014550085054,102274
1587014550098615,102274
1587014550102969,102274
1587014550103364,102274
1587014550629689,107899
1587014550644481,107899
1587014550645312,107899
1587014550645814,107899
1587014550657968,107899
1587014551660119,107899
1587014551662262,107899
1587014551668843,107899
1587014551672517,107899
1587014551686557,107899
1587014551691254,107899
1587014551704307,107899
1587014551716106,107899
1587014552319424,106954
1587014552334285,106954
1587014552336591,106954
1587014552350048,106954
1587014552351077,106954
1587014552365917,106954
1587014552369266,106954
1587014552371797,106954
1587014552373959,106954
1587014552376375,106954
1587014552379097,106954
1587014552381386,106954
1587014552396412,106954
1587014552907703,105399
1587014552908538,105399
1587014552912797,105399
1587014552919104,105399
1587014552930218,105399
1587014552944857,105399
1587014552958566,105399
1587014552962302,105399
1587014552966804,105399
1587014552968945,105399
1587014552969823,105399
1587014552971280,105399
1587014556201518,105399
1587014556705342,114746
1587014556718211,114746
1587014556731279,114746
1587014556732705,114746
1587014556736549,114746
1587014556738616,114746
1587014556746943,114746
1587014556748900,114746
1587014556769906,114746
1587014556775073,114746
1587014556776956,114746
1587014556789398,114746
1587014556794809,114746
1587014557366533,109317
1587014557379049,109317
1587014557382967,109317
1587014557384331,109317
1587014557387256,109317
1587014557389278,109317
1587014557391484,109317
1587014557392940,109317
1587014557395032,109317
1587014557408707,109317
1587014557422049,109317
1587014557428758,109317
1587014557431163,109317
1587014557937250,110260
1587014557940852,110260
1587014557943716,110260
1587014557946908,110260
1587014558167535,110260
1587014558168078,110260
1587014558174049,110260
1587014558175602,110260
1587014558176192,110260
1587014558187164,110260
1587014558191803,110260
1587014558197409,110260
1587014558199456,110260
1587014558704626,110133
1587014558705286,110133
1587014558709832,110133
1587014558710861,110133
1587014558713156,110133
1587014558717203,110133
1587014558718080,110133
1587014558721492,110133
1587014558724719,110133
1587014558725978,110133
1587014558726915,110133
1587014558737778,110133
1587014558752370,110133
1587014559261669,110717
1587014559263697,110717
1587014559269849,110717
1587014559273083,110717
1587014559285826,110717
1587014559286874,110717
1587014559287657,110717
1587014559290390,110717
1587014559302831,110717
1587014559308303,110717
1587014559311806,110717
1587014559312911,110717
1587014559313359,110717
1587014559829944,110458
1587014559833228,110458
1587014559835359,110458
1587014559837793,110458
1587014559838146,110458
1587014559838500,110458
1587014559842921,110458
1587014559845949,110458
1587014559846513,110458
1587014559848004,110458
1587014559850444,110458
1587014559854970,110458
1587014559869954,110458
1587014560380764,111457
1587014560383270,111457
1587014560384895,111457
1587014560398263,111457
1587014560399007,111457
1587014560401724,111457
1587014560403922,111457
1587014560409738,111457
1587014560410128,111457
1587014560410766,111457
1587014560413218,111457
1587014560415886,111457
1587014560416353,111457
1587014560925872,111271
1587014560945073,111271
1587014560950151,111271
1587014560950522,111271
1587014560951505,111271
1587014560953630,111271
1587014560955052,111271
1587014560966842,111271
1587014560967973,111271
1587014560968935,111271
1587014560985038,111271
1587014560985493,111271
1587014560988217,111271
1587014561500997,112247
1587014561503553,112247
1587014561514873,112247
1587014561518952,112247
1587014561534994,112247
1587014561537735,112247
1587014561540891,112247
1587014561555752,112247
1587014561569107,112247
1587014561570433,112247
1587014561571450,112247
1587014561572194,112247
1587014561576419,112247
1587014562087779,112371
1587014562090462,112371
1587014562091887,112371
1587014562093103,112371
1587014562100414,112371
1587014562101473,112371
1587014562115280,112371
1587014562122336,112371
1587014562134829,112371
1587014562146875,112371
1587014562149656,112371
1587014562150073,112371
1587014562155510,112371
1587014562669509,112081
1587014562677002,112081
1587014562677888,112081
1587014562691058,112081
1587014562691805,112081
1587014562693734,112081
1587014562694610,112081
1587014562700867,112081
1587014562703790,112081
1587014562716212,112081
1587014562717293,112081
1587014562758061,112081
1587014562770829,112081
1587014563275297,112393
1587014563299861,112393
1587014563300354,112393
1587014563304033,112393
1587014563307975,112393
1587014563323825,112393
1587014563334876,112393
1587014563339587,112393
1587014563353050,112393
1587014563356640,112393
1587014563363806,112393
1587014563385832,112393
1587014563387109,112393
1587014563940515,113430
1587014563946312,113430
1587014563958712,113430
1587014563970114,113430
1587014563972886,113430
1587014563985838,113430
1587014563986835,113430
1587014563989037,113430
1587014563994776,113430
1587014564008132,113430
1587014564009202,113430
1587014564022989,113430
1587014564035806,113430
1587014564544544,115325
1587014564547365,115325
1587014564551584,115325
1587014564552541,115325
1587014564563647,115325
1587014564567282,115325
1587014564579834,115325
1587014564592903,115325
1587014564593698,115325
1587014564598460,115325
1587014564602982,115325
1587014564605320,115325
1587014564621422,115325
1587014565134104,113988
1587014566221121,64
1587014568230075,113988
1587014568231316,113988
1587014568239510,113988
1587014568242182,113988
1587014568245887,113988
1587014568248002,113988
1587014568251162,113988
1587014568263192,113988
1587014568270165,113988
1587014568284852,113988
1587014568285631,113988
1587014568288923,113988
1587014568806270,121525
1587014568807603,121525
1587014568812987,121525
1587014568824669,121525
1587014568842647,121525
1587014568845857,121525
1587014568849706,121525
1587014568853609,121525
1587014568876133,121525
1587014568877730,121525
1587014568880622,121525
1587014568884568,121525
1587014568885661,121525
1587014569407351,117575
1587014569411346,117575
1587014569412271,117575
1587014569417628,117575
1587014569430087,117575
1587014569431064,117575
1587014569435221,117575
1587014569438600,117575
1587014569444968,117575
1587014569466910,117575
1587014569469758,117575
1587014569472223,117575
1587014569472633,117575
1587014569974722,118161
1587014569987801,118161
1587014569991178,118161
1587014569994026,118161
1587014569995181,118161
1587014569999309,118161
1587014570000576,118161
1587014570006684,118161
1587014570019849,118161
1587014570022579,118161
1587014570025171,118161
1587014570046783,118161
1587014570051601,118161
1587014570555085,118994
1587014570570349,118994
1587014570578415,118994
1587014570582041,118994
1587014570595700,118994
1587014570600142,118994
1587014570604936,118994
1587014570617934,118994
1587014571624380,118994
1587014571628143,118994
1587014571632066,118994
1587014571646941,118994
1587014571651321,118994
1587014572153892,120990
1587014572154571,120990
1587014572157441,120990
1587014572162542,120990
1587014572174050,120990
1587014572176262,120990
1587014572176736,120990
1587014572181009,120990
1587014572187451,120990
1587014572210403,120990
1587014572210856,120990
1587014572212034,120990
1587014572216684,120990
1587014572732096,120586
1587014572783638,120586
1587014572784238,120586
1587014572785992,120586
1587014572788533,120586
1587014572789605,120586
1587014572813070,120586
1587014572830869,120586
1587014572831930,120586
1587014572834548,120586
1587014572835692,120586
1587014572838234,120586
1587014572838692,120586
1587014573360880,120772
1587014573362256,120772
1587014573376858,120772
1587014573398603,120772
1587014573411070,120772
1587014573425186,120772
1587014573429430,120772
1587014573442967,120772
1587014573445572,120772
1587014573457669,120772
1587014573458760,120772
1587014573473164,120772
1587014573477261,120772
1587014573986442,121765
1587014574007834,121765
1587014574012373,121765
1587014574019403,121765
1587014574031889,121765
1587014574046281,121765
1587014574060001,121765
1587014574061394,121765
1587014574066685,121765
1587014574067823,121765
1587014574069319,121765
1587014574074582,121765
1587014574077600,121765
1587014574602884,121921
1587014574603980,121921
1587014574604706,121921
1587014574607285,121921
1587014574619914,121921
1587014574620705,121921
1587014574623644,121921
1587014574625700,121921
1587014574638868,121921
1587014574644628,121921
1587014574645941,121921
1587014574647569,121921
1587014574648317,121921
1587014575161601,122474
1587014575173859,122474
1587014575174916,122474
1587014575175683,122474
1587014575179867,122474
1587014575184523,122474
1587014575188572,122474
1587014575200907,122474
1587014575223896,122474
1587014575226755,122474
1587014575229525,122474
1587014578238942,122474
1587014578243521,122474
1587014578758940,129493
1587014578762609,129493
1587014578768504,129493
1587014578769061,129493
1587014578770399,129493
1587014578772004,129493
1587014578785443,129493
1587014578801574,129493
1587014578806115,129493
1587014578821208,129493
1587014578824896,129493
1587014578828064,129493
1587014578845548,129493
1587014579351191,125032
1587014579364493,125032
1587014579366519,125032
1587014579369942,125032
1587014579374224,125032
1587014579381501,125032
1587014579384632,125032
1587014579385704,125032
1587014579390897,125032
1587014579394823,125032
1587014579399578,125032
1587014579401800,125032
1587014579428291,125032
1587014579944069,126097
1587014579945630,126097
1587014579949334,126097
1587014579966923,126097
1587014579971483,126097
1587014579973078,126097
1587014579984855,126097
1587014579986774,126097
1587014579990246,126097
1587014579994535,126097
1587014580002533,126097
1587014580015633,126097
1587014580023325,126097
1587014580529081,125884
1587014580532092,125884
1587014580532577,125884
1587014580536248,125884
1587014580536692,125884
1587014580537594,125884
1587014580564915,125884
1587014580568276,125884
1587014580578038,125884
1587014580578900,125884
1587014580582487,125884
1587014580583814,125884
1587014580596405,125884
1587014581110868,126615
1587014581114926,126615
1587014581116227,126615
1587014581119538,126615
1587014581132586,126615
1587014581133583,126615
1587014581134856,126615
1587014581147915,126615
1587014581157529,126615
1587014581160481,126615
1587014581162648,126615
1587014581178270,126615
1587014581179429,126615
1587014581694942,126199
1587014581697869,126199
1587014581699644,126199
1587014581703141,126199
1587014581707445,126199
1587014581709066,126199
1587014581709564,126199
1587014581719575,126199
1587014581732194,126199
1587014581736954,126199
1587014581738519,126199
1587014581741061,126199
1587014581744172,126199
1587014582263100,126986
1587014582264332,126986
1587014582264846,126986
1587014582272973,126986
1587014582277382,126986
1587014582281075,126986
1587014582282894,126986
1587014583747865,126986
1587014583761903,126986
1587014583763118,126986
1587014583766088,126986
1587014583768956,126986
1587014583770123,126986
1587014584354799,130527
1587014584366871,130527
1587014584371951,130527
1587014584385897,130527
1587014584399851,130527
1587014584408531,130527
1587014584415113,130527
1587014584415767,130527
1587014584430113,130527
1587014584444807,130527
1587014584458954,130527
1587014584461366,130527
1587014584465912,130527
1587014584989374,129679
1587014584995544,129679
1587014584996502,129679
1587014585002453,129679
1587014585014248,129679
1587014585017573,129679
1587014585018553,129679
1587014585034038,129679
1587014585038135,129679
1587014585041607,129679
1587014585042654,129679
1587014585054916,129679
1587014585057704,129679
1587014585570797,129494
1587014585582128,129494
1587014586808576,129494
1587014586812848,129494
1587014586813406,129494
1587014586813935,129494
1587014586827212,129494
1587014586829755,129494
1587014586841225,129494
1587014586854907,129494
1587014586869009,129494
1587014586869873,129494
1587014586886534,129494
1587014587392058,132746
1587014587402875,132746
1587014587407156,132746
1587014587428995,132746
1587014587436109,132746
1587014587451901,132746
1587014587454612,132746
1587014587466880,132746
1587014587488365,132746
1587014587501019,132746
1587014587514538,132746
1587014587516891,132746
1587014587517298,132746
1587014588030229,131527
1587014588035567,131527
1587014588052029,131527
1587014588064881,131527
1587014588065621,131527
1587014588078090,131527
1587014588097403,131527
1587014588099684,131527
1587014588125940,131527
1587014588128533,131527
1587014588145213,131527
1587014588149835,131527
1587014588150534,131527
1587014588654953,131511
1587014588655559,131511
1587014588655972,131511
1587014588670125,131511
1587014588674421,131511
1587014588686850,131511
1587014588687607,131511
1587014588700799,131511
1587014588701587,131511
1587014588704594,131511
1587014588709186,131511
1587014588716947,131511
1587014588718237,131511
1587014589236232,132280
1587014589238863,132280
1587014589239419,132280
1587014589243542,132280
1587014589244255,132280
1587014589246726,132280
1587014589262943,132280
1587014589279705,132280
1587014589297361,132280
1587014589304566,132280
1587014589307885,132280
1587014589308300,132280
1587014589311388,132280
1587014589825885,133485
1587014589826920,133485
1587014589839877,133485
1587014589853444,133485
1587014589858592,133485
1587014589863047,133485
1587014589874547,133485
1587014589880565,133485
1587014589883899,133485
1587014589901071,133485
1587014589904016,133485
1587014589904415,133485
1587014589918908,133485
1587014590516603,132915
1587014590518337,132915
1587014590522153,132915
1587014590536718,132915
1587014590543875,132915
1587014590544881,132915
1587014590545974,132915
1587014590570297,132915
1587014590585011,132915
1587014590586854,132915
1587014590587247,132915
1587014590588861,132915
1587014590590696,132915
1587014591238006,134580
1587014591243595,134580
1587014591266890,134580
1587014591267626,134580
1587014591282010,134580
1587014591284835,134580
1587014591287644,134580
1587014591290281,134580
1587014591293018,134580
1587014591297818,134580
1587014591300781,134580
1587014591312491,134580
1587014591315369,134580
1587014591826267,133839
1587014591828977,133839
1587014591829401,133839
1587014591832274,133839
1587014591846794,133839
1587014591849698,133839
1587014591852652,133839
1587014591866108,133839
1587014591884840,133839
1587014591888258,133839
1587014591902816,133839
1587014591907493,133839
1587014591908869,133839
1587014592425410,133885
1587014592428880,133885
1587014592441885,133885
1587014592445539,133885
1587014592451340,133885
1587014592456533,133885
1587014592469101,133885
1587014592471180,133885
1587014592485097,133885
1587014592490128,133885
1587014592492929,133885
1587014592496199,133885
1587014592496712,133885
1587014593003034,134985
1587014593015049,134985
1587014593016462,134985
1587014593019830,134985
1587014593027799,134985
1587014593028265,134985
1587014593030403,134985
1587014593033640,134985
1587014593046061,134985
1587014593048229,134985
1587014593064893,134985
1587014593067642,134985
1587014593072619,134985
1587014593596928,134361
1587014593600556,134361
1587014593606260,134361
1587014593619891,134361
1587014593623852,134361
1587014593628539,134361
1587014593734623,134361
1587014593736901,134361
1587014593741754,134361
1587014593742575,134361
1587014593744174,134361
1587014593752981,134361
1587014593767244,134361
1587014594276351,135305
1587014594282980,135305
1587014594286740,135305
1587014594290358,135305
1587014594295639,135305
1587014594296981,135305
1587014594323827,135305
1587014594337177,135305
1587014594343100,135305
1587014594353006,135305
1587014594354286,135305
1587014594357054,135305
1587014594367157,135305
1587014594877632,136162
1587014594878673,136162
1587014594882833,136162
1587014594883283,136162
1587014594895582,136162
1587014594909534,136162
1587014595533851,136162
1587014595540883,136162
1587014595542131,136162
1587014595549030,136162
1587014595551163,136162
1587014595552104,136162
1587014595566843,136162
1587014596085874,137577
1587014596089542,137577
1587014596094516,137577
1587014596094928,137577
1587014596096143,137577
1587014596097220,137577
1587014596109393,137577
1587014596123142,137577
1587014596128412,137577
1587014596132062,137577
1587014596143900,137577
1587014596144498,137577
1587014596147624,137577
1587014597661266,136557
1587014597662645,136557
1587014597667329,136557
1587014597688925,136557
1587014597690574,136557
1587014597703827,136557
1587014597708628,136557
1587014597711502,136557
1587014597713676,136557
1587014597722551,136557
1587014597731992,136557
1587014597733039,136557
1587014597745727,136557
1587014598257034,138343
1587014598268803,138343
1587014598270918,138343
1587014598274578,138343
1587014598277525,138343
1587014598284572,138343
1587014598287288,138343
1587014598299096,138343
1587014598313687,138343
1587014598314530,138343
1587014598315338,138343
1587014598328566,138343
1587014598343660,138343
1587014598865502,138725
1587014598868735,138725
1587014598871626,138725
1587014598888830,138725
1587014598902140,138725
1587014598915177,138725
1587014598916911,138725
1587014598918559,138725
1587014598921537,138725
1587014598922037,138725
1587014598925188,138725
1587014598928957,138725
1587014598944261,138725
1587014599457672,138143
1587014599459913,138143
1587014599462819,138143
1587014599463550,138143
1587014599488541,138143
1587014599492021,138143
1587014599493941,138143
1587014599496842,138143
1587014599502188,138143
1587014599515537,138143
1587014599517494,138143
1587014599520530,138143
1587014599524644,138143
1587014600050506,138894
1587014600052434,138894
1587014600054175,138894
1587014600055685,138894
1587014600070119,138894
1587014600072656,138894
1587014600076759,138894
1587014600078228,138894
1587014600081704,138894
1587014600083514,138894
1587014600084647,138894
1587014600085632,138894
1587014600087022,138894
1587014600599628,138735
1587014600602007,138735
1587014600607961,138735
1587014600614515,138735
1587014600622809,138735
1587014600626357,138735
1587014600631627,138735
1587014600645603,138735
1587014600656339,138735
1587014600656922,138735
1587014600659912,138735
1587014600672166,138735
1587014600678014,138735
1587014601183531,139397
1587014601191759,139397
1587014601205611,139397
1587014601207454,139397
1587014601220854,139397
1587014601225519,139397
1587014601239029,139397
1587014601240220,139397
1587014601241876,139397
1587014601245427,139397
1587014601248510,139397
1587014601263024,139397
1587014601265927,139397
1587014601773311,139107
1587014601786488,139107
1587014601790316,139107
1587014601793997,139107
1587014601801241,139107
1587014601813909,139107
1587014601815723,139107
1587014601821756,139107
1587014601822633,139107
1587014601824538,139107
1587014601830104,139107
1587014601833408,139107
1587014601846406,139107
1587014602348516,139985
1587014602352161,139985
1587014602356641,139985
1587014602357922,139985
1587014602386473,139985
1587014602404863,139985
1587014602408957,139985
1587014602421418,139985
1587014602426945,139985
1587014602430647,139985
1587014602431969,139985
1587014602436798,139985
1587014602437313,139985
1587014602948649,140109
1587014602965161,140109
1587014602970239,140109
1587014602972863,140109
1587014602991652,140109
1587014603004710,140109
1587014603007839,140109
1587014603009276,140109
1587014603015343,140109
1587014603027953,140109
1587014603028836,140109
1587014603034075,140109
1587014603047787,140109
1587014603724444,140491
1587014603726543,140491
1587014603737987,140491
1587014603741603,140491
1587014603754560,140491
1587014603770036,140491
1587014603783940,140491
1587014603786699,140491
1587014603791386,140491
1587014603792144,140491
1587014603792560,140491
1587014603806043,140491
1587014603809375,140491
1587014604334133,141008
1587014604339360,141008
1587014604357149,141008
1587014604362911,141008
1587014604386842,141008
1587014604391823,141008
1587014604403949,141008
1587014604412000,141008
1587014604424915,141008
1587014604425702,141008
1587014604431209,141008
1587014604521889,141008
1587014604528532,141008
1587014605044499,141306
1587014605048179,141306
1587014605060209,141306
1587014605065361,141306
1587014605077221,141306
1587014605081326,141306
1587014605092910,141306
1587014605098099,141306
1587014605101646,141306
1587014605102297,141306
1587014605106599,141306
1587014605130947,141306
1587014605147949,141306
1587014605652060,141488
1587014605656112,141488
1587014605670053,141488
1587014605674423,141488
1587014605678983,141488
1587014605679461,141488
1587014605696867,141488
1587014605712438,141488
1587014605725821,141488
1587014605727784,141488
1587014605730863,141488
1587014605735821,141488
1587014605737391,141488
1587014606322805,141599
1587014606327326,141599
1587014606328030,141599
1587014606331517,141599
1587014606334088,141599
1587014606338581,141599
1587014606342795,141599
1587014606344023,141599
1587014606358887,141599
1587014606375018,141599
1587014606378822,141599
1587014606379364,141599
1587014606401357,141599
1587014606923690,142479
1587014606927816,142479
1587014606930242,142479
1587014606942014,142479
1587014606943377,142479
1587014606944052,142479
1587014606953919,142479
1587014606965710,142479
1587014606966924,142479
1587014606971692,142479
1587014606972238,142479
1587014606988605,142479
1587014607002320,142479
1587014607511423,142476
1587014607521725,142476
1587014607536144,142476
1587014607538992,142476
1587014607551007,142476
1587014607558543,142476
1587014607561542,142476
1587014607563387,142476
1587014607568624,142476
1587014607580277,142476
1587014607595946,142476
1587014607600349,142476
1587014607603775,142476
1587014608111895,142967
1587014608115342,142967
1587014608116536,142967
1587014608120387,142967
1587014608133554,142967
1587014608140541,142967
1587014608144341,142967
1587014608145447,142967
1587014608152568,142967
1587014608154811,142967
1587014608159774,142967
1587014608164449,142967
1587014608188960,142967
1587014608707204,142668
1587014608712435,142668
1587014608716714,142668
1587014608717378,142668
1587014608727838,142668
1587014608731383,142668
1587014608744252,142668
1587014608746966,142668
1587014608760991,142668
1587014608771783,142668
1587014608772474,142668
1587014608777229,142668
1587014608779208,142668
1587014609440356,144858
1587014609443674,144858
1587014609448620,144858
1587014609457680,144858
1587014609469102,144858
1587014609471595,144858
1587014609473347,144858
1587014609478009,144858
1587014609480902,144858
1587014609495759,144858
1587014609499533,144858
1587014609514694,144858
1587014609530890,144858
1587014610036839,144130
1587014610037893,144130
1587014610053970,144130
1587014610062110,144130
1587014610067000,144130
1587014610081334,144130
1587014610092036,144130
1587014610106229,144130
1587014610122887,144130
1587014610125851,144130
1587014610132130,144130
1587014610136053,144130
1587014610143119,144130
1587014610650968,145637
1587014610665473,145637
1587014610667490,145637
1587014610679339,145637
1587014610685698,145637
1587014610686333,145637
1587014610709312,145637
1587014610731963,145637
1587014610733085,145637
1587014610746927,145637
1587014610771366,145637
1587014610778068,145637
1587014610790536,145637
1587014611368589,145338
1587014611369177,145338
1587014611375194,145338
1587014611389074,145338
1587014611389815,145338
1587014611408945,145338
1587014611424295,145338
1587014611427926,145338
1587014611434346,145338
1587014611449005,145338
1587014611463183,145338
1587014611470836,145338
1587014611483365,145338
1587014611999544,145233
1587014612017522,145233
1587014612034272,145233
1587014612037885,145233
1587014612042219,145233
1587014612055013,145233
1587014612055869,145233
1587014612056801,145233
1587014612069974,145233
1587014612074395,145233
1587014612088012,145233
1587014612089537,145233
1587014612090454,145233
1587014612596778,146737
1587014612598112,146737
1587014612599728,146737
1587014612600661,146737
1587014612610590,146737
1587014612625825,146737
1587014612627023,146737
1587014612627830,146737
1587014612631230,146737
1587014612632380,146737
1587014612636470,146737
1587014612637813,146737
1587014612652241,146737
1587014613176307,146929
1587014613179902,146929
1587014613201432,146929
1587014613203934,146929
1587014613212539,146929
1587014613215819,146929
1587014613222522,146929
1587014613235140,146929
1587014613239063,146929
1587014613247686,146929
1587014613251066,146929
1587014613251571,146929
1587014613257710,146929
1587014613772373,146496
1587014613773803,146496
1587014613778854,146496
1587014613786116,146496
1587014613788574,146496
1587014613794869,146496
1587014613802805,146496
1587014613803644,146496
1587014613815613,146496
1587014613820967,146496
1587014613836123,146496
1587014613837491,146496
1587014613846796,146496
1587014614365462,146843
1587014614366592,146843
1587014614379986,146843
1587014614381551,146843
1587014614389285,146843
1587014614391258,146843
1587014614396448,146843
1587014614411757,146843
1587014614415131,146843
1587014614417108,146843
1587014614419610,146843
1587014614421441,146843
1587014614432320,146843
1587014614942107,148383
1587014614947980,148383
1587014614962053,148383
1587014615183269,148383
1587014615184318,148383
1587014615188801,148383
1587014615193065,148383
1587014615201989,148383
1587014615215973,148383
1587014615217826,148383
1587014615234102,148383
1587014615238243,148383
1587014615253776,148383
1587014615757763,148042
1587014615761314,148042
1587014615765208,148042
1587014615778795,148042
1587014615789458,148042
1587014615813203,148042
1587014615813926,148042
1587014615815225,148042
1587014615818554,148042
1587014615824420,148042
1587014615846991,148042
1587014615847770,148042
1587014615851816,148042
1587014616355259,147915
1587014616357404,147915
1587014616370426,147915
1587014616375111,147915
1587014616377352,147915
1587014616384632,147915
1587014616387305,147915
1587014616391400,147915
1587014616392033,147915
1587014616392469,147915
1587014616393691,147915
1587014616428896,147915
1587014616461980,147915
1587014617070222,148823
1587014617071882,148823
1587014617072714,148823
1587014617073548,148823
1587014617092057,148823
1587014617094031,148823
1587014617110205,148823
1587014617111647,148823
1587014617113301,148823
1587014617126318,148823
1587014617133240,148823
1587014617135497,148823
1587014617144907,148823
1587014617656380,150284
1587014617669057,150284
1587014617674395,150284
1587014617675582,150284
1587014617679883,150284
1587014617683952,150284
1587014617688298,150284
1587014617696313,150284
1587014617709010,150284
1587014617713846,150284
1587014617715472,150284
1587014617726730,150284
1587014617745542,150284
1587014618254585,150228
1587014618258569,150228
1587014618265978,150228
1587014618273712,150228
1587014618289281,150228
1587014618304239,150228
1587014618308806,150228
1587014618312712,150228
1587014618313883,150228
1587014618326326,150228
1587014618332484,150228
1587014618333352,150228
1587014618333799,150228
1587014618848910,150077
1587014618864033,150077
1587014618866172,150077
1587014618875889,150077
1587014618877043,150077
1587014618883711,150077
1587014618905202,150077
1587014618907200,150077
1587014618921326,150077
1587014618934089,150077
1587014618946998,150077
1587014619023931,150077
1587014619024625,150077
1587014619531804,150533
1587014619533364,150533
1587014619534547,150533
1587014619538992,150533
1587014619543938,150533
1587014619546096,150533
1587014619564942,150533
1587014619576425,150533
1587014619583242,150533
1587014619603104,150533
1587014619607173,150533
1587014619625990,150533
1587014619634002,150533
1587014620153790,150386
1587014620160336,150386
1587014620174978,150386
1587014620175710,150386
1587014620180754,150386
1587014620185728,150386
1587014620191530,150386
1587014620218034,150386
1587014620222252,150386
1587014620234180,150386
1587014620238659,150386
1587014620240609,150386
1587014620243778,150386
1587014620760021,150740
1587014620777251,150740
1587014620779382,150740
1587014620791920,150740
1587014620798262,150740
1587014620813993,150740
1587014620820237,150740
1587014620893564,150740
1587014620895801,150740
1587014620910903,150740
1587014620915278,150740
1587014620927212,150740
1587014620930157,150740
1587014621438017,150873
1587014621440201,150873
1587014621440738,150873
1587014621445417,150873
1587014621454354,150873
1587014621466998,150873
1587014621467908,150873
1587014621473231,150873
1587014621477649,150873
1587014621484106,150873
1587014621502135,150873
1587014621503516,150873
1587014621510456,150873
1587014622034469,150891
1587014622049049,150891
1587014622052505,150891
1587014622053107,150891
1587014622057064,150891
1587014622064683,150891
1587014622068630,150891
1587014622081415,150891
1587014622090276,150891
1587014622091680,150891
1587014622100484,150891
1587014622102583,150891
1587014622105971,150891
1587014622616927,151488
1587014622621862,151488
1587014622622778,151488
1587014622645633,151488
1587014622652292,151488
1587014622668508,151488
1587014622675868,151488
1587014622680310,151488
1587014622697681,151488
1587014622699409,151488
1587014622876000,151488
1587014622882900,151488
1587014622894967,151488
1587014623407821,151592
1587014623412667,151592
1587014623418502,151592
1587014623422970,151592
1587014623438055,151592
1587014623453611,151592
1587014623457604,151592
1587014623472289,151592
1587014623484803,151592
1587014623489957,151592
1587014623493244,151592
1587014623493933,151592
1587014623494359,151592
1587014623996998,153040
1587014623999980,153040
1587014624004388,153040
1587014624010881,153040
1587014627020122,153040
1587014627032850,153040
1587014627047339,153040
1587014627059320,153040
1587014627074894,153040
1587014627079578,153040
1587014627083300,153040
1587014627087082,153040
1587014627093942,153040
1587014627605172,157532
1587014627613852,157532
1587014627619961,157532
1587014627643519,157532
1587014627648598,157532
1587014627652219,157532
1587014627657991,157532
1587014627659349,157532
1587014627664474,157532
1587014627668732,157532
1587014627672660,157532
1587014627687277,157532
1587014627690504,157532
1587014628256258,154221
1587014628274237,154221
1587014628286063,154221
1587014628293978,154221
1587014628294775,154221
1587014628303491,154221
1587014628318162,154221
1587014628319312,154221
1587014628326713,154221
1587014628334233,154221
1587014628349155,154221
1587014628366155,154221
1587014628369654,154221
1587014629018079,156316
1587014629019921,156316
1587014629027814,156316
1587014629029291,156316
1587014629039120,156316
1587014629040870,156316
1587014629067695,156316
1587014629068320,156316
1587014629072532,156316
1587014629074110,156316
1587014629092055,156316
1587014629099914,156316
1587014629102704,156316
1587014629610905,156391
1587014629612182,156391
1587014629631819,156391
1587014629646479,156391
1587014629652142,156391
1587014629652824,156391
1587014629668402,156391
1587014629688974,156391
1587014629695364,156391
1587014629697824,156391
1587014629721594,156391
1587014629737558,156391
1587014629749048,156391
1587014630262809,156682
1587014630263650,156682
1587014630267332,156682
1587014630283695,156682
1587014630289041,156682
1587014630302376,156682
1587014630313807,156682
1587014630333479,156682
1587014630337595,156682
1587014630353022,156682
1587014630359524,156682
1587014630370583,156682
1587014630387760,156682
1587014631125130,156203
1587014631131990,156203
1587014631149081,156203
1587014631150837,156203
1587014631166546,156203
1587014631167885,156203
1587014631175298,156203
1587014631197320,156203
1587014631208882,156203
1587014631211586,156203
1587014631221429,156203
1587014631236835,156203
1587014631543805,63
1587014633819934,63
1587014638253604,156203
1587014638882989,169046
1587014638887071,169046
1587014638895881,169046
1587014638905726,169046
1587014638918069,169046
1587014638923071,169046
1587014638936023,169046
1587014638948654,169046
1587014638952617,169046
1587014638958171,169046
1587014638974019,169046
1587014638979377,169046
1587014638983985,169046
1587014639500650,161321
1587014639508423,161321
1587014639512915,161321
1587014639531983,161321
1587014639614076,161321
1587014639616081,161321
1587014639623794,161321
1587014639624557,161321
1587014639625654,161321
1587014639649654,161321
1587014639654590,161321
1587014639656928,161321
1587014639661454,161321
1587014640171726,161586
1587014640173919,161586
1587014640176034,161586
1587014640176906,161586
1587014640199014,161586
1587014640215991,161586
1587014640220285,161586
1587014640228909,161586
1587014640234201,161586
1587014640239391,161586
1587014640244275,161586
1587014640248449,161586
1587014640264062,161586
1587014640832984,161389
1587014640838366,161389
1587014640842591,161389
1587014640851072,161389
1587014640854105,161389
1587014640858276,161389
1587014640878871,161389
1587014640881105,161389
1587014640882462,161389
1587014640890484,161389
1587014640892919,161389
1587014640898362,161389
1587014640900995,161389
1587014641408116,162427
1587014641414775,162427
1587014641415501,162427
1587014641420636,162427
1587014641422775,162427
1587014641435716,162427
1587014641436731,162427
1587014641437278,162427
1587014641437797,162427
1587014641467367,162427
1587014641468713,162427
1587014641469777,162427
1587014641476803,162427
1587014641990391,162013
1587014641990951,162013
1587014641997985,162013
1587014642016796,162013
1587014642041283,162013
1587014642046105,162013
1587014642053703,162013
1587014642068498,162013
1587014642073952,162013
1587014642079009,162013
1587014642080464,162013
1587014642095474,162013
1587014642098213,162013
1587014642628527,162612
1587014642629756,162612
1587014642636758,162612
1587014642655006,162612
1587014642672733,162612
1587014642675014,162612
1587014642699149,162612
1587014642705642,162612
1587014642711403,162612
1587014642712942,162612
1587014642714875,162612
1587014642716515,162612
1587014642745931,162612
1587014643253988,163005
1587014643256960,163005
1587014643263994,163005
1587014643276733,163005
1587014643289424,163005
1587014643290256,163005
1587014643302846,163005
1587014643307944,163005
1587014643309001,163005
1587014643316785,163005
1587014643475057,163005
1587014643478680,163005
1587014643483661,163005
1587014643996037,163324
1587014644011801,163324
1587014644024720,163324
1587014644037704,163324
1587014644046044,163324
1587014644047320,163324
1587014644049741,163324
1587014644055385,163324
1587014644060874,163324
1587014644066181,163324
1587014644084068,163324
1587014644085866,163324
1587014644102345,163324
1587014644625528,162724
1587014644628326,162724
1587014644632539,162724
1587014644636659,162724
1587014644638792,162724
1587014644645523,162724
1587014644650357,162724
1587014644663164,162724
1587014644680055,162724
1587014644695886,162724
1587014644710422,162724
1587014644717068,162724
1587014644728222,162724
1587014645237573,164131
1587014645252012,164131
1587014645254222,164131
1587014645258212,164131
1587014645266431,164131
1587014645344936,164131
1587014645355046,164131
1587014645360222,164131
1587014645373617,164131
1587014645377860,164131
1587014645381414,164131
1587014645385269,164131
1587014645393878,164131
1587014645902787,165179
1587014645913478,165179
1587014645921223,165179
1587014645936858,165179
1587014645952994,165179
1587014645970710,165179
1587014645977519,165179
1587014645979249,165179
1587014645985623,165179
1587014645994238,165179
1587014646004912,165179
1587014646015476,165179
1587014646032370,165179
1587014646547374,164757
1587014646548833,164757
1587014646567719,164757
1587014646574713,164757
1587014646576529,164757
1587014646599469,164757
1587014646600339,164757
1587014646616343,164757
1587014646631064,164757
1587014646633661,164757
