1587118638300832,31
1587118640783988,23
1587118640873511,23
1587118640878924,23
1587118640883447,29
1587118640965864,29
1587118640967158,29
1587118641000352,29
1587118641018346,29
1587118641025360,29
1587118641058244,29
1587118641069295,29
1587118641074170,29
1587118641076563,29
1587118641085855,29
1587118641117732,29
1587118641152076,29
1587118641713816,1329
1587118641726278,1329
1587118641744953,1329
1587118641747607,1329
1587118641750083,1329
1587118641752398,1329
1587118641753359,1329
1587118641755081,1329
1587118641767827,1329
1587118641769073,1329
1587118641770356,1329
1587118641771701,1329
1587118641774501,1329
1587118642284451,1931
1587118642285280,1931
1587118642286083,1931
1587118642287318,1931
1587118642288311,1931
1587118642289182,1931
1587118642289613,1931
1587118642290334,1931
1587118642291048,1931
1587118642292501,1931
1587118642293659,1931
1587118642295659,1931
1587118642298049,1931
1587118642800396,1160
1587118642801335,1160
1587118642802061,1160
1587118642814349,1160
1587118642815589,1160
1587118642817590,1160
1587118642818421,1160
1587118642819382,1160
1587118642829892,1160
1587118642831933,1160
1587118642832864,1160
1587118642834686,1160
1587118642835786,1160
1587118643340278,1618
1587118643341542,1618
1587118643346482,1618
1587118643349822,1618
1587118643351498,1618
1587118643352632,1618
1587118643355151,1618
1587118643357522,1618
1587118643359153,1618
1587118643362957,1618
1587118643374310,1618
1587118643375767,1618
1587118643376541,1618
1587118643891387,5469
1587118643894001,5469
1587118643911561,5469
1587118643913592,5469
1587118643926102,5469
1587118643939191,5469
1587118643940417,5469
1587118643943147,5469
1587118643944258,5469
1587118643946787,5469
1587118643948608,5469
1587118643949625,5469
1587118643955651,5469
1587118644473715,11584
1587118644478256,11584
1587118644479661,11584
1587118644480755,11584
1587118644481627,11584
1587118644482481,11584
1587118644493380,11584
1587118644502321,11584
1587118644510516,11584
1587118644512435,11584
1587118644512964,11584
1587118644513780,11584
1587118644515380,11584
1587118645019225,5946
1587118645030466,5946
1587118645043334,5946
1587118646046199,5946
1587118646047337,5946
1587118646048637,5946
1587118646049364,5946
1587118646060447,5946
1587118646061831,5946
1587118646068667,5946
1587118646070611,5946
1587118646071610,5946
1587118646072814,5946
1587118646578796,14344
1587118646580404,14344
1587118646583570,14344
1587118646585042,14344
1587118646586871,14344
1587118646591844,14344
1587118646597045,14344
1587118646600640,14344
1587118646607613,14344
1587118646611557,14344
1587118646616129,14344
1587118646618706,14344
1587118646633305,14344
1587118647153358,8950
1587118647231407,8950
1587118647233573,8950
1587118647235039,8950
1587118647235954,8950
1587118647236866,8950
1587118647238456,8950
1587118647248532,8950
1587118647253306,8950
1587118647262164,8950
1587118647277989,8950
1587118647290298,8950
1587118647302595,8950
1587118647814428,8950
1587118647815915,8950
1587118647817488,8950
1587118647819939,8950
1587118647820848,8950
1587118647822133,8950
1587118647823534,8950
1587118647824431,8950
1587118647826828,8950
1587118647830155,8950
1587118647831419,8950
1587118647832088,8950
1587118647834319,8950
1587118648338544,12661
1587118648340398,12661
1587118648341831,12661
1587118648343322,12661
1587118648345342,12661
1587118648346896,12661
1587118648348219,12661
1587118648371098,12661
1587118648371808,12661
1587118648374244,12661
1587118648376250,12661
1587118648380992,12661
1587118648393296,12661
1587118648664812,37
1587118648761744,37
1587118648895468,12951
1587118648896326,12951
1587118648896988,12951
1587118648925953,12951
1587118648930614,12951
1587118648938661,12951
1587118648941682,12951
1587118648952997,12951
1587118648961259,37
1587118648963647,12951
1587118648966656,12951
1587118648969763,12951
1587118648971331,12951
1587118648978104,12951
1587118649282198,37
1587118649492400,11594
1587118649497321,11594
1587118649499445,11594
1587118649501160,11594
1587118649505517,11594
1587118649508161,11594
1587118649520304,11594
1587118649531181,11594
1587118649546797,11594
1587118649555307,11594
1587118649560886,11594
1587118649564426,11594
1587118649568218,11594
1587118649675762,37
1587118650064764,37
1587118650080938,13033
1587118650085084,13033
1587118650088322,13033
1587118650089408,13033
1587118650101603,13033
1587118650136678,13033
1587118650139986,13033
1587118650144617,13033
1587118650155449,13033
1587118650157996,13033
1587118650171749,13033
1587118650180366,13033
1587118650187685,13033
1587118650701259,12779
1587118650704171,12779
1587118650707730,12779
1587118650712509,12779
1587118650715658,12779
1587118650719340,12779
1587118650725966,12779
1587118650728444,12779
1587118650729381,12779
1587118650730764,12779
1587118650735958,12779
1587118650742130,12779
1587118650745002,12779
1587118650908443,37
1587118651210115,63
1587118651259272,13082
1587118651263732,13082
1587118651273790,13082
1587118651276634,13082
1587118651280723,13082
1587118651313234,13082
1587118651337757,13082
1587118651340794,13082
1587118651344839,13082
1587118651349005,13082
1587118651352095,13082
1587118651359864,13082
1587118651366945,13082
1587118651879682,13748
1587118651881665,13748
1587118651885855,13748
1587118651888147,13748
1587118651891778,13748
1587118651896927,13748
1587118651909552,13748
1587118651926516,13748
1587118651952733,13748
1587118651958560,13748
1587118651967072,13748
1587118651992616,13748
1587118652004206,13748
1587118652632327,13896
1587118652634970,13896
1587118652636153,13896
1587118652637845,13896
1587118652638867,13896
1587118652639602,13896
1587118652640862,13896
1587118652647090,13896
1587118652654155,13896
1587118652656151,13896
1587118652656642,13896
1587118652668990,13896
1587118652675790,13896
1587118653180424,14510
1587118653188494,14510
1587118653191702,14510
1587118653193862,14510
1587118653210338,14510
1587118653213077,14510
1587118653214322,14510
1587118653219411,14510
1587118653224128,14510
1587118653229301,14510
1587118653230854,14510
1587118653232299,14510
1587118653234074,14510
1587118653661567,37
1587118653699737,37
1587118653835467,13914
1587118653837436,13914
1587118653839639,13914
1587118653840337,13914
1587118653840624,13914
1587118653852217,13914
1587118653855893,13914
1587118653859154,13914
1587118653860786,13914
1587118653861254,13914
1587118653862084,13914
1587118653870638,13914
1587118653884173,13914
1587118654394338,15285
1587118654406194,15285
1587118654407763,15285
1587118654408345,15285
1587118654420589,15285
1587118654421821,15285
1587118654426511,15285
1587118655429874,15285
1587118655441278,15285
1587118655450687,15285
1587118655451662,15285
1587118655452586,15285
1587118655453691,15285
1587118655956418,18125
1587118655957010,18125
1587118655958049,18125
1587118655958558,18125
1587118655959049,18125
1587118655963976,18125
1587118655965003,18125
1587118655965599,18125
1587118655966100,18125
1587118655968266,18125
1587118655968748,18125
1587118655969219,18125
1587118655969680,18125
1587118656478083,16330
1587118656479105,16330
1587118656479997,16330
1587118656480794,16330
1587118656481567,16330
1587118656482067,16330
1587118656484307,16330
1587118656486538,16330
1587118656487658,16330
1587118656489334,16330
1587118656493269,16330
1587118656496064,16330
1587118656500488,16330
1587118657010437,16651
1587118657011518,16651
1587118657012265,16651
1587118657013040,16651
1587118657017177,16651
1587118657018108,16651
1587118657021558,16651
1587118657022362,16651
1587118657024657,16651
1587118657025227,16651
1587118657026628,16651
1587118657028230,16651
1587118657028925,16651
1587118657546279,16640
1587118657547657,16640
1587118657559872,16640
1587118657562411,16640
1587118657563806,16640
1587118657564606,16640
1587118657570600,16640
1587118657571744,16640
1587118657572068,16640
1587118657583871,16640
1587118657586723,16640
1587118657588301,16640
1587118657602607,16640
1587118658116719,17921
1587118658117501,17921
1587118658120507,17921
1587118658131830,17921
1587118658133483,17921
1587118658133991,17921
1587118658134698,17921
1587118658135262,17921
1587118658135989,17921
1587118658136760,17921
1587118658138108,17921
1587118658139984,17921
1587118658140820,17921
1587118658482351,61
1587118658650399,17922
1587118658662944,17922
1587118658664379,17922
1587118658665228,17922
1587118658665819,17922
1587118658667240,17922
1587118658668595,17922
1587118658669364,17922
1587118658674829,17922
1587118658677193,17922
1587118658677927,17922
1587118658695482,17922
1587118658697055,17922
1587118658820164,37
1587118659202880,18191
1587118659203977,18191
1587118659207648,18191
1587118659208382,18191
1587118659211627,18191
1587118659220209,18191
1587118659221446,18191
1587118659222186,18191
1587118659222563,18191
1587118659224505,18191
1587118659235202,18191
1587118659238050,18191
1587118659238575,18191
1587118659743850,18245
1587118659745625,18245
1587118659746934,18245
1587118659759304,18245
1587118659763235,18245
1587118659764130,18245
1587118659765762,18245
1587118659766557,18245
1587118659767503,18245
1587118659768220,18245
1587118659779150,18245
1587118659781712,18245
1587118659794380,18245
1587118660296242,18287
1587118660297432,18287
1587118661271758,37
1587118662048966,37
1587118662122931,37
1587118662354840,37
1587118663307537,18287
1587118663311707,18287
1587118663312642,18287
1587118663313251,18287
1587118663325351,18287
1587118663328443,18287
1587118663452180,37
1587118663495764,37
1587118664876882,63
1587118670344378,18287
1587118670345225,18287
1587118670346259,18287
1587118670357350,18287
1587118670358119,18287
1587118670877183,31833
1587118670878051,31833
1587118670878680,31833
1587118670880024,31833
1587118670880428,31833
1587118670881553,31833
1587118670892456,31833
1587118670893343,31833
1587118670894241,31833
1587118670894887,31833
1587118670895918,31833
1587118670896791,31833
1587118670897796,31833
1587118671404873,27063
1587118671405385,27063
1587118671406037,27063
1587118671407431,27063
1587118671407994,27063
1587118671408544,27063
1587118671409246,27063
1587118671410217,27063
1587118671411275,27063
1587118671411756,27063
1587118671412923,27063
1587118671413264,27063
1587118671424142,27063
1587118671927159,29243
1587118671927766,29243
1587118671928939,29243
1587118671936123,29243
1587118671936764,29243
1587118671937403,29243
1587118671938398,29243
1587118671939012,29243
1587118671939552,29243
1587118671939852,29243
1587118671940871,29243
1587118671941861,29243
1587118671943072,29243
1587118672453179,27703
1587118672453869,27703
1587118672454603,27703
1587118672455716,27703
1587118672456359,27703
1587118672456890,27703
1587118672458255,27703
1587118672460177,27703
1587118672460743,27703
1587118672471205,27703
1587118672482328,27703
1587118672482954,27703
1587118672485856,27703
1587118672997383,27838
1587118672998090,27838
1587118672998616,27838
1587118672999785,27838
1587118673000408,27838
1587118673001683,27838
1587118673002338,27838
1587118673002845,27838
1587118673004342,27838
1587118673005542,27838
1587118673006585,27838
1587118673007110,27838
1587118673007625,27838
1587118673527488,30301
1587118673538255,30301
1587118673539041,30301
1587118673539793,30301
1587118673540450,30301
1587118673540803,30301
1587118673543455,30301
1587118673544101,30301
1587118673545480,30301
1587118673546624,30301
1587118673553253,30301
1587118673555267,30301
1587118673555963,30301
1587118674059410,29854
1587118674063307,29854
1587118674064038,29854
1587118674065570,29854
1587118674076939,29854
1587118674088129,29854
1587118674088871,29854
1587118674090330,29854
1587118674091039,29854
1587118674099952,29854
1587118674101506,29854
1587118674102473,29854
1587118674103439,29854
1587118674605193,29477
1587118674605989,29477
1587118674606881,29477
1587118674608071,29477
1587118674619150,29477
1587118674630499,29477
1587118674631114,29477
1587118674632514,29477
1587118674643144,29477
1587118674644768,29477
1587118674656178,29477
1587118674659100,29477
1587118674660340,29477
1587118675170688,30297
1587118675171762,30297
1587118675172476,30297
1587118675173022,30297
1587118675184366,30297
1587118675196216,30297
1587118675197025,30297
1587118675198183,30297
1587118675200168,30297
1587118675210473,30297
1587118675211433,30297
1587118675212287,30297
1587118675213103,30297
1587118675730192,30409
1587118675733287,30409
1587118675735522,30409
1587118675737330,30409
1587118675744654,30409
1587118675755887,30409
1587118675756683,30409
1587118675758327,30409
1587118676760298,30409
1587118676761176,30409
1587118676761482,30409
1587118676761777,30409
1587118676762393,30409
1587118677737371,62
1587118678274201,34689
1587118678275004,34689
1587118678277236,34689
1587118678279417,34689
1587118678280997,34689
1587118678283573,34689
1587118678296133,34689
1587118678297339,34689
1587118678298270,34689
1587118678299188,34689
1587118678311135,34689
1587118678314090,34689
1587118678315285,34689
1587118678817559,34554
1587118678828364,34554
1587118678831806,34554
1587118678833563,34554
1587118678834871,34554
1587118678837798,34554
1587118678840136,34554
1587118678847875,34554
1587118678850203,34554
1587118678852808,34554
1587118678854426,34554
1587118678855556,34554
1587118678866637,34554
1587118679367996,33848
1587118679368794,33848
1587118679369585,33848
1587118680371964,33848
1587118680373092,33848
1587118680374856,33848
1587118680378136,33848
1587118680378952,33848
1587118680379319,33848
1587118680380327,33848
1587118680381084,33848
1587118680382153,33848
1587118680611030,61
1587118681390204,33848
1587118681904252,36137
1587118681905227,36137
1587118681905658,36137
1587118681906260,36137
1587118681906830,36137
1587118681908048,36137
1587118681908812,36137
1587118681920435,36137
1587118681922813,36137
1587118681934289,36137
1587118681935197,36137
1587118681935857,36137
1587118681936459,36137
1587118682249701,63
1587118682449140,34809
1587118682450084,34809
1587118682451205,34809
1587118682451927,34809
1587118682453127,34809
1587118682454596,34809
1587118682466989,34809
1587118682479212,34809
1587118682480192,34809
1587118682491460,34809
1587118682492074,34809
1587118682492846,34809
1587118682495069,34809
1587118682997118,35881
1587118682998091,35881
1587118682999259,35881
1587118683000098,35881
1587118683001116,35881
1587118683002597,35881
1587118683003829,35881
1587118683005772,35881
1587118683007512,35881
1587118683018743,35881
1587118683020239,35881
1587118683021526,35881
1587118683033315,35881
1587118683546331,35380
1587118683547492,35380
1587118684292756,61
1587118684555208,35380
1587118684556023,35380
1587118684556964,35380
1587118684557762,35380
1587118684559160,35380
1587118684562687,35380
1587118684574370,35380
1587118684586297,35380
1587118684588361,35380
1587118684589195,35380
1587118684590029,35380
1587118684825370,63
1587118685091598,37125
1587118685092494,37125
1587118685093792,37125
1587118685094424,37125
1587118685095742,37125
1587118685096315,37125
1587118685107275,37125
1587118685108119,37125
1587118685109343,37125
1587118685127345,37125
1587118685142632,37125
1587118685144390,37125
1587118685146203,37125
1587118685652519,36730
1587118685654030,36730
1587118685655661,36730
1587118685656442,36730
1587118685657818,36730
1587118685659094,36730
1587118685660893,36730
1587118685662295,36730
1587118685665068,36730
1587118685678744,36730
1587118685680372,36730
1587118685683055,36730
1587118685699055,36730
1587118686204135,36883
1587118686206013,36883
1587118686207463,36883
1587118686207987,36883
1587118686213327,36883
1587118686215153,36883
1587118686226412,36883
1587118686227237,36883
1587118686227896,36883
1587118686228382,36883
1587118686230109,36883
1587118686230615,36883
1587118686241420,36883
1587118686748064,37982
1587118686748462,37982
1587118686749010,37982
1587118686750797,37982
1587118686755118,37982
1587118686756290,37982
1587118686767222,37982
1587118686769053,37982
1587118686770180,37982
1587118686772381,37982
1587118686783434,37982
1587118686784399,37982
1587118686785084,37982
1587118687291283,38259
1587118688074821,61
1587118690300179,38259
1587118690300894,38259
1587118690301966,38259
1587118690302380,38259
1587118690302820,38259
1587118690304736,38259
1587118690651153,4
1587118691390973,63
1587118693190866,64
1587118697316238,38259
1587118697317036,38259
1587118697317594,38259
1587118697323874,38259
1587118697324565,38259
1587118697325672,38259
1587118697836275,49595
1587118697837067,49595
1587118697837657,49595
1587118697839194,49595
1587118698845401,49595
1587118698846455,49595
1587118698847613,49595
1587118698848163,49595
1587118698848658,49595
1587118698849663,49595
1587118698860170,49595
1587118698872219,49595
1587118698872961,49595
1587118699385273,46014
1587118699387049,46014
1587118699387423,46014
1587118699389117,46014
1587118699400567,46014
1587118699401588,46014
1587118699402679,46014
1587118699404757,46014
1587118699405722,46014
1587118699406400,46014
1587118699407720,46014
1587118699408397,46014
1587118699419984,46014
1587118699921941,44554
1587118699923261,44554
1587118699925169,44554
1587118699937613,44554
1587118699938477,44554
1587118699939577,44554
1587118699940473,44554
1587118699945521,44554
1587118699960762,44554
1587118699972867,44554
1587118699974322,44554
1587118699976045,44554
1587118699977467,44554
1587118700484396,45698
1587118700485415,45698
1587118700485808,45698
1587118700486558,45698
1587118700487802,45698
1587118700488922,45698
1587118700501980,45698
1587118700502999,45698
1587118700504292,45698
1587118700505506,45698
1587118700506358,45698
1587118700507162,45698
1587118700519253,45698
1587118701030286,45479
1587118701031602,45479
1587118701032492,45479
1587118701034091,45479
1587118701035163,45479
1587118701043086,45479
1587118701044989,45479
1587118701045760,45479
1587118701057179,45479
1587118701058173,45479
1587118701070427,45479
1587118701071586,45479
1587118701073013,45479
1587118701580758,45394
1587118701581671,45394
1587118701584585,45394
1587118701585376,45394
1587118702409276,37
1587118702588457,45394
1587118702590053,45394
1587118702591073,45394
1587118702591611,45394
1587118702602166,45394
1587118702613407,45394
1587118702615112,45394
1587118702615783,45394
1587118702616479,45394
1587118702669616,37
1587118703122531,49119
1587118703207882,49119
1587118703209612,49119
1587118703210599,49119
1587118703225424,49119
1587118703227309,49119
1587118703228534,49119
1587118703229967,49119
1587118703233230,49119
1587118703235045,49119
1587118703236133,49119
1587118703237592,49119
1587118703238518,49119
1587118703742555,51524
1587118703743542,51524
1587118703744205,51524
1587118703745419,51524
1587118703761289,51524
1587118703763006,51524
1587118703764733,51524
1587118703766093,51524
1587118703766878,51524
1587118703769737,51524
1587118703785151,51524
1587118703788935,51524
1587118703794271,51524
1587118704304362,51516
1587118704306052,51516
1587118704306796,51516
1587118704307714,51516
1587118704313131,51516
1587118704325893,51516
1587118704327888,51516
1587118704330001,51516
1587118704331664,51516
1587118704332898,51516
1587118704345780,51516
1587118704347312,51516
1587118704361526,51516
1587118704862918,51057
1587118704865385,51057
1587118704866729,51057
1587118704867760,51057
1587118704868787,51057
1587118704871872,51057
1587118704872260,51057
1587118704872597,51057
1587118704873442,51057
1587118704876205,51057
1587118704876928,51057
1587118704878146,51057
1587118704890312,51057
1587118705150997,37
1587118705300813,37
1587118705384046,37
1587118705404216,52823
1587118705416895,52823
1587118705420618,52823
1587118705425358,52823
1587118705427213,52823
1587118705428362,52823
1587118705430839,52823
1587118705433954,52823
1587118705447118,52823
1587118705448753,52823
1587118705450378,52823
1587118705452665,52823
1587118705454815,52823
1587118705630708,4
1587118705968286,51952
1587118705969432,51952
1587118705971231,51952
1587118705972238,51952
1587118705973071,51952
1587118705973824,51952
1587118705974732,51952
1587118705976543,51952
1587118705982008,51952
1587118705983002,51952
1587118705994508,51952
1587118705996732,51952
1587118705997366,51952
1587118706500044,54317
1587118706500463,54317
1587118706501183,54317
1587118706501895,54317
1587118706503844,54317
1587118706504913,54317
1587118707426862,62
1587118707513182,54317
1587118707513663,54317
1587118707516125,54317
1587118707517373,54317
1587118707528411,54317
1587118707530830,54317
1587118707531758,54317
1587118707590814,62
1587118708042496,54362
1587118708053207,54362
1587118708053895,54362
1587118708065832,54362
1587118708067525,54362
1587118708078148,54362
1587118708079433,54362
1587118708080762,54362
1587118708093177,54362
1587118708095342,54362
1587118708096049,54362
1587118708097964,54362
1587118709109203,54362
1587118709617394,56084
1587118709618735,56084
1587118709626471,56084
1587118709627426,56084
1587118709641485,56084
1587118709642723,56084
1587118709643494,56084
1587118709644443,56084
1587118709645233,56084
1587118709645880,56084
1587118709646837,56084
1587118709647205,56084
1587118709649841,56084
1587118709995107,37
1587118710163487,54436
1587118710165530,54436
1587118710166483,54436
1587118710167212,54436
1587118710168197,54436
1587118710168915,54436
1587118710461824,61
1587118710636459,61
1587118710700748,37
1587118711199403,54436
1587118711200126,54436
1587118711200648,54436
1587118711201618,54436
1587118711202359,54436
1587118711204118,54436
1587118711215193,54436
1587118711431656,61
1587118711720876,58629
1587118711722425,58629
1587118711723640,58629
1587118711724043,58629
1587118711724649,58629
1587118711725195,58629
1587118711725657,58629
1587118711726652,58629
1587118711727133,58629
1587118711738244,58629
1587118711739284,58629
1587118711740518,58629
1587118711741202,58629
1587118712251422,57475
1587118712252570,57475
1587118712253220,57475
1587118712253629,57475
1587118712253942,57475
1587118712254946,57475
1587118712255322,57475
1587118712255811,57475
1587118712258099,57475
1587118712259442,57475
1587118712270384,57475
1587118712282184,57475
1587118712283922,57475
1587118712506347,4
1587118712795619,56775
1587118712796621,56775
1587118712798046,56775
1587118712798399,61
1587118712798940,56775
1587118712799507,56775
1587118712800832,56775
1587118712802476,56775
1587118712802998,56775
1587118712804211,56775
1587118712805541,56775
1587118712816845,56775
1587118712818519,56775
1587118712819937,56775
1587118713330878,56819
1587118713331616,56819
1587118713332133,56819
1587118713332710,56819
1587118713333268,56819
1587118713333863,56819
1587118713334307,56819
1587118713335428,56819
1587118713335989,56819
1587118713339309,56819
1587118713339798,56819
1587118713340232,56819
1587118713340757,56819
1587118713790489,61
1587118713842279,56910
1587118713843382,56910
1587118713843989,56910
1587118713846353,56910
1587118713847811,56910
1587118713848791,56910
1587118713849492,56910
1587118713850014,56910
1587118713850533,56910
1587118713851842,56910
1587118713852422,56910
1587118713852861,56910
1587118713853375,56910
1587118714308757,61
1587118714354840,57941
1587118714356654,57941
1587118714359424,57941
1587118714360032,57941
1587118714360566,57941
1587118714361458,57941
1587118714365285,57941
1587118714367364,57941
1587118714368259,57941
1587118714368810,57941
1587118714369403,57941
1587118714370067,57941
1587118714370694,57941
1587118714874100,57160
1587118714874543,57160
1587118714875209,57160
1587118714875763,57160
1587118714879243,57160
1587118714879674,57160
1587118714880084,57160
1587118714881235,57160
1587118714881729,57160
1587118714882189,57160
1587118714882935,57160
1587118714883415,57160
1587118714883877,57160
1587118715067721,4
1587118715386470,57254
1587118715387493,57254
1587118715388081,57254
1587118715388888,57254
1587118715389644,57254
1587118715390107,57254
1587118715390656,57254
1587118715392395,57254
1587118715393624,57254
1587118715394803,57254
1587118715396548,57254
1587118715397582,57254
1587118715399252,57254
1587118715644723,37
1587118715658822,37
1587118715661250,37
1587118715683078,37
1587118715902427,61842
1587118715902940,61842
1587118715904235,61842
1587118715905406,61842
1587118715916155,61842
1587118715918336,61842
1587118715919677,61842
1587118715920172,61842
1587118715920682,61842
1587118715922273,61842
1587118715923417,61842
1587118715923978,61842
1587118715924874,61842
1587118716425853,60519
1587118716426521,60519
1587118716427011,60519
1587118716427640,60519
1587118716428837,60519
1587118716429649,60519
1587118716430167,60519
1587118718364636,4
1587118718405637,37
1587118718406429,37
1587118718627924,37
1587118718841311,37
1587118718842025,37
1587118719435759,60519
1587118719436489,60519
1587118719437344,60519
1587118719438011,60519
1587118719439093,60519
1587118719439561,60519
1587118719943498,66686
1587118719944017,66686
1587118719944432,66686
1587118719944976,66686
1587118719945439,66686
1587118719946133,66686
1587118719947844,66686
1587118719953131,66686
1587118719953593,66686
1587118719954060,66686
1587118719954565,66686
1587118719955122,66686
1587118719962144,66686
1587118720464298,62756
1587118720464944,62756
1587118720466053,62756
1587118720467142,62756
1587118720467696,62756
1587118720468928,62756
1587118720469348,62756
1587118722468411,37
1587118722469385,37
1587118722651097,61
1587118722724705,63
1587118723475298,62756
1587118723477411,62756
1587118723477895,62756
1587118723478577,62756
1587118723479082,62756
1587118723479531,62756
1587118723980641,69524
1587118723981768,69524
1587118723984115,69524
1587118723984784,69524
1587118723985621,69524
1587118723986602,69524
1587118723987374,69524
1587118723988227,69524
1587118723988892,69524
1587118723990454,69524
1587118723991167,69524
1587118723991750,69524
1587118723993218,69524
1587118724494791,66058
1587118724495376,66058
1587118725499138,66058
1587118725500195,66058
1587118725501541,66058
1587118725502285,66058
1587118725502968,66058
1587118725503711,66058
1587118725504355,66058
1587118725504797,66058
1587118725505267,66058
1587118725505849,66058
1587118725506477,66058
1587118725563159,61
1587118726007564,68447
1587118726008281,68447
1587118726008848,68447
1587118726009564,68447
1587118726010487,68447
1587118726011294,68447
1587118726012335,68447
1587118726012977,68447
1587118726013645,68447
1587118726014123,68447
1587118726014620,68447
1587118726015717,68447
1587118726017434,68447
1587118726518501,67434
1587118726519244,67434
1587118726519745,67434
1587118726520424,67434
1587118726520948,67434
1587118726521389,67434
1587118726522115,67434
1587118726522665,67434
1587118726523177,67434
1587118726523964,67434
1587118726524466,67434
1587118726525116,67434
1587118726525583,67434
1587118726860159,37
1587118727028089,67974
1587118727028969,67974
1587118727029927,67974
1587118727033811,67974
1587118727035312,67974
1587118727035949,67974
1587118727037269,67974
1587118727038701,67974
1587118727039264,67974
1587118727040687,67974
1587118727041109,67974
1587118727043971,67974
1587118727044539,67974
1587118727056073,37
1587118727546294,68857
1587118727547357,68857
1587118727548133,68857
1587118727549019,68857
1587118727550083,68857
1587118727551143,68857
1587118727553114,68857
1587118727554722,68857
1587118727558654,68857
1587118727559498,68857
1587118727560755,68857
1587118727561872,68857
1587118727562359,68857
1587118728064682,68065
1587118728065630,68065
1587118728069393,68065
1587118728071272,68065
1587118728072608,68065
1587118728074141,68065
1587118728075307,68065
1587118728082451,68065
1587118728083217,68065
1587118728084043,68065
1587118728084614,68065
1587118728087671,68065
1587118728089257,68065
1587118728592551,70949
1587118728593457,70949
1587118728594528,70949
1587118728595938,70949
1587118728830953,37
1587118730843073,37
1587118730845077,37
1587118730845860,37
1587118730920516,37
1587118731603324,70949
1587118731604409,70949
1587118731604937,70949
1587118731605359,70949
1587118731605899,70949
1587118731609414,70949
1587118731609868,70949
1587118731610385,70949
1587118731611788,70949
1587118732050204,4
1587118732112774,74928
1587118732113473,74928
1587118732114557,74928
1587118732117798,74928
1587118732119330,74928
1587118732119861,74928
1587118732121586,74928
1587118732122233,74928
1587118732122763,74928
1587118732123498,74928
1587118732124026,74928
1587118732133367,74928
1587118732140033,74928
1587118732264637,62
1587118732647180,72858
1587118732649887,72858
1587118732651030,72858
1587118732657401,72858
1587118732659511,72858
1587118732660504,72858
1587118732660799,37
1587118732661437,72858
1587118732662178,72858
1587118732664454,72858
1587118732665218,72858
1587118732665836,72858
1587118732667618,72858
1587118732669254,72858
1587118733170100,72828
1587118733171796,72828
1587118733172974,72828
1587118733173831,72828
1587118733174848,72828
1587118733175955,72828
1587118733178113,72828
1587118733178890,72828
1587118733180899,72828
1587118733182517,72828
1587118733183726,72828
1587118733184527,72828
1587118733186146,72828
1587118733687893,72765
1587118733697977,72765
1587118733698981,72765
1587118733700178,72765
1587118733701266,72765
1587118733702308,72765
1587118733703670,72765
1587118733704521,72765
1587118733705331,72765
1587118733706072,72765
1587118733706796,72765
1587118733708016,72765
1587118733708953,72765
1587118734212680,73557
1587118734214757,73557
1587118734215389,73557
1587118734218118,73557
1587118734219163,73557
1587118734220122,73557
1587118734221392,73557
1587118734223519,73557
1587118734224530,73557
1587118734226234,73557
1587118734227871,73557
1587118734236278,73557
1587118734238103,73557
1587118734739183,74909
1587118734739809,74909
1587118734744918,74909
1587118734745581,74909
1587118734746686,74909
1587118735765548,60
1587118736349116,37
1587118736589590,37
1587118736786172,37
1587118737033402,37
1587118737159853,37
1587118737195833,37
1587118737221053,37
1587118737751957,74909
1587118737752712,74909
1587118737753323,74909
1587118737753963,74909
1587118737754479,74909
1587118737756045,74909
1587118737756594,74909
1587118737757275,74909
1587118738263239,81338
1587118738264727,81338
1587118738265833,81338
1587118738267311,81338
1587118738268083,81338
1587118738268978,81338
1587118738270251,81338
1587118738271447,81338
1587118739274693,81338
1587118739275462,81338
1587118739277291,81338
1587118739278812,81338
1587118739279548,81338
1587118739781965,80761
1587118739785915,80761
1587118739786878,80761
1587118739787482,80761
1587118739787987,80761
1587118739788421,80761
1587118739789185,80761
1587118739789766,80761
1587118739793268,80761
1587118739794451,80761
1587118739796737,80761
1587118739797476,80761
1587118739798973,80761
1587118740300079,78912
1587118740301514,78912
1587118740302039,78912
1587118740302938,78912
1587118740305080,78912
1587118740306735,78912
1587118740307283,78912
1587118740308217,78912
1587118740309677,78912
1587118740310280,78912
1587118740311327,78912
1587118740312537,78912
1587118740314278,78912
1587118740821375,79556
1587118740822928,79556
1587118740823361,79556
1587118740823973,79556
1587118740824668,79556
1587118740836469,79556
1587118740837241,79556
1587118740841427,79556
1587118740843108,79556
1587118740843799,79556
1587118740846292,79556
1587118740847742,79556
1587118740848985,79556
1587118741350022,80019
1587118741350691,80019
1587118741351146,80019
1587118741362427,80019
1587118741365935,80019
1587118741367155,80019
1587118741369928,80019
1587118741370490,80019
1587118741371057,80019
1587118741372113,80019
1587118741373074,80019
1587118741373761,80019
1587118741375703,80019
1587118741876723,80192
1587118742879350,80192
1587118742880130,80192
1587118742880603,80192
1587118742881041,80192
1587118742881517,80192
1587118742882152,80192
1587118742882619,80192
1587118742883188,80192
1587118742883751,80192
1587118742884406,80192
1587118742884968,80192
1587118742886348,80192
1587118743387787,81585
1587118743388353,81585
1587118743388801,81585
1587118743390053,81585
1587118743390644,81585
1587118743392592,81585
1587118743395293,81585
1587118743396014,81585
1587118743396556,81585
1587118743397089,81585
1587118743398934,81585
1587118743399505,81585
1587118743401131,81585
1587118743902819,81284
1587118743903386,81284
1587118743904832,81284
1587118743905955,81284
1587118743910785,81284
1587118743911296,81284
1587118743911868,81284
1587118743913601,81284
1587118743914212,81284
1587118744917527,81284
1587118744918185,81284
1587118744918752,81284
1587118744919851,81284
1587118745422075,83514
1587118745422779,83514
1587118745423577,83514
1587118745424624,83514
1587118745426560,83514
1587118745428209,83514
1587118745429981,83514
1587118745431314,83514
1587118745432984,83514
1587118745433660,83514
1587118745435087,83514
1587118745437023,83514
1587118745439176,83514
1587118745940428,83050
1587118745941503,83050
1587118745942061,83050
1587118745946083,83050
1587118745946814,83050
1587118745947345,83050
1587118745947814,83050
1587118745948677,83050
1587118745950716,83050
1587118745952382,83050
1587118745952955,83050
1587118745954722,83050
1587118745956347,83050
1587118746459561,83536
1587118746460916,83536
1587118746461675,83536
1587118746462256,83536
1587118746463113,83536
1587118746463919,83536
1587118746468956,83536
1587118746474062,83536
1587118746475898,83536
1587118747479355,83536
1587118747480174,83536
1587118747480771,83536
1587118747481258,83536
1587118747982967,87283
1587118747986044,87283
1587118747988043,87283
1587118747991559,87283
1587118747993062,87283
1587118747995981,87283
1587118747996409,87283
1587118747999184,87283
1587118747999969,87283
1587118748004245,87283
1587118748008300,87283
1587118748010553,87283
1587118748012162,87283
1587118748513682,84755
1587118748515514,84755
1587118748519202,84755
1587118748520081,84755
1587118748522134,84755
1587118748522777,84755
1587118748523439,84755
1587118748524145,84755
1587118748524746,84755
1587118748525168,84755
1587118748530160,84755
1587118748530750,84755
1587118748531652,84755
1587118749033974,86033
1587118749035481,86033
1587118749037375,86033
1587118749038051,86033
1587118749042863,86033
1587118749043451,86033
1587118749045246,86033
1587118749045874,86033
1587118749046390,86033
1587118749047053,86033
1587118749049508,86033
1587118749050002,86033
1587118749050622,86033
1587118749259388,37
1587118749552507,86029
1587118750555696,86029
1587118750557832,86029
1587118750559207,86029
1587118750560510,86029
1587118750561716,86029
1587118750564199,86029
1587118750564820,86029
1587118750565842,86029
1587118750570620,86029
1587118750572459,86029
1587118751160299,37
1587118752682813,37
1587118753115292,61
1587118753378250,4
1587118753507010,60
1587118753579450,86029
1587118753580750,86029
1587118753782779,37
1587118754081996,93483
1587118754086533,93483
1587118754087921,93483
1587118754089056,93483
1587118754093845,93483
1587118754094542,93483
1587118754096629,93483
1587118754099109,93483
1587118754099642,93483
1587118754101283,93483
1587118754104414,93483
1587118754105090,93483
1587118754105812,93483
1587118754608352,89365
1587118754613100,89365
1587118754615079,89365
1587118754616515,89365
1587118754620321,89365
1587118754626338,89365
1587118754637498,89365
1587118754638087,89365
1587118754644310,89365
1587118754645961,89365
1587118754646707,89365
1587118755283617,89365
1587118755289049,89365
1587118755799708,89207
1587118755800460,89207
1587118755804819,89207
1587118755805380,89207
1587118755811020,89207
1587118755812898,89207
1587118755816443,89207
1587118756031428,89207
1587118756032946,89207
1587118756033726,89207
1587118756034919,89207
1587118756038633,89207
1587118756040039,89207
1587118756545747,90235
1587118756546893,90235
1587118756553472,90235
1587118756556692,90235
1587118756557793,90235
1587118756559039,90235
1587118756563394,90235
1587118756567189,90235
1587118756568021,90235
1587118756571159,90235
1587118756572385,90235
1587118756573890,90235
1587118756574473,90235
1587118757082012,89991
1587118757083525,89991
1587118757085104,89991
1587118757085618,89991
1587118757089539,89991
1587118757092044,89991
1587118757092620,89991
1587118757093181,89991
1587118757094795,89991
1587118757096709,89991
1587118757098657,89991
1587118757099540,89991
1587118757103319,89991
1587118757608543,90966
1587118757610459,90966
1587118757611406,90966
1587118757614408,90966
1587118757620583,90966
1587118757621152,90966
1587118757625950,90966
1587118757627229,90966
1587118757628127,90966
1587118757631558,90966
1587118757634996,90966
1587118757637006,90966
1587118757637919,90966
1587118758139378,91556
1587118758140657,91556
1587118758141448,91556
1587118758142181,91556
1587118758149933,91556
1587118758152356,91556
1587118758157848,91556
1587118758158696,91556
1587118758159657,91556
1587118758171572,91556
1587118758172524,91556
1587118758175601,91556
1587118758176020,91556
1587118758390216,61
1587118758545311,4
1587118758660201,61
1587118758677505,92077
1587118758680273,92077
1587118758681075,92077
1587118758681875,92077
1587118758682519,92077
1587118758687172,92077
1587118758692877,92077
1587118758694978,92077
1587118758696641,92077
1587118758697383,92077
1587118758698075,92077
1587118758698636,92077
1587118758700696,92077
1587118759206930,92235
1587118759222962,92235
1587118759228629,92235
1587118759229261,92235
1587118759232328,92235
1587118759235638,92235
1587118759238699,92235
1587118759257355,92235
1587118759258787,92235
1587118759472112,4
1587118760213043,4
1587118760259516,92235
1587118760265584,92235
1587118760266509,92235
1587118760267885,92235
1587118760421919,4
1587118760770941,95061
1587118760771692,95061
1587118760773417,95061
1587118760776386,95061
1587118760778460,95061
1587118760780563,95061
1587118760781395,95061
1587118760782219,95061
1587118760783898,95061
1587118760786134,95061
1587118760788459,95061
1587118760792608,95061
1587118760794488,95061
1587118760972809,62
1587118761276794,4
1587118761297197,93228
1587118761467298,37
1587118761886995,4
1587118762146991,4
1587118762251355,4
1587118763278437,61
1587118763905094,63
1587118764305100,93228
1587118764305659,93228
1587118764310917,93228
1587118764315361,93228
1587118764316565,93228
1587118764320180,93228
1587118764321719,93228
1587118764327145,93228
1587118764331238,93228
1587118764339141,93228
1587118764339713,93228
1587118764343462,93228
1587118764344451,4
1587118764566852,4
1587118764845353,100758
1587118764845954,100758
1587118764848647,100758
1587118764849237,100758
1587118764850033,100758
1587118764852359,100758
1587118764854817,100758
1587118764856817,100758
1587118764860475,100758
1587118764863382,100758
1587118764865758,100758
1587118764867891,100758
1587118764871792,100758
1587118764903111,37
1587118764980509,37
1587118765052874,37
1587118765149052,37
1587118765191789,37
1587118765192567,37
1587118765195086,37
1587118765238527,37
1587118765302632,37
1587118765340551,37
1587118765365558,64
1587118765375714,96726
1587118765376454,96726
1587118765379480,96726
1587118765380145,96726
1587118765387515,96726
1587118765389822,96726
1587118765391898,96726
1587118765392408,96726
1587118765393102,96726
1587118765395992,96726
1587118765397038,96726
1587118765397926,96726
1587118765398682,96726
1587118765902280,98572
1587118765903250,98572
1587118765904219,98572
1587118765909489,98572
1587118765913953,98572
1587118765917614,98572
1587118765921845,98572
1587118765924603,98572
1587118765926847,98572
1587118765929897,98572
1587118765930633,98572
1587118765931376,98572
1587118765934307,98572
1587118766437706,97706
1587118766442493,97706
1587118766446460,97706
1587118766448478,97706
1587118766449724,97706
1587118766453551,97706
1587118766459653,97706
1587118766464156,97706
1587118766465467,97706
1587118766468403,97706
1587118766469372,97706
1587118766470319,97706
1587118766471061,97706
1587118766973501,97969
1587118766977111,97969
1587118766978858,97969
1587118766979813,97969
1587118766980509,97969
1587118766987147,97969
1587118766991300,97969
1587118766993593,97969
1587118766994800,97969
1587118766995996,97969
1587118766998654,97969
1587118767001178,97969
1587118767002149,97969
1587118767505826,97857
1587118767506493,97857
1587118767507739,97857
1587118767508331,97857
1587118767512885,97857
1587118767515556,97857
1587118767522455,97857
1587118767524383,97857
1587118767526717,97857
1587118767535245,97857
1587118767536184,97857
1587118767538786,97857
1587118767540987,97857
1587118768044039,99194
1587118768047257,99194
1587118768048840,99194
1587118768052871,99194
1587118768056098,99194
1587118768057968,99194
1587118768061145,99194
1587118768064395,99194
1587118768066884,99194
1587118768068894,99194
1587118768070814,99194
1587118768076941,99194
1587118768080686,99194
1587118768584613,98550
1587118768585715,98550
1587118768589263,98550
1587118768591977,98550
1587118768595802,98550
1587118768599038,98550
1587118768601798,98550
1587118768603549,98550
1587118768608700,98550
1587118768609296,98550
1587118768611243,98550
1587118768611701,98550
1587118768613595,98550
1587118769118361,99337
1587118769120077,99337
1587118769121780,99337
1587118769122398,99337
1587118769132708,99337
1587118769135855,99337
1587118769137125,99337
1587118769142839,99337
1587118769145406,99337
1587118769147731,99337
1587118769148583,99337
1587118769154729,99337
1587118769157991,99337
1587118769663887,99419
1587118769666684,99419
1587118769668794,99419
1587118769671472,99419
1587118769672098,99419
1587118769672608,99419
1587118769678513,99419
1587118769681719,99419
1587118769683065,99419
1587118769684896,99419
1587118769689007,99419
1587118769691387,99419
1587118769698948,99419
1587118770201456,99868
1587118770202775,99868
1587118770204470,99868
1587118770210635,99868
1587118770211878,99868
1587118770214481,99868
1587118770215330,99868
1587118770217835,99868
1587118770220257,99868
1587118770223994,99868
1587118770228617,99868
1587118770231561,99868
1587118770232180,99868
1587118770733845,100575
1587118770735671,100575
1587118770737928,100575
1587118770738858,100575
1587118770739560,100575
1587118770743492,100575
1587118770746582,100575
1587118770748019,100575
1587118770748962,100575
1587118770750015,100575
1587118770750765,100575
1587118770752511,100575
1587118770965850,100575
1587118771468492,101772
1587118771471747,101772
1587118771472898,101772
1587118771474555,101772
1587118771476769,101772
1587118771478751,101772
1587118771480400,101772
1587118771482791,101772
1587118771484131,101772
1587118771486024,101772
1587118771486788,101772
1587118771488988,101772
1587118771489482,101772
1587118771898530,63
1587118771992466,101294
1587118771994747,101294
1587118771999376,101294
1587118772004469,101294
1587118772009226,101294
1587118772011127,101294
1587118772011738,101294
1587118772012470,101294
1587118772014654,101294
1587118772016870,101294
1587118772018111,101294
1587118772021390,101294
1587118772023646,101294
1587118772387163,37
1587118772525202,102240
1587118772528091,102240
1587118772528935,102240
1587118772529926,102240
1587118772533652,102240
1587118772536879,102240
1587118772541503,102240
1587118772542026,102240
1587118772544461,102240
1587118772546604,102240
1587118772548204,102240
1587118772552605,102240
1587118772553613,102240
1587118773054797,101563
1587118773057559,101563
1587118773058897,101563
1587118773059570,101563
1587118773061460,101563
1587118773067636,101563
1587118773069146,101563
1587118773071270,101563
1587118773072270,101563
1587118773074579,101563
1587118773075247,101563
1587118773078278,101563
1587118773078752,101563
1587118773424281,62
1587118773580347,102309
1587118773584171,102309
1587118773584947,102309
1587118773585655,102309
1587118773590892,102309
1587118773592254,102309
1587118773605415,102309
1587118773607324,102309
1587118773616957,102309
1587118773630231,102309
1587118773633131,102309
1587118773640668,102309
1587118773644758,102309
1587118774156527,102083
1587118774157140,102083
1587118774160566,102083
1587118774166087,102083
1587118774166795,102083
1587118774169080,102083
1587118774170509,102083
1587118774176630,102083
1587118774177252,102083
1587118774177951,102083
1587118774182627,102083
1587118774185010,102083
1587118774187853,102083
1587118774693120,103433
1587118774693672,103433
1587118774705577,103433
1587118774706997,103433
1587118774708348,103433
1587118774711352,103433
1587118774720285,103433
1587118774720846,103433
1587118774721331,103433
1587118774721873,103433
1587118774725761,103433
1587118775396143,61
1587118777732407,103433
1587118777733058,103433
1587118778234357,110241
1587118778238544,110241
1587118778239214,110241
1587118778244409,110241
1587118778247631,110241
1587118778259872,110241
1587118778262131,110241
1587118778263413,110241
1587118778265971,110241
1587118778266708,110241
1587118778268198,110241
1587118778268954,110241
1587118778270811,110241
1587118778779262,105457
1587118778782627,105457
1587118778785199,105457
1587118778786795,105457
1587118778791194,105457
1587118778797363,105457
1587118778805497,105457
1587118778807287,105457
1587118778807851,105457
1587118778810051,105457
1587118778811840,105457
1587118778815548,105457
1587118778817601,105457
1587118779320124,108348
1587118779322188,108348
1587118779324574,108348
1587118779326198,108348
1587118779330110,108348
1587118779332415,108348
1587118779334730,108348
1587118779335431,108348
1587118779336788,108348
1587118779337331,108348
1587118779342483,108348
1587118779343987,108348
1587118779348254,108348
1587118779853788,107017
1587118779855762,107017
1587118779864655,107017
1587118779866424,107017
1587118779869035,107017
1587118779870334,107017
1587118779871241,107017
1587118779872012,107017
1587118779872570,107017
1587118779877189,107017
1587118779877700,107017
1587118779880323,107017
1587118779881044,107017
1587118780386754,107899
1587118780388991,107899
1587118780394403,107899
1587118780397976,107899
1587118780401528,107899
1587118780404361,107899
1587118780405489,107899
1587118780406725,107899
1587118780410449,107899
1587118780413343,107899
1587118780415350,107899
1587118780417133,107899
1587118780418652,107899
1587118780923257,107706
1587118780925404,107706
1587118780926801,107706
1587118780930748,107706
1587118780932857,107706
1587118780933536,107706
1587118780935847,107706
1587118780937599,107706
1587118780941226,107706
1587118780942175,107706
1587118780949166,107706
1587118780953643,107706
1587118780957332,107706
1587118781467475,108309
1587118781472008,108309
1587118781474698,108309
1587118781477244,108309
1587118781479599,108309
1587118781482820,108309
1587118781487211,108309
1587118781491262,108309
1587118781492346,108309
1587118781495021,108309
1587118781499579,108309
1587118781500601,108309
1587118781502136,108309
1587118782008257,108864
1587118782009041,108864
1587118782014120,108864
1587118782017457,108864
1587118782018466,108864
1587118782025027,108864
1587118782031626,108864
1587118782037527,108864
1587118782041592,108864
1587118782044617,108864
1587118782047270,108864
1587118782058195,108864
1587118782275177,108864
1587118782781010,109196
1587118782788011,109196
1587118782790817,109196
1587118782792452,109196
1587118782795041,109196
1587118782796542,109196
1587118782798722,109196
1587118782800019,109196
1587118782802076,109196
1587118782805149,109196
1587118782807751,109196
1587118782810958,109196
1587118782812075,109196
1587118783314467,110244
1587118783344528,63
1587118784191039,63
1587118784318964,110244
1587118784320444,110244
1587118784321199,110244
1587118784322100,110244
1587118784322670,110244
1587118784326312,110244
1587118784332921,110244
1587118784335587,110244
1587118784340634,110244
1587118784343681,110244
1587118784345114,110244
1587118784346070,110244
1587118784850163,111990
1587118784851552,111990
1587118784854194,111990
1587118784854709,111990
1587118784858333,111990
1587118784861185,111990
1587118784862211,111990
1587118784863167,111990
1587118784868078,111990
1587118784871187,111990
1587118784873953,111990
1587118784875060,111990
1587118784885175,111990
1587118785388972,112363
1587118785392897,112363
1587118785394699,112363
1587118785395233,112363
1587118785400467,112363
1587118785402174,112363
1587118785406130,112363
1587118785406745,112363
1587118785411587,112363
1587118785413414,112363
1587118785416266,112363
1587118785419552,112363
1587118785420139,112363
1587118785923341,111666
1587118785926976,111666
1587118785928430,111666
1587118785930601,111666
1587118785935713,111666
1587118785939476,111666
1587118785941280,111666
1587118785944067,111666
1587118785946643,111666
1587118785947896,111666
1587118785950579,111666
1587118785954261,111666
1587118785957530,111666
1587118786460089,112390
1587118786463131,112390
1587118786463687,112390
1587118786471061,112390
1587118786473468,112390
1587118786476843,112390
1587118786477352,112390
1587118786477849,112390
1587118786482291,112390
1587118786482793,112390
1587118786487878,112390
1587118786490803,112390
1587118786493468,112390
1587118786996106,111701
1587118786997787,111701
1587118787000219,111701
1587118787001778,111701
1587118787003587,111701
1587118787008071,111701
1587118787009896,111701
1587118787013214,111701
1587118787015313,111701
1587118787016260,111701
1587118787019751,111701
1587118787020262,111701
1587118787028726,111701
1587118787532101,113231
1587118787532934,113231
1587118787535057,113231
1587118787541353,113231
1587118787544807,113231
1587118787548422,113231
1587118787549048,113231
1587118787551748,113231
1587118787553142,113231
1587118787554951,113231
1587118787557371,113231
1587118787560049,113231
1587118787560733,113231
1587118788062396,113230
1587118788067830,113230
1587118788070088,113230
1587118788070718,113230
1587118788072925,113230
1587118788075882,113230
1587118788077396,113230
1587118788083313,113230
1587118788088800,113230
1587118788090797,113230
1587118788093535,113230
1587118788098266,113230
1587118788102416,113230
1587118788608323,113504
1587118788610997,113504
1587118788611731,113504
1587118788614939,113504
1587118788618643,113504
1587118788621017,113504
1587118788630834,113504
1587118788632077,113504
1587118788632962,113504
1587118788635703,113504
1587118788637290,113504
1587118788639025,113504
1587118788640823,113504
1587118789144238,113736
1587118789149388,113736
1587118789150741,113736
1587118789153067,113736
1587118789154284,113736
1587118789154984,113736
1587118789157104,113736
1587118789158839,113736
1587118789159574,113736
1587118789160172,113736
1587118789162125,113736
1587118789163993,113736
1587118789166158,113736
1587118789671415,114689
1587118789672110,114689
1587118789674527,114689
1587118789679550,114689
1587118789680361,114689
1587118789682304,114689
1587118789685085,114689
1587118789689089,114689
1587118789692414,114689
1587118789693224,114689
1587118789693793,114689
1587118789694840,114689
1587118789695666,114689
1587118790203544,114569
1587118790204014,114569
1587118790208381,114569
1587118790215953,114569
1587118790222558,114569
1587118790225669,114569
1587118790233346,114569
1587118790237041,114569
1587118790237563,114569
1587118790242721,114569
1587118790243470,114569
1587118790246852,114569
1587118790247453,114569
1587118790750455,115599
1587118790751360,115599
1587118790754106,115599
1587118790759419,115599
1587118790759895,115599
1587118790764036,115599
1587118790766219,115599
1587118790770760,115599
1587118790775143,115599
1587118790777062,115599
1587118790780310,115599
1587118790784373,115599
1587118790787086,115599
1587118791296225,115417
1587118791303274,115417
1587118791306457,115417
1587118791307986,115417
1587118791311378,115417
1587118791313085,115417
1587118791315668,115417
1587118791317501,115417
1587118791319389,115417
1587118791320666,115417
1587118791323575,115417
1587118791334125,115417
1587118791338023,115417
1587118791839956,115346
1587118791840537,115346
1587118791847289,115346
1587118791852052,115346
1587118791856507,115346
1587118791860525,115346
1587118791861627,115346
1587118791862218,115346
1587118791868361,115346
1587118791875206,115346
1587118791877853,115346
1587118791878669,115346
1587118791882057,115346
1587118792388135,115786
1587118792389170,115786
1587118792389991,115786
1587118792394696,115786
1587118792395928,115786
1587118792399449,115786
1587118792402164,115786
1587118792407999,115786
1587118792416992,115786
1587118792420881,115786
1587118792424807,115786
1587118792425368,115786
1587118792426600,115786
1587118792930644,116144
1587118792931436,116144
1587118792934079,116144
1587118792936126,116144
1587118792937113,116144
1587118792942473,116144
1587118792944336,116144
1587118792946575,116144
1587118792947657,116144
1587118792949920,116144
1587118792954649,116144
1587118792956631,116144
1587118792960147,116144
1587118793461204,116533
1587118793465057,116533
1587118793466346,116533
1587118793467497,116533
1587118793469010,116533
1587118793471443,116533
1587118793472035,116533
1587118793472730,116533
1587118793473117,116533
1587118793477489,116533
1587118793479005,116533
1587118793480996,116533
1587118793482551,116533
1587118793987697,116487
1587118793988300,116487
1587118793993425,116487
1587118793996371,116487
1587118793997027,116487
1587118793998553,116487
1587118794000678,116487
1587118794001516,116487
1587118794006013,116487
1587118794010075,116487
1587118794016133,116487
1587118794021492,116487
1587118794023456,116487
1587118794368516,62
1587118794690328,63
1587118796542268,61
1587118796554062,61
1587118797533714,117150
1587118797534770,117150
1587118797536527,117150
1587118797538241,117150
1587118797545201,117150
1587118797551766,117150
1587118797553517,117150
1587118797554433,117150
1587118797557190,117150
1587118797559029,117150
1587118797562127,117150
1587118797566223,117150
1587118797572733,117150
1587118797910623,59
1587118798078211,123577
1587118798078820,123577
1587118798081958,123577
1587118798082593,123577
1587118798085989,123577
1587118798086898,123577
1587118798087561,123577
1587118798089525,123577
1587118798095289,123577
1587118798099086,123577
1587118798102204,123577
1587118798104364,123577
1587118798107440,123577
1587118798610752,119846
1587118798612944,119846
1587118798613795,119846
1587118798616827,119846
1587118798617378,119846
1587118798619920,119846
1587118798620623,119846
1587118798625501,119846
1587118798626756,119846
1587118798633611,119846
1587118798636434,119846
1587118798637491,119846
1587118798639018,119846
1587118798842996,63
1587118799141318,120326
1587118799142703,120326
1587118799150210,120326
1587118799153242,120326
1587118799155731,120326
1587118799158061,120326
1587118799159725,120326
1587118799438632,62
1587118804965245,62
1587118806172045,120326
1587118806175100,120326
1587118806177002,120326
1587118806177589,120326
1587118806181876,120326
1587118806183087,120326
1587118806687110,130414
1587118806690409,130414
1587118806691796,130414
1587118806693813,130414
1587118806697890,130414
1587118806701556,130414
1587118806703637,130414
1587118806705234,130414
1587118806713476,130414
1587118806714171,130414
1587118806716580,130414
1587118806725985,130414
1587118806729291,130414
