1587118621792440,30
1587118622238230,23
1587118623694473,29
1587118623705634,23
1587118623705852,29
1587118623708071,29
1587118623711663,29
1587118623714389,29
1587118623717178,29
1587118623731811,29
1587118624142957,23
1587118624315297,800
1587118624328466,800
1587118624350139,800
1587118624351010,800
1587118624351463,800
1587118624356379,800
1587118624359009,800
1587118624359484,800
1587118624360888,800
1587118624363182,800
1587118624363775,800
1587118624377251,800
1587118624880880,1212
1587118624881469,1212
1587118624882911,1212
1587118624884720,1212
1587118624888322,1212
1587118624889924,1212
1587118624892121,1212
1587118624896067,1212
1587118624896550,1212
1587118624897269,1212
1587118624897878,1212
1587118624898723,1212
1587118624899314,1212
1587118625429967,2866
1587118625430510,2866
1587118625435570,2866
1587118625436298,2866
1587118625437072,2866
1587118625437540,2866
1587118625437899,2866
1587118625438265,2866
1587118625438624,2866
1587118625439007,2866
1587118625444810,2866
1587118625445499,2866
1587118625448312,2866
1587118625952874,2289
1587118625953815,2289
1587118625963983,2289
1587118625964673,2289
1587118625965064,2289
1587118625968192,2289
1587118625968539,2289
1587118625970566,2289
1587118625970917,2289
1587118625971467,2289
1587118625971897,2289
1587118625985635,2289
1587118625988566,2289
1587118626490478,2691
1587118626492669,2691
1587118626493104,2691
1587118626494122,2691
1587118626495197,2691
1587118626495550,2691
1587118626496222,2691
1587118626501272,2691
1587118626503947,2691
1587118626508699,2691
1587118626527108,2691
1587118626545402,2691
1587118626548894,2691
1587118627063092,2305
1587118627071373,2305
1587118627088283,2305
1587118627095520,2305
1587118627116181,2305
1587118627132627,2305
1587118627143119,2305
1587118627150221,2305
1587118627156512,2305
1587118627159948,2305
1587118627164744,2305
1587118627166770,2305
1587118627167898,2305
1587118627337939,407
1587118627574655,408
1587118627674950,2431
1587118627682045,2431
1587118627687254,2431
1587118627695095,2431
1587118627702378,2431
1587118627728562,2431
1587118627741054,2431
1587118627748753,2431
1587118627755999,2431
1587118627765134,2431
1587118627769486,2431
1587118627774169,2431
1587118627784301,2431
1587118628296871,2313
1587118628299171,2313
1587118628305506,2313
1587118628311578,2313
1587118628319436,2313
1587118628325661,2313
1587118628333841,2313
1587118628348990,2313
1587118628356434,2313
1587118628368625,2313
1587118628370314,2313
1587118628377187,2313
1587118628380236,2313
1587118628887575,3695
1587118628892241,3695
1587118628897929,3695
1587118628903904,3695
1587118628908292,3695
1587118628913264,3695
1587118628918831,3695
1587118628925939,3695
1587118628931439,3695
1587118628937925,3695
1587118628943001,3695
1587118628948907,3695
1587118628962694,3695
1587118629434786,409
1587118629482691,3451
1587118629490451,3451
1587118629493986,3451
1587118629507662,3451
1587118629520485,3451
1587118629528151,3451
1587118629534089,3451
1587118629539724,3451
1587118629550330,3451
1587118629555547,3451
1587118629563684,3451
1587118629572624,3451
1587118629579243,3451
1587118630081478,3589
1587118630082724,3589
1587118630088425,3589
1587118630125982,3589
1587118630142475,3589
1587118630150030,3589
1587118630162607,3589
1587118630175940,3589
1587118630185442,3589
1587118630196055,3589
1587118630212313,3589
1587118630217640,3589
1587118630221863,3589
1587118630323528,411
1587118630355388,407
1587118630755734,3881
1587118630773728,3881
1587118630783563,3881
1587118630791358,3881
1587118630803909,3881
1587118630825067,3881
1587118630834553,3881
1587118630841433,3881
1587118630849444,3881
1587118630858146,3881
1587118630878257,3881
1587118630887419,3881
1587118630899736,3881
1587118631400696,3749
1587118631422624,3749
1587118631430458,3749
1587118631434362,3749
1587118631441387,3749
1587118631448593,3749
1587118631456265,3749
1587118631466967,3749
1587118631501614,3749
1587118631504859,3749
1587118631512461,3749
1587118631522706,3749
1587118631529701,3749
1587118632077450,4123
1587118632084415,4123
1587118632092050,4123
1587118632094886,4123
1587118632101208,4123
1587118632108533,4123
1587118632113839,4123
1587118632116393,4123
1587118632118360,4123
1587118632119779,4123
1587118632120906,4123
1587118632127648,4123
1587118632128436,4123
1587118632636174,4505
1587118632643935,4505
1587118632646017,4505
1587118632647122,4505
1587118632653463,4505
1587118632654272,4505
1587118632655180,4505
1587118632657800,4505
1587118632660795,4505
1587118632662782,4505
1587118632666549,4505
1587118632667385,4505
1587118632668003,4505
1587118633169482,4119
1587118633170347,4119
1587118633171206,4119
1587118633172053,4119
1587118633172758,4119
1587118633173424,4119
1587118633183049,4119
1587118633185887,4119
1587118633186754,4119
1587118633187895,4119
1587118633189147,4119
1587118633191980,4119
1587118633195422,4119
1587118633347870,411
1587118633697613,4987
1587118633698328,4987
1587118633700845,4987
1587118633701367,4987
1587118633702254,4987
1587118633702904,4987
1587118633703592,4987
1587118633704220,4987
1587118633704941,4987
1587118633705664,4987
1587118633706390,4987
1587118633707125,4987
1587118633710128,4987
1587118633819772,411
1587118633921805,408
1587118634081867,426
1587118634224484,4392
1587118634226130,4392
1587118634226781,4392
1587118634227488,4392
1587118634228272,4392
1587118634229950,4392
1587118634231566,4392
1587118634232320,4392
1587118634232992,4392
1587118634278826,4392
1587118634282783,4392
1587118634283888,4392
1587118634284247,4392
1587118634789835,4763
1587118634790404,4763
1587118634790693,4763
1587118634792398,4763
1587118634793227,4763
1587118634793702,4763
1587118634794379,4763
1587118634808475,4763
1587118634810034,4763
1587118634813650,4763
1587118634814656,4763
1587118634817067,4763
1587118634818908,4763
1587118635327802,4615
1587118635328799,4615
1587118635334840,4615
1587118635335609,4615
1587118635339767,4615
1587118635340572,4615
1587118635341259,4615
1587118635345257,4615
1587118635346330,4615
1587118635347612,4615
1587118635348278,4615
1587118635349919,4615
1587118635350592,4615
1587118635851886,5015
1587118635852631,5015
1587118635853150,5015
1587118635854020,5015
1587118635871904,5015
1587118635872709,5015
1587118635873380,5015
1587118635879233,5015
1587118635880074,5015
1587118635881003,5015
1587118635881673,5015
1587118635882144,5015
1587118635882803,5015
1587118636393734,4912
1587118636394966,4912
1587118636395644,4912
1587118636396243,4912
1587118636397207,4912
1587118636397835,4912
1587118636398661,4912
1587118636401533,4912
1587118636402399,4912
1587118636403115,4912
1587118636403895,4912
1587118636404387,4912
1587118636404827,4912
1587118636906475,5433
1587118636907145,5433
1587118636907832,5433
1587118636909971,5433
1587118636910921,5433
1587118636912015,5433
1587118636913014,5433
1587118636914028,5433
1587118636915202,5433
1587118636916147,5433
1587118636916932,5433
1587118636917792,5433
1587118636920238,5433
1587118637429481,5483
1587118637430388,5483
1587118637431345,5483
1587118637432002,5483
1587118637434066,5483
1587118637434746,5483
1587118637435486,5483
1587118637436541,5483
1587118637437082,5483
1587118637440807,5483
1587118637441508,5483
1587118637452356,5483
1587118637453382,5483
1587118637956573,5558
1587118637957378,5558
1587118637959928,5558
1587118637960801,5558
1587118637961539,5558
1587118637963755,5558
1587118637965212,5558
1587118637966149,5558
1587118637966979,5558
1587118637967617,5558
1587118637968266,5558
1587118637968934,5558
1587118637969669,5558
1587118638218576,409
1587118638473784,5500
1587118638474597,5500
1587118638475409,5500
1587118638475994,5500
1587118638476673,5500
1587118638477313,5500
1587118638477957,5500
1587118638479812,5500
1587118638480370,5500
1587118638480949,5500
1587118638481690,5500
1587118638482528,5500
1587118638483098,5500
1587118639002093,9633
1587118639007237,9633
1587118639010129,9633
1587118639011773,9633
1587118639018995,9633
1587118639030442,9633
1587118639031365,9633
1587118639032038,9633
1587118639043587,9633
1587118639044445,9633
1587118639045931,9633
1587118639057600,9633
1587118639058433,9633
1587118639561332,7274
1587118639562300,7274
1587118639563061,7274
1587118639563934,7274
1587118639564770,7274
1587118639568902,7274
1587118639569807,7274
1587118639572894,7274
1587118639575122,7274
1587118639575861,7274
1587118639576821,7274
1587118639577345,7274
1587118639578001,7274
1587118640081282,8511
1587118640082001,8511
1587118640082555,8511
1587118640083552,8511
1587118640083871,8511
1587118640084578,8511
1587118640088069,8511
1587118640089266,8511
1587118640091795,8511
1587118640094600,8511
1587118640096493,8511
1587118640099116,8511
1587118640100880,8511
1587118640610198,8018
1587118640610778,8018
1587118640612311,8018
1587118640612847,8018
1587118640613100,8018
1587118640613858,8018
1587118641424330,411
1587118641615657,8018
1587118641616346,8018
1587118641616822,8018
1587118641617281,8018
1587118641617768,8018
1587118641618211,8018
1587118641618637,8018
1587118642119762,8470
1587118642120236,8470
1587118642120808,8470
1587118642121369,8470
1587118642121912,8470
1587118642124701,8470
1587118642126165,8470
1587118642128060,8470
1587118642129078,8470
1587118642129570,8470
1587118642129981,8470
1587118642130456,8470
1587118642130844,8470
1587118642632017,9563
1587118642633063,9563
1587118642633501,9563
1587118642633907,9563
1587118642634392,9563
1587118642634868,9563
1587118642636427,9563
1587118642637226,9563
1587118642638758,9563
1587118642639296,9563
1587118642641231,9563
1587118642644894,9563
1587118642647581,9563
1587118643151449,9104
1587118643152946,9104
1587118643154325,9104
1587118643155044,9104
1587118643155597,9104
1587118643156151,9104
1587118643156652,9104
1587118643158179,9104
1587118643158749,9104
1587118643159343,9104
1587118643159786,9104
1587118643160347,9104
1587118643164857,9104
1587118643665915,11064
1587118643666954,11064
1587118643667288,11064
1587118643667792,11064
1587118643668917,11064
1587118643669504,11064
1587118643670469,11064
1587118643671675,11064
1587118643672613,11064
1587118643673057,11064
1587118643675050,11064
1587118643677047,11064
1587118643679980,11064
1587118644181037,12707
1587118644181524,12707
1587118644181960,12707
1587118644182444,12707
1587118644182911,12707
1587118644183378,12707
1587118644183830,12707
1587118644184292,12707
1587118644184756,12707
1587118644185859,12707
1587118644186329,12707
1587118644186750,12707
1587118644189429,12707
1587118644777820,60
1587118644782330,62
1587118644783265,62
1587118644785454,60
1587118644787583,61
1587118644789963,61
1587118644791108,62
1587118644816730,61
1587118644841749,61
1587118644852660,61
1587118644865549,63
1587118644868883,62
1587118644890468,63
1587118644896266,61
1587118644898013,63
1587118644899706,62
1587118644901687,62
1587118644902747,62
1587118644914274,61
1587118645691806,12453
1587118645692628,12453
1587118645693417,12453
1587118645693964,12453
1587118645694668,12453
1587118645695215,12453
1587118645696054,12453
1587118645696567,12453
1587118645697033,12453
1587118645697595,12453
1587118645698059,12453
1587118645700546,12453
1587118645701127,12453
1587118646212702,15573
1587118646213759,15573
1587118646214280,15573
1587118646219356,15573
1587118646222301,15573
1587118646222834,15573
1587118646223394,15573
1587118646226969,15573
1587118646227531,15573
1587118646229050,15573
1587118646229957,15573
1587118646230479,15573
1587118646231379,15573
1587118646740279,13025
1587118646741773,13025
1587118646744917,13025
1587118646745901,13025
1587118646746511,13025
1587118646747964,13025
1587118646751149,13025
1587118646755447,13025
1587118646766637,13025
1587118646778489,13025
1587118647736715,412
1587118649790340,13025
1587118649791064,13025
1587118649795578,13025
1587118650304242,16994
1587118650304716,16994
1587118650315438,16994
1587118650316544,16994
1587118650324072,16994
1587118650325092,16994
1587118650331941,16994
1587118650333101,16994
1587118650334478,16994
1587118650348965,16994
1587118650349778,16994
1587118650351523,16994
1587118650355124,16994
1587118650861444,14733
1587118650862190,14733
1587118650862824,14733
1587118650863681,14733
1587118650864354,14733
1587118650875424,14733
1587118650877396,14733
1587118650878040,14733
1587118650878720,14733
1587118650880176,14733
1587118650880849,14733
1587118650893479,14733
1587118650895804,14733
1587118651399770,14587
1587118651411018,14587
1587118651412517,14587
1587118651413228,14587
1587118651428454,14587
1587118651428978,14587
1587118651430763,14587
1587118651431015,14587
1587118651431645,14587
1587118651432301,14587
1587118651432914,14587
1587118651444443,14587
1587118651445571,14587
1587118651950827,14711
1587118652965393,14711
1587118652974090,14711
1587118652974817,14711
1587118652986149,14711
1587118652999251,14711
1587118653013981,14711
1587118653026735,14711
1587118653031361,14711
1587118653032086,14711
1587118653033111,14711
1587118653033412,14711
1587118653034875,14711
1587118653546445,15795
1587118653558122,15795
1587118653559091,15795
1587118653571465,15795
1587118653572266,15795
1587118653573047,15795
1587118653574344,15795
1587118653574613,15795
1587118653594493,15795
1587118653595585,15795
1587118653606480,15795
1587118653609811,15795
1587118653610477,15795
1587118654119044,15297
1587118654120722,15297
1587118654121433,15297
1587118654121752,15297
1587118654123700,15297
1587118654125908,15297
1587118654126554,15297
1587118654127451,15297
1587118654136938,15297
1587118654137506,15297
1587118654148499,15297
1587118654149470,15297
1587118654160519,15297
1587118654667598,15210
1587118654678643,15210
1587118654680496,15210
1587118654691599,15210
1587118654692837,15210
1587118654693114,15210
1587118654705509,15210
1587118654706421,15210
1587118654708460,15210
1587118654709793,15210
1587118654710436,15210
1587118654711282,15210
1587118654722436,15210
1587118654923672,63
1587118655241594,15711
1587118655242766,15711
1587118655243935,15711
1587118655244372,15711
1587118655244900,15711
1587118655246469,15711
1587118655258019,15711
1587118655259590,15711
1587118655260555,15711
1587118655273401,15711
1587118655274503,15711
1587118655275244,15711
1587118655276306,15711
1587118656789088,15720
1587118656791019,15720
1587118656792396,15720
1587118656794281,15720
1587118656807374,15720
1587118656812706,15720
1587118656813469,15720
1587118656814273,15720
1587118656815350,15720
1587118656816755,15720
1587118656817514,15720
1587118656819631,15720
1587118656820433,15720
1587118657338855,17339
1587118657341196,17339
1587118657342242,17339
1587118657344129,17339
1587118657346451,17339
1587118657358472,17339
1587118657370749,17339
1587118657371617,17339
1587118657372119,17339
1587118657372740,17339
1587118657373730,17339
1587118657374656,17339
1587118657375557,17339
1587118657468089,37
1587118657475015,63
1587118657887403,21717
1587118657888851,21717
1587118657900648,21717
1587118657902718,21717
1587118657923094,21717
1587118657936812,21717
1587118657937615,21717
1587118657938644,21717
1587118657940053,21717
1587118657944147,21717
1587118657944916,21717
1587118657946702,21717
1587118657947123,21717
1587118658163272,61
1587118658272334,60
1587118658336174,62
1587118658362444,60
1587118658386670,63
1587118658416748,61
1587118658442983,63
1587118658466799,19793
1587118658467439,19793
1587118658468600,19793
1587118658469690,19793
1587118658471792,19793
1587118658472516,19793
1587118658473300,19793
1587118658473973,19793
1587118658485413,19793
1587118658487232,19793
1587118658487939,19793
1587118658499870,19793
1587118658503554,19793
1587118658538315,61
1587118658685203,63
1587118658693379,60
1587118658694998,60
1587118658696122,63
1587118658699974,60
1587118658701180,61
1587118658703302,60
1587118658705276,62
1587118658707902,61
1587118658709410,60
1587118658722013,62
1587118658724233,62
1587118658725431,61
1587118658727626,62
1587118658728909,61
1587118658741656,61
1587118658776275,61
1587118658782246,62
1587118658783280,60
1587118658798411,62
1587118658802046,62
1587118658807530,62
1587118658810277,61
1587118658811380,60
1587118658812420,62
1587118658814109,62
1587118658982254,62
1587118659019111,19642
1587118659020404,19642
1587118659021472,19642
1587118659022517,19642
1587118659023464,19642
1587118659024464,19642
1587118659025450,19642
1587118659026418,19642
1587118659034457,19642
1587118659037102,19642
1587118659040945,19642
1587118659041606,19642
1587118659044846,19642
1587118659064699,60
1587118659069167,61
1587118659070974,61
1587118659163344,60
1587118659449381,37
1587118659480562,37
1587118659557124,19322
1587118659558307,19322
1587118659559944,19322
1587118659561825,19322
1587118659563036,19322
1587118660572317,19322
1587118660573979,19322
1587118660575003,19322
1587118660576838,19322
1587118660577298,19322
1587118660578927,19322
1587118660579756,19322
1587118660588724,19322
1587118661089933,22486
1587118661090458,22486
1587118661091870,22486
1587118661092290,22486
1587118661092658,22486
1587118661093668,22486
1587118661094462,22486
1587118661094905,22486
1587118661095463,22486
1587118661095892,22486
1587118661096378,22486
1587118661097400,22486
1587118661098554,22486
1587118661607357,21450
1587118661608265,21450
1587118661608705,21450
1587118661609307,21450
1587118662611792,21450
1587118662612534,21450
1587118662613522,21450
1587118662625838,21450
1587118662633667,21450
1587118662634306,21450
1587118662634697,21450
1587118662635338,21450
1587118662635802,21450
1587118663136836,24260
1587118663142786,24260
1587118663144108,24260
1587118664151452,24260
1587118664154334,24260
1587118664155253,24260
1587118664156028,24260
1587118664156779,24260
1587118664157470,24260
1587118664158111,24260
1587118664158868,24260
1587118664161065,24260
1587118664161977,24260
1587118664174408,37
1587118664668274,23559
1587118664668834,23559
1587118664669836,23559
1587118664670653,23559
1587118665680441,23559
1587118665681241,23559
1587118665681723,23559
1587118665682124,23559
1587118665683247,23559
1587118665684299,23559
1587118665695483,23559
1587118665706442,23559
1587118665709841,23559
1587118666218005,25523
1587118666229427,25523
1587118666230804,25523
1587118666231832,25523
1587118666242459,25523
1587118666243267,25523
1587118666243776,25523
1587118666244766,25523
1587118666255453,25523
1587118666256232,25523
1587118666256807,25523
1587118666267892,25523
1587118666269463,25523
1587118666747406,37
1587118666773473,24618
1587118666773948,24618
1587118666775043,24618
1587118666775569,24618
1587118666775860,24618
1587118666776975,24618
1587118666778736,24618
1587118666790763,24618
1587118666802728,24618
1587118666803950,24618
1587118666810668,24618
1587118666811485,24618
1587118666812356,24618
1587118666912380,37
1587118667297357,61
1587118667314283,24338
1587118667326415,24338
1587118667327027,24338
1587118667327457,24338
1587118667327965,24338
1587118667328769,24338
1587118667329593,24338
1587118667330543,24338
1587118667348234,24338
1587118667348906,24338
1587118667356504,24338
1587118667357110,24338
1587118667358052,24338
1587118667859452,25215
1587118667860266,25215
1587118667860808,25215
1587118667861290,25215
1587118667861798,25215
1587118667862284,25215
1587118667862734,25215
1587118667863196,25215
1587118667863768,25215
1587118667864210,25215
1587118667864651,25215
1587118667865124,25215
1587118667865564,25215
1587118668377183,25515
1587118668377983,25515
1587118668378744,25515
1587118668379227,25515
1587118668379897,25515
1587118668380552,25515
1587118668381336,25515
1587118668382380,25515
1587118668383178,25515
1587118668383775,25515
1587118668384515,25515
1587118668385591,25515
1587118668386208,25515
1587118668892231,27273
1587118668893517,27273
1587118668894509,27273
1587118668895114,27273
1587118668906423,27273
1587118668907028,27273
1587118668908150,27273
1587118668919566,27273
1587118668920697,27273
1587118668921549,27273
1587118668932525,27273
1587118668934081,27273
1587118668934503,27273
1587118669439488,25992
1587118669440244,25992
1587118669440798,25992
1587118669451445,25992
1587118669462451,25992
1587118669464668,25992
1587118669475416,25992
1587118669476348,25992
1587118669479000,25992
1587118669479627,25992
1587118669480414,25992
1587118669491676,25992
1587118669492369,25992
1587118669510591,4
1587118670001302,27113
1587118670001841,27113
1587118670012443,27113
1587118670023543,27113
1587118670027450,27113
1587118670028356,27113
1587118670039553,27113
1587118670040881,27113
1587118670051876,27113
1587118670063532,27113
1587118670065308,27113
1587118670066115,27113
1587118670067064,27113
1587118670585760,26837
1587118670586440,26837
1587118670586975,26837
1587118670587955,26837
1587118670589014,26837
1587118670599513,26837
1587118670600731,26837
1587118670601566,26837
1587118670602301,26837
1587118670602997,26837
1587118670603762,26837
1587118670604491,26837
1587118670604940,26837
1587118671107113,26752
1587118671108082,26752
1587118671108624,26752
1587118671120823,26752
1587118671121995,26752
1587118671133001,26752
1587118671134123,26752
1587118671134737,26752
1587118671145424,26752
1587118671148135,26752
1587118671148900,26752
1587118671151244,26752
1587118671152243,26752
1587118671322593,63
1587118671664449,26941
1587118671665608,26941
1587118671666274,26941
1587118671667336,26941
1587118671678504,26941
1587118671689580,26941
1587118671692569,26941
1587118671696237,26941
1587118671697227,26941
1587118671697997,26941
1587118671698808,26941
1587118671700096,26941
1587118671700882,26941
1587118672207096,29859
1587118672208424,29859
1587118672208984,29859
1587118672210037,29859
1587118672221411,29859
1587118672222288,29859
1587118672222777,29859
1587118672224608,29859
1587118672225312,29859
1587118672225833,29859
1587118672236523,29859
1587118672237860,29859
1587118672238826,29859
1587118672739823,29413
1587118672740452,29413
1587118672741382,29413
1587118672741894,29413
1587118672742225,29413
1587118672743210,29413
1587118672744239,29413
1587118672744692,29413
1587118672745632,29413
1587118672756708,29413
1587118672757505,29413
1587118672758045,29413
1587118672759393,29413
1587118673086843,62
1587118673260796,29131
1587118673308862,4
1587118673460921,4
1587118673951643,4
1587118674203126,4
1587118674911504,4
1587118675429742,37
1587118676270553,29131
1587118676271432,29131
1587118676272166,29131
1587118676272869,29131
1587118676274444,29131
1587118676275238,29131
1587118676276228,29131
1587118676276586,29131
1587118676287482,29131
1587118676299102,29131
1587118676327716,29131
1587118676329655,29131
1587118676833433,36370
1587118676834592,36370
1587118676835410,36370
1587118676836134,36370
1587118676837619,36370
1587118676838475,36370
1587118676839200,36370
1587118676840488,36370
1587118676841170,36370
1587118676865840,36370
1587118676878473,36370
1587118677883834,36370
1587118677895505,36370
1587118678400272,35370
1587118678400681,35370
1587118678401020,35370
1587118678403779,35370
1587118678414474,35370
1587118678415387,35370
1587118678415955,35370
1587118678416362,35370
1587118678417229,35370
1587118678417839,35370
1587118678419078,35370
1587118678419773,35370
1587118678420098,35370
1587118678929071,34293
1587118678930110,34293
1587118678942440,34293
1587118678946862,34293
1587118678947234,34293
1587118678948011,34293
1587118678948459,34293
1587118678949420,34293
1587118678950182,34293
1587118678952264,34293
1587118678952788,34293
1587118678953121,34293
1587118678953808,34293
1587118679460148,33703
1587118679461201,33703
1587118679462353,33703
1587118679689647,37
1587118680474505,33703
1587118680478372,33703
1587118680479000,33703
1587118680479779,33703
1587118680481115,33703
1587118680482208,33703
1587118680494302,33703
1587118680505887,33703
1587118680506635,33703
1587118680507242,33703
1587118681019656,35417
1587118681020354,35417
1587118681020911,35417
1587118681021279,35417
1587118682023759,35417
1587118682024561,35417
1587118682025948,35417
1587118682026874,35417
1587118682027847,35417
1587118682038445,35417
1587118682039132,35417
1587118682050445,35417
1587118682051172,35417
1587118682251910,37
1587118682556405,35736
1587118682556982,35736
1587118682557583,35736
1587118682558531,35736
1587118682559349,35736
1587118682560484,35736
1587118682571475,35736
1587118682582464,35736
1587118682583035,35736
1587118682583602,35736
1587118682584784,35736
1587118682585354,35736
1587118682585784,35736
1587118683095409,36021
1587118683096661,36021
1587118683097494,36021
1587118683098175,36021
1587118683109601,36021
1587118683110361,36021
1587118683111039,36021
1587118683111659,36021
1587118683112756,36021
1587118683113747,36021
1587118683124431,36021
1587118683135485,36021
1587118683136326,36021
1587118683638498,36107
1587118683639734,36107
1587118683640344,36107
1587118683641632,36107
1587118683652559,36107
1587118683662352,36107
1587118683673478,36107
1587118683674133,36107
1587118683674652,36107
1587118683675246,36107
1587118683675960,36107
1587118683677276,36107
1587118683677688,36107
1587118683903205,60
1587118684186244,35514
1587118684188315,35514
1587118684189009,35514
1587118684189642,35514
1587118684190175,35514
1587118684875097,4
1587118686464193,62
1587118687583684,60
1587118689886628,37
1587118699220026,35514
1587118699220669,35514
1587118699221207,35514
1587118699221715,35514
1587118699233106,35514
1587118699237840,35514
1587118699238367,35514
1587118699238619,35514
1587118699745308,50640
1587118699746955,50640
1587118699749374,50640
1587118699750706,50640
1587118699751748,50640
1587118699753191,50640
1587118699764522,50640
1587118699777983,50640
1587118699789562,50640
1587118699792247,50640
1587118699793026,50640
1587118699793978,50640
1587118699794865,50640
1587118700295875,44654
1587118700296763,44654
1587118700297639,44654
1587118700298786,44654
1587118700299623,44654
1587118700310433,44654
1587118700311231,44654
1587118700311846,44654
1587118700312450,44654
1587118700313984,44654
1587118700314940,44654
1587118700319417,44654
1587118700320611,44654
1587118700824653,45953
1587118700825599,45953
1587118700832597,45953
1587118701838432,45953
1587118701840867,45953
1587118701841725,45953
1587118701852559,45953
1587118701853356,45953
1587118701856402,45953
1587118701857613,45953
1587118701877624,45953
1587118701879750,45953
1587118701880610,45953
1587118702399463,49776
1587118702400564,49776
1587118702401539,49776
1587118702412422,49776
1587118702418418,49776
1587118702420244,49776
1587118702421022,49776
1587118702421770,49776
1587118702422602,49776
1587118702425452,49776
1587118702426124,49776
1587118702427874,49776
1587118702429098,49776
1587118702930640,47972
1587118702931724,47972
1587118702933117,47972
1587118702934950,47972
1587118702936637,47972
1587118702951253,47972
1587118702953298,47972
1587118702955039,47972
1587118702956381,47972
1587118702957073,47972
1587118702957877,47972
1587118702958729,47972
1587118702960150,47972
1587118703470448,49608
1587118703473545,49608
1587118703476765,49608
1587118703478496,49608
1587118703479729,49608
1587118703480915,49608
1587118703481761,49608
1587118703482382,49608
1587118703483130,49608
1587118703494072,49608
1587118703497335,49608
1587118703499625,49608
1587118703501476,49608
1587118704006532,49910
1587118704007880,49910
1587118704011393,49910
1587118704024898,49910
1587118704026011,49910
1587118704026881,49910
1587118704038725,49910
1587118704040542,49910
1587118704041309,49910
1587118704042785,49910
1587118704044118,49910
1587118704045578,49910
1587118704047309,49910
1587118704073354,60
1587118704577621,49083
1587118704580291,49083
1587118704581021,49083
1587118704581369,49083
1587118704582952,49083
1587118704584425,49083
1587118704586211,49083
1587118704587906,49083
1587118704589213,49083
1587118704602591,49083
1587118704605237,49083
1587118704617917,49083
1587118704620010,49083
1587118704755922,61
1587118704928409,4
1587118705147354,52466
1587118705150560,52466
1587118705154759,52466
1587118705157126,52466
1587118705160222,52466
1587118705161443,52466
1587118705176000,52466
1587118705178407,52466
1587118705179692,52466
1587118705182012,52466
1587118705182709,52466
1587118705183790,52466
1587118705192132,52466
1587118705704835,53301
1587118705709950,53301
1587118705711381,53301
1587118705725217,53301
1587118705727300,53301
1587118705730876,53301
1587118705733823,53301
1587118705735107,53301
1587118705737500,53301
1587118705739104,53301
1587118705740730,53301
1587118705742758,53301
1587118705743672,53301
1587118706252143,53478
1587118706253138,53478
1587118706255537,53478
1587118706262390,53478
1587118706264069,53478
1587118706265439,53478
1587118706268649,53478
1587118706285267,53478
1587118706286830,53478
1587118706287991,53478
1587118706289252,53478
1587118706290089,53478
1587118706302543,53478
1587118706498524,61
1587118706537755,37
1587118706699621,60
1587118706813662,55016
1587118706815464,55016
1587118706816319,55016
1587118706827422,55016
1587118706829516,55016
1587118706830759,55016
1587118706832174,55016
1587118706833088,55016
1587118706834085,55016
1587118706835392,55016
1587118706837121,55016
1587118706838778,55016
1587118706839798,55016
1587118707219968,37
1587118707352811,53752
1587118707366146,53752
1587118707368312,53752
1587118707369515,53752
1587118707370289,53752
1587118707372633,53752
1587118707373393,53752
1587118707375401,53752
1587118707388077,53752
1587118707390812,53752
1587118707392223,53752
1587118707397649,53752
1587118707399148,53752
1587118707908351,53615
1587118707919459,53615
1587118707931424,53615
1587118707932138,53615
1587118707933017,53615
1587118707934452,53615
1587118707935110,53615
1587118707935429,53615
1587118707937567,53615
1587118707938951,53615
1587118707940318,53615
1587118707941293,53615
1587118707952653,53615
1587118708455586,55297
1587118708455984,55297
1587118708457324,55297
1587118708458284,55297
1587118708469465,55297
1587118708470064,55297
1587118708470435,55297
1587118708473594,55297
1587118708474219,55297
1587118708485483,55297
1587118708486855,55297
1587118708489212,55297
1587118708490395,55297
1587118709008454,54371
1587118709009126,54371
1587118709010487,54371
1587118709011928,54371
1587118709012240,54371
1587118709013433,54371
1587118709013998,54371
1587118709024734,54371
1587118709026020,54371
1587118709026679,54371
1587118709027745,54371
1587118709028360,54371
1587118709028879,54371
1587118709573499,55585
1587118709574564,55585
1587118709575698,55585
1587118709586978,55585
1587118709598691,55585
1587118709611481,55585
1587118709613195,55585
1587118709624486,55585
1587118709625233,55585
1587118709626262,55585
1587118709627834,55585
1587118709628871,55585
1587118709641052,55585
1587118709677713,61
1587118710025962,61
1587118710152663,55709
1587118710154279,55709
1587118710155595,55709
1587118710166746,55709
1587118710177598,55709
1587118710672922,37
1587118710698873,61
1587118710858141,37
1587118711219127,63
1587118711350733,37
1587118713192476,55709
1587118713193837,55709
1587118713195855,55709
1587118713196614,55709
1587118713197653,55709
1587118713199705,55709
1587118713200395,55709
1587118713201569,55709
1587118713707805,61654
1587118713718374,61654
1587118713719131,61654
1587118713720589,61654
1587118713721770,61654
1587118713722474,61654
1587118713723173,61654
1587118713724555,61654
1587118713735681,61654
1587118713746992,61654
1587118713747902,61654
1587118713749529,61654
1587118713760473,61654
1587118714272889,57955
1587118714273752,57955
1587118714274856,57955
1587118714275562,57955
1587118714277229,57955
1587118714288419,57955
1587118714299420,57955
1587118714300131,57955
1587118714300837,57955
1587118714301652,57955
1587118714302117,57955
1587118714303201,57955
1587118714303705,57955
1587118714525362,37
1587118714560881,37
1587118714804892,57871
1587118714815617,57871
1587118714826447,57871
1587118714829284,57871
1587118714829881,57871
1587118714840710,57871
1587118714841396,57871
1587118714842051,57871
1587118714842741,57871
1587118714843386,57871
1587118714844860,57871
1587118714846064,57871
1587118714858180,57871
1587118715361322,57967
1587118715362589,57967
1587118715373491,57967
1587118715374479,57967
1587118715375683,57967
1587118715376115,57967
1587118715377475,57967
1587118715388761,57967
1587118715390352,57967
1587118715401627,57967
1587118715403336,57967
1587118715414455,57967
1587118715425467,57967
1587118715937274,60486
1587118715939947,60486
1587118715950667,60486
1587118715956807,60486
1587118715957249,60486
1587118715957850,60486
1587118715961007,60486
1587118715964356,60486
1587118715965603,60486
1587118715976378,60486
1587118715977013,60486
1587118715980411,60486
1587118715983630,60486
1587118716495718,59856
1587118716496555,59856
1587118716497794,59856
1587118716499224,59856
1587118716500475,59856
1587118716512642,59856
1587118716523439,59856
1587118716524945,59856
1587118716536915,59856
1587118716538329,59856
1587118716538893,59856
1587118716539278,59856
1587118716539579,59856
1587118717046373,59876
1587118717047996,59876
1587118717050439,59876
1587118717051629,59876
1587118717052602,59876
1587118717063496,59876
1587118717064996,59876
1587118717065675,59876
1587118717066172,59876
1587118717077666,59876
1587118717088438,59876
1587118717089799,59876
1587118717100609,59876
1587118717622589,62476
1587118717633433,62476
1587118717634062,62476
1587118717634642,62476
1587118717635784,62476
1587118717637232,62476
1587118717638568,62476
1587118717639035,62476
1587118717650917,62476
1587118717661403,62476
1587118717672911,62476
1587118717674936,62476
1587118717677269,62476
1587118718196490,61887
1587118718207497,61887
1587118719274378,4
1587118720224769,62
1587118720371906,37
1587118720375255,37
1587118720617354,37
1587118720805690,37
1587118720867219,37
1587118720870066,37
1587118725224552,61887
1587118725235373,61887
1587118725247504,61887
1587118725248571,61887
1587118725249049,61887
1587118725260767,61887
1587118725262193,61887
1587118725264894,61887
1587118725266049,61887
1587118725266642,61887
1587118725267787,61887
1587118725769254,72740
1587118725769897,72740
1587118725771747,72740
1587118725772203,72740
1587118725772831,72740
1587118725773368,72740
1587118725773941,72740
1587118725774424,72740
1587118725774979,72740
1587118725776388,72740
1587118725777882,72740
1587118725778618,72740
1587118725781145,72740
1587118725819932,37
1587118725944175,37
1587118726282337,66826
1587118726282912,66826
1587118726283675,66826
1587118726284657,66826
1587118726285703,66826
1587118726288126,66826
1587118726289337,66826
1587118726290192,66826
1587118726291085,66826
1587118726292098,66826
1587118726293004,66826
1587118726293688,66826
1587118726294327,66826
1587118726298834,4
1587118726797607,67514
1587118726798142,67514
1587118726798795,67514
1587118726812431,67514
1587118727945603,37
1587118728866915,4
1587118729819657,67514
1587118729820461,67514
1587118729820950,67514
1587118729821526,67514
1587118729822006,67514
1587118729822443,67514
1587118729823031,67514
1587118729828537,67514
1587118729833464,67514
1587118729835847,4
1587118730334428,75487
1587118730335919,75487
1587118730340840,75487
1587118730343650,75487
1587118730344303,75487
1587118730347838,75487
1587118730349389,75487
1587118730351063,75487
1587118730353383,75487
1587118730355921,75487
1587118730357124,75487
1587118730362069,75487
1587118730362788,75487
1587118730864739,71611
1587118730865220,71611
1587118730866759,71611
1587118730867255,71611
1587118730867906,71611
1587118730870563,71611
1587118730872290,71611
1587118730873015,71611
1587118730874711,71611
1587118730875414,71611
1587118730875901,71611
1587118730877736,71611
1587118730878337,71611
1587118731055503,37
1587118731382079,71152
1587118731382773,71152
1587118731383345,71152
1587118731384946,71152
1587118731385630,71152
1587118731386024,71152
1587118731386689,71152
1587118731387324,71152
1587118731387854,71152
1587118731388616,71152
1587118731389220,71152
1587118731390927,71152
1587118731391370,71152
1587118731892546,72280
1587118731893613,72280
1587118731894395,72280
1587118731897394,72280
1587118731898227,72280
1587118731898771,72280
1587118731899571,72280
1587118731900179,72280
1587118731902064,72280
1587118731904392,72280
1587118731908666,72280
1587118731909343,72280
1587118731912320,72280
1587118732413625,72166
1587118732418950,72166
1587118732420850,72166
1587118732421495,72166
1587118732425611,72166
1587118732426078,72166
1587118732426581,72166
1587118732427219,72166
1587118732427728,72166
1587118732430590,72166
1587118732431945,72166
1587118732433121,72166
1587118732433599,72166
1587118732936070,72545
1587118732936867,72545
1587118732937488,72545
1587118732938533,72545
1587118732939301,72545
1587118732941082,72545
1587118732942053,72545
1587118732949124,72545
1587118732950151,72545
1587118732951670,72545
1587118732952102,72545
1587118732952771,72545
1587118732953614,72545
1587118733418278,63
1587118733455778,72692
1587118733456381,72692
1587118733457639,72692
1587118734466605,72692
1587118734477443,72692
1587118734478371,72692
1587118734479879,72692
1587118734481265,72692
1587118734488542,72692
1587118734499537,72692
1587118734501446,72692
1587118734513443,72692
1587118734514130,72692
1587118734559335,37
1587118735022102,75933
1587118735033370,75933
1587118735044395,75933
1587118735055370,75933
1587118735056255,75933
1587118735056824,75933
1587118735067379,75933
1587118735068130,75933
1587118735079349,75933
1587118735090459,75933
1587118735102318,75933
1587118735103805,75933
1587118735104315,75933
1587118735607023,74273
1587118735611182,74273
1587118735611736,74273
1587118735613549,74273
1587118735623325,74273
1587118735623914,74273
1587118735624978,74273
1587118735625515,74273
1587118735626133,74273
1587118735628260,74273
1587118735629221,74273
1587118735629762,74273
1587118735630486,74273
1587118736132717,75649
1587118736133287,75649
1587118736133827,75649
1587118736136585,75649
1587118736141353,75649
1587118736142469,75649
1587118736147121,75649
1587118736150844,75649
1587118736151511,75649
1587118736152044,75649
1587118736152501,75649
1587118736152927,75649
1587118736153444,75649
1587118736602295,37
1587118736654425,76306
1587118736654888,76306
1587118736656686,76306
1587118736657366,76306
1587118736658051,76306
1587118736659402,76306
1587118736663326,76306
1587118736664007,76306
1587118736666801,76306
1587118736667344,76306
1587118736668898,76306
1587118736669887,76306
1587118736670440,76306
1587118736817287,37
1587118736819380,37
1587118737172478,76689
1587118737173118,76689
1587118737173862,76689
1587118737174379,76689
1587118737176404,76689
1587118737177894,76689
1587118737178345,76689
1587118737178797,76689
1587118737179282,76689
1587118737179814,76689
1587118737180330,76689
1587118737182004,76689
1587118737182437,76689
1587118737683593,76695
1587118737684046,76695
1587118737684657,76695
1587118737686647,76695
1587118737697744,76695
1587118737708641,76695
1587118737709486,76695
1587118737709980,76695
1587118737712545,76695
1587118737713211,76695
1587118737714811,76695
1587118737725439,76695
1587118737726016,76695
1587118738228632,76877
1587118738229335,76877
1587118738230055,76877
1587118738233208,76877
1587118738234045,76877
1587118738237048,76877
1587118738237467,76877
1587118738237965,76877
1587118738238423,76877
1587118738239047,76877
1587118738239525,76877
1587118738240082,76877
1587118738240632,76877
1587118738741839,78660
1587118738743114,78660
1587118738744042,78660
1587118738745261,78660
1587118738746814,78660
1587118738747441,78660
1587118738748884,78660
1587118738749765,78660
1587118738750821,78660
1587118738752539,78660
1587118738753090,78660
1587118738753870,78660
1587118738755546,78660
1587118739257372,78836
1587118739258399,78836
1587118739260017,78836
1587118739260680,78836
1587118739261088,78836
1587118739261807,78836
1587118739262810,78836
1587118739263653,78836
1587118739266574,78836
1587118739277998,78836
1587118739280040,78836
1587118739280605,78836
1587118739291473,78836
1587118739715251,37
1587118739773703,37
1587118739793970,78681
1587118739794629,78681
1587118739798722,78681
1587118739800805,78681
1587118739801937,78681
1587118739802385,78681
1587118739802896,78681
1587118739803925,78681
1587118739804813,78681
1587118739807568,78681
1587118739809265,78681
1587118739810078,78681
1587118739810875,78681
1587118740024441,37
1587118740207675,37
1587118740209244,37
1587118740312615,79296
1587118740314889,79296
1587118740315888,79296
1587118740316967,79296
1587118740317947,79296
1587118740318742,79296
1587118740319696,79296
1587118740320763,79296
1587118740321717,79296
1587118740322308,79296
1587118740324495,79296
1587118740325376,79296
1587118740326420,79296
1587118740828874,79072
1587118740829605,79072
1587118740831214,79072
1587118740833055,79072
1587118740834405,79072
1587118740836129,79072
1587118740841509,79072
1587118740842410,79072
1587118740844182,79072
1587118741821782,61
1587118741847649,79072
1587118741850001,79072
1587118741851792,79072
1587118741852593,79072
1587118742353801,81693
1587118742366193,81693
1587118742378138,81693
1587118742379276,81693
1587118742380792,81693
1587118742382769,81693
1587118742383833,81693
1587118742384810,81693
1587118742385879,81693
1587118742387128,81693
1587118742388674,81693
1587118742390404,81693
1587118742391820,81693
1587118742583065,61
1587118742597189,37
1587118742893869,80793
1587118742894546,80793
1587118742896004,80793
1587118742896553,80793
1587118742896951,80793
1587118742897946,80793
1587118742898970,80793
1587118742899744,80793
1587118742900617,80793
1587118742901619,80793
1587118742902444,80793
1587118742903679,80793
1587118742905899,80793
1587118743408517,80692
1587118743409864,80692
1587118743423497,80692
1587118743424271,80692
1587118743425110,80692
1587118743436548,80692
1587118743437261,80692
1587118743438039,80692
1587118743439760,80692
1587118743441178,80692
1587118743442979,80692
1587118743444684,80692
1587118743454685,80692
1587118743563884,63
1587118743926608,64
1587118743966031,81254
1587118743966915,81254
1587118743968290,81254
1587118743969057,81254
1587118743970538,81254
1587118743971432,81254
1587118743972257,81254
1587118743972914,81254
1587118743973772,81254
1587118743975271,81254
1587118743976426,81254
1587118743977210,81254
1587118743977937,81254
1587118744480200,81778
1587118744481433,81778
1587118744481904,81778
1587118744483818,81778
1587118744484899,81778
1587118744487130,81778
1587118744488202,81778
1587118744489627,81778
1587118744491562,81778
1587118744492809,81778
1587118744493714,81778
1587118744494401,81778
1587118744495975,81778
1587118744999333,81796
1587118745000270,81796
1587118745001062,81796
1587118745011905,81796
1587118745127868,61
1587118752662836,4
1587118753129387,4
1587118754017266,4
1587118754260851,63
1587118756324316,62
1587118756333862,60
1587118756796858,4
1587118758845116,4
1587118759537627,62
1587118759668073,4
1587118759962595,4
1587118759993299,4
1587118760034483,81796
1587118760035133,81796
1587118760035969,81796
1587118760036533,81796
1587118760038364,81796
1587118760039250,81796
1587118760039989,81796
1587118760041897,81796
1587118760042693,81796
1587118760546456,98573
1587118760548241,98573
1587118760550869,98573
1587118760554329,98573
1587118760561481,98573
1587118760566474,98573
1587118760568010,98573
1587118760568944,98573
1587118760571489,98573
1587118760572305,98573
1587118760572859,98573
1587118760575836,98573
1587118760582668,98573
1587118761085623,93653
1587118761087120,93653
1587118761090687,93653
1587118761093399,93653
1587118761095512,93653
1587118761098185,93653
1587118761098618,93653
1587118761100805,93653
1587118761106027,93653
1587118761109428,93653
1587118761111381,93653
1587118761112114,93653
1587118761118061,93653
1587118761619883,93305
1587118761620535,93305
1587118761621947,93305
1587118761622730,93305
1587118761623241,93305
1587118761625104,93305
1587118761626422,93305
1587118761628569,93305
1587118761632351,93305
1587118761636931,93305
1587118761638614,93305
1587118761641289,93305
1587118761643964,93305
1587118761651791,4
1587118762146381,95015
1587118762147709,95015
1587118762154278,95015
1587118762155413,95015
1587118762161448,95015
1587118762163781,95015
1587118762167676,95015
1587118762175622,95015
1587118762179919,95015
1587118762180747,95015
1587118762184590,95015
1587118762185529,95015
1587118762186503,95015
1587118762690003,94595
1587118762694618,94595
1587118762696107,94595
1587118762699127,94595
1587118762699638,94595
1587118762700964,94595
1587118762702878,94595
1587118762715856,94595
1587118763758458,4
1587118764003451,61
1587118764191933,4
1587118764506803,4
1587118764882497,4
1587118767367082,64
1587118767367780,61
1587118767368360,63
1587118767462114,64
1587118767465922,61
1587118767475467,63
1587118772619555,62
1587118774355225,62
1587118774355737,63
1587118777750079,94595
1587118777750712,94595
1587118777752783,94595
1587118777755007,94595
1587118777756045,94595
1587118778129606,63
1587118778260120,111003
1587118778262457,111003
1587118778263629,111003
1587118778264836,111003
1587118778266198,111003
1587118778269470,111003
1587118778271529,111003
1587118778272086,111003
1587118778273065,111003
1587118778275827,111003
1587118778276720,111003
1587118778277370,111003
1587118778277852,111003
1587118778780539,106756
1587118778782250,106756
1587118778786962,106756
1587118778787540,106756
1587118778790817,106756
1587118778791625,106756
1587118778793240,106756
1587118778793734,106756
1587118778794316,106756
1587118778801866,106756
1587118778802549,106756
1587118778806062,106756
1587118778806549,106756
1587118779311971,107747
1587118779314233,107747
1587118779319123,107747
1587118779319993,107747
1587118779321408,107747
1587118779322972,107747
1587118779325014,107747
1587118779327614,107747
1587118779331495,107747
1587118779335993,107747
1587118779338092,107747
1587118779340326,107747
1587118779341018,107747
1587118779846381,107483
1587118779850221,107483
1587118779854143,107483
1587118779858290,107483
1587118779865354,107483
1587118779868896,107483
1587118779875015,107483
1587118779876899,107483
1587118779877647,107483
1587118779879824,107483
1587118779880296,107483
1587118779886703,107483
1587118779889819,107483
1587118780394145,107970
1587118780399898,107970
1587118780403609,107970
1587118780405486,107970
1587118780410120,107970
1587118780411875,107970
1587118780413106,107970
1587118780414376,107970
1587118780416366,107970
1587118780418150,107970
1587118780419105,107970
1587118780420722,107970
1587118780422197,107970
1587118780924815,108025
1587118780929713,108025
1587118780931700,108025
1587118780935778,108025
1587118780936562,108025
1587118780939689,108025
1587118780943892,108025
1587118780948202,108025
1587118780948539,108025
1587118780951962,108025
1587118780956808,108025
1587118780958664,108025
1587118780961367,108025
1587118781465531,108699
1587118781467975,108699
1587118781473312,108699
1587118781479031,108699
1587118781483363,108699
1587118781484522,108699
1587118781485722,108699
1587118781490179,108699
1587118781491629,108699
1587118781493473,108699
1587118781496685,108699
1587118781500779,108699
1587118781513685,108699
1587118782021833,108660
1587118782024377,108660
1587118782027467,108660
1587118782029395,108660
1587118782032451,108660
1587118782034104,108660
1587118782035536,108660
1587118782036868,108660
1587118782041596,108660
1587118782042791,108660
1587118782044047,108660
1587118782045243,108660
1587118782047608,108660
1587118782549959,109386
1587118782552551,109386
1587118782557122,109386
1587118782559217,109386
1587118782559918,109386
1587118782562951,109386
1587118782563819,109386
1587118782565383,109386
1587118782568821,109386
1587118782570061,109386
1587118782570568,109386
1587118782573220,109386
1587118782585114,109386
1587118783089321,110006
1587118783092208,110006
1587118783094078,110006
1587118783094946,110006
1587118783097773,110006
1587118783099503,110006
1587118783103379,110006
1587118783106932,110006
1587118783108104,110006
1587118783108986,110006
1587118783112048,110006
1587118783115589,110006
1587118783117217,110006
1587118783619031,110123
1587118783623852,110123
1587118783626409,110123
1587118783631439,110123
1587118783632600,110123
1587118783638191,110123
1587118783639558,110123
1587118783640246,110123
1587118783641201,110123
1587118783644644,110123
1587118783649606,110123
1587118783650371,110123
1587118783652045,110123
1587118784163475,109933
1587118784165843,109933
1587118784166700,109933
1587118784170005,109933
1587118784172379,109933
1587118784177418,109933
1587118784180929,109933
1587118784184168,109933
1587118784184801,109933
1587118784185447,109933
1587118784189281,109933
1587118784189872,109933
1587118784193031,109933
1587118784242998,62
1587118784331221,61
1587118784696545,109815
1587118784699092,109815
1587118784703467,109815
1587118784705933,109815
1587118784706494,109815
1587118784711038,109815
1587118784712542,109815
1587118784714555,109815
1587118784715991,109815
1587118784717242,109815
1587118784719883,109815
1587118784721999,109815
1587118784724269,109815
1587118784808071,37
1587118784813756,37
1587118784817224,37
1587118784822430,37
1587118784851922,61
1587118784855034,61
1587118784858189,64
1587118784864317,62
1587118785113936,61
1587118785127290,61
1587118785129880,64
1587118785132419,62
1587118785229289,112856
1587118785230098,112856
1587118785233688,112856
1587118785246314,112856
1587118785248854,112856
1587118785252608,112856
1587118785253426,112856
1587118785254008,112856
1587118785255945,112856
1587118785257576,112856
1587118785267823,112856
1587118785269952,112856
1587118785274570,112856
1587118785319222,61
1587118785328450,62
1587118785332964,64
1587118785345888,61
1587118785776711,111564
1587118785780883,111564
1587118785784181,111564
1587118785785208,111564
1587118785791117,111564
1587118785792985,111564
1587118785795779,111564
1587118785796327,111564
1587118785798373,111564
1587118785800021,111564
1587118785803181,111564
1587118785803729,111564
1587118785806033,111564
1587118786310029,112291
1587118786310771,112291
1587118786315484,112291
1587118786316550,112291
1587118786324225,112291
1587118786327931,112291
1587118786332081,112291
1587118786334943,112291
1587118786336135,112291
1587118786338387,112291
1587118786340599,112291
1587118786342657,112291
1587118786344298,112291
1587118786432772,62
1587118786847580,112820
1587118786848303,112820
1587118786848813,112820
1587118786852236,112820
1587118786852704,112820
1587118786858370,112820
1587118786859302,112820
1587118786861466,112820
1587118786863188,112820
1587118786863953,112820
1587118786868820,112820
1587118786871170,112820
1587118786874221,112820
1587118787379399,112348
1587118787380142,112348
1587118787380671,112348
1587118787382329,112348
1587118787383204,112348
1587118787387339,112348
1587118787390973,112348
1587118787392896,112348
1587118787396697,112348
1587118787399818,112348
1587118787403688,112348
1587118787407341,112348
1587118787409585,112348
1587118787912976,113223
1587118787919968,113223
1587118787924764,113223
1587118787928708,113223
1587118787933851,113223
1587118787940405,113223
1587118787944371,113223
1587118787946889,113223
1587118787949699,113223
1587118787950774,113223
1587118787953922,113223
1587118787958891,113223
1587118787961957,113223
1587118788464384,113717
1587118788468141,113717
1587118788471464,113717
1587118788472234,113717
1587118788474227,113717
1587118788477534,113717
1587118788479109,113717
1587118788479626,113717
1587118788484595,113717
1587118788487975,113717
1587118788491891,113717
1587118788494246,113717
1587118788496670,113717
1587118788829421,37
1587118789002767,114423
1587118789004577,114423
1587118789008490,114423
1587118789009846,114423
1587118789010754,114423
1587118789012414,114423
1587118789014593,114423
1587118789018857,114423
1587118789019819,114423
1587118789024145,114423
1587118789025358,114423
1587118789025977,114423
1587118789027810,114423
1587118789532224,114398
1587118789533502,114398
1587118789536878,114398
1587118789542715,114398
1587118789547032,114398
1587118789548904,114398
1587118789552115,114398
1587118789554939,114398
1587118789556816,114398
1587118789559380,114398
1587118789561110,114398
1587118789561728,114398
1587118789562429,114398
1587118790064286,114630
1587118790065860,114630
1587118790070348,114630
1587118790076822,114630
1587118790079518,114630
1587118790080023,114630
1587118790082541,114630
1587118790086346,114630
1587118790087798,114630
1587118790089090,114630
1587118790092392,114630
1587118790094683,114630
1587118790096248,114630
1587118790598905,114828
1587118790608530,114828
1587118790613539,114828
1587118790615663,114828
1587118790617065,114828
1587118790619923,114828
1587118790620464,114828
1587118790622841,114828
1587118790629816,114828
1587118790632676,114828
1587118790637138,114828
1587118790638014,114828
1587118790639589,114828
1587118791142483,115748
1587118791143067,115748
1587118791144398,115748
1587118791145675,115748
1587118791146840,115748
1587118791147591,115748
1587118791152120,115748
1587118791153669,115748
1587118791154368,115748
1587118791158840,115748
1587118791159863,115748
1587118791160444,115748
1587118791161714,115748
1587118791664331,115405
1587118791664931,115405
1587118791665521,115405
1587118791670959,115405
1587118791677117,115405
1587118791682205,115405
1587118791684517,115405
1587118791686598,115405
1587118791689570,115405
1587118791694380,115405
1587118791696859,115405
1587118791697887,115405
1587118791706692,115405
1587118792208436,115509
1587118792208978,115509
1587118792211208,115509
1587118792211976,115509
1587118792215871,115509
1587118792217339,115509
1587118792218801,115509
1587118792219344,115509
1587118792223037,115509
1587118792224867,115509
1587118792228616,115509
1587118792231022,115509
1587118792235017,115509
1587118792745046,116143
1587118792748180,116143
1587118792749593,116143
1587118792753346,116143
1587118792758804,116143
1587118792760497,116143
1587118792762582,116143
1587118792763535,116143
1587118792764737,116143
1587118792770979,116143
1587118792772398,116143
1587118792772840,116143
1587118792774589,116143
1587118793281479,116282
1587118793289123,116282
1587118793289836,116282
1587118793290861,116282
1587118793302891,116282
1587118793304245,116282
1587118793305792,116282
1587118793307381,116282
1587118793313209,116282
1587118793313702,116282
1587118793318329,116282
1587118793320261,116282
1587118793325625,116282
1587118793826861,116731
1587118793827903,116731
1587118793828676,116731
1587118793831331,116731
1587118793835566,116731
1587118793838734,116731
1587118793842405,116731
1587118793842962,116731
1587118793843572,116731
1587118793844937,116731
1587118793846570,116731
1587118793849096,116731
1587118793849738,116731
1587118794355186,116870
1587118794355877,116870
1587118794356391,116870
1587118794359190,116870
1587118794359642,116870
1587118794373457,116870
1587118794374609,116870
1587118794377123,116870
1587118794378997,116870
1587118794379565,116870
1587118794380816,116870
1587118794381422,116870
1587118794385887,116870
1587118794888456,116859
1587118794889104,116859
1587118794890954,116859
1587118794892197,116859
1587118794893003,116859
1587118794894679,116859
1587118794895404,116859
1587118794897824,116859
1587118794900735,116859
1587118794906831,116859
1587118794907655,116859
1587118794908201,116859
1587118794910609,116859
1587118795412964,118054
1587118795415585,118054
1587118795416922,118054
1587118795417461,118054
1587118795420190,118054
1587118795420748,118054
1587118795422596,118054
1587118795424715,118054
1587118795425666,118054
1587118795426918,118054
1587118795428678,118054
1587118795432954,118054
1587118795434466,118054
1587118795937776,117931
1587118795940321,117931
1587118796569351,117931
1587118796571953,117931
1587118796573866,117931
1587118796577340,117931
1587118796579788,117931
1587118796581765,117931
1587118796584208,117931
1587118796584928,117931
1587118796585989,117931
1587118796586951,117931
1587118796592286,117931
1587118797097603,119805
1587118797098585,119805
1587118797101025,119805
1587118797102987,119805
1587118797105884,119805
1587118797107128,119805
1587118797108845,119805
1587118797109730,119805
1587118797110191,119805
1587118797111681,119805
1587118797116982,119805
1587118797124316,119805
1587118797125209,119805
1587118797627518,119924
1587118797632850,119924
1587118797633380,119924
1587118797636549,119924
1587118797640946,119924
1587118797653468,119924
1587118797660038,119924
1587118797664325,119924
1587118797668958,119924
1587118797671002,119924
1587118797671593,119924
1587118797674292,119924
1587118797676472,119924
1587118798180907,119300
1587118798181893,119300
1587118798182499,119300
1587118798186548,119300
1587118798191218,119300
1587118798192111,119300
1587118798192816,119300
1587118798194527,119300
1587118798199654,119300
1587118798201544,119300
1587118798202254,119300
1587118798206895,119300
1587118798207854,119300
1587118798711932,120309
1587118798713981,120309
1587118798715614,120309
1587118798719560,120309
1587118798722279,120309
1587118798723098,120309
1587118798725312,120309
1587118798726231,120309
1587118798726995,120309
1587118798732242,120309
1587118798734321,120309
1587118798736661,120309
1587118798741023,120309
1587118799243935,120586
1587118799244663,120586
1587118803073181,120586
1587118803077868,120586
1587118803080563,120586
1587118803084062,120586
1587118803086594,120586
1587118803088317,120586
1587118803089041,120586
1587118803091648,120586
1587118803093882,120586
1587118803096834,120586
1587118803100379,120586
1587118803324151,63
1587118803605249,127042
1587118803607056,127042
1587118803612484,127042
1587118803614722,127042
1587118803620544,127042
1587118803621335,127042
1587118803623758,127042
1587118803625618,127042
1587118803626383,127042
1587118803628250,127042
1587118803630805,127042
1587118803631718,127042
1587118803637528,127042
1587118804141305,122772
1587118804143129,122772
1587118804145592,122772
1587118804150085,122772
1587118804150934,122772
1587118804151757,122772
1587118804154257,122772
1587118804159956,122772
1587118804160731,122772
1587118804161281,122772
1587118804165904,122772
1587118804167213,122772
1587118804171462,122772
1587118804674448,124866
1587118804677198,124866
1587118804680484,124866
1587118804681355,124866
1587118804683351,124866
1587118804684911,124866
1587118804685954,124866
1587118804686759,124866
1587118804689568,124866
1587118804693259,124866
1587118804695469,124866
1587118804700107,124866
1587118804703328,124866
1587118805205652,124288
1587118805207142,124288
1587118805209728,124288
1587118805214992,124288
1587118805217468,124288
1587118805222680,124288
1587118805223689,124288
1587118805224614,124288
1587118805225226,124288
1587118805231584,124288
1587118805236606,124288
1587118805239665,124288
1587118805241820,124288
1587118805743949,124060
1587118805748009,124060
1587118805749744,124060
1587118805755564,124060
1587118805756754,124060
1587118805758866,124060
1587118805761443,124060
1587118805762308,124060
1587118805763749,124060
1587118805766466,124060
1587118805768763,124060
1587118805772586,124060
1587118805777044,124060
1587118806282700,124750
1587118806283335,124750
1587118806287738,124750
1587118806288581,124750
1587118806291562,124750
1587118806295205,124750
1587118806298484,124750
1587118806302572,124750
1587118806309311,124750
1587118806312292,124750
1587118806314338,124750
1587118806316400,124750
1587118806319207,124750
