1587118632244309,30
1587118634074583,23
1587118634410053,23
1587118634411615,29
1587118634433083,29
1587118634480921,23
1587118635879938,410
1587118637445688,29
1587118637446357,29
1587118637447602,29
1587118637448644,29
1587118637449670,29
1587118637451863,29
1587118637454769,29
1587118637474466,29
1587118637490029,29
1587118637512787,29
1587118637525029,29
1587118638029992,3824
1587118638031055,3824
1587118638034046,3824
1587118638063353,3824
1587118638116151,3824
1587118638129119,3824
1587118638131838,3824
1587118638148578,3824
1587118638161069,3824
1587118638173040,3824
1587118638217479,3824
1587118638227256,3824
1587118638229090,3824
1587118638744804,9371
1587118638747849,9371
1587118638750917,9371
1587118638784831,9371
1587118638838014,9371
1587118638843806,9371
1587118638846882,9371
1587118638872673,9371
1587118638877136,9371
1587118638890699,9371
1587118638904609,9371
1587118638913098,9371
1587118638927447,9371
1587118639437007,4390
1587118639449000,4390
1587118639450255,4390
1587118639470933,4390
1587118639473721,4390
1587118639477322,4390
1587118639478879,4390
1587118639483363,4390
1587118639484474,4390
1587118639485721,4390
1587118639487973,4390
1587118639500024,4390
1587118639509998,4390
1587118640014871,4390
1587118640015628,4390
1587118640016092,4390
1587118640016699,4390
1587118640017802,4390
1587118640018940,4390
1587118640029937,4390
1587118640032233,4390
1587118640042902,4390
1587118640043779,4390
1587118640045290,4390
1587118640052921,4390
1587118640088236,4390
1587118640595673,4390
1587118640601772,4390
1587118640605122,4390
1587118640606076,4390
1587118640607541,4390
1587118640610524,4390
1587118640614897,4390
1587118640628218,4390
1587118640658541,4390
1587118640669005,4390
1587118640671563,4390
1587118640675253,4390
1587118640686972,4390
1587118641193768,4390
1587118641196115,4390
1587118641196550,4390
1587118641199951,4390
1587118641202144,4390
1587118641203300,4390
1587118641250001,4390
1587118641258674,4390
1587118641277504,4390
1587118641303405,4390
1587118641305136,4390
1587118641308377,4390
1587118641312798,4390
1587118641913590,10592
1587118641925175,10592
1587118641926600,10592
1587118641934966,10592
1587118641941317,10592
1587118642950017,10592
1587118642950884,10592
1587118642952631,10592
1587118642953237,10592
1587118642954447,10592
1587118642955406,10592
1587118642957993,10592
1587118642958793,10592
1587118643477989,12872
1587118643480884,12872
1587118643482236,12872
1587118643483152,12872
1587118643485276,12872
1587118643498249,12872
1587118643500566,12872
1587118643503869,12872
1587118643504319,12872
1587118643505123,12872
1587118643520388,12872
1587118643521449,12872
1587118643525649,12872
1587118644042088,11251
1587118644043790,11251
1587118644044682,11251
1587118644055984,11251
1587118644056828,11251
1587118644057837,11251
1587118644059097,11251
1587118644061340,11251
1587118644063442,11251
1587118644065030,11251
1587118644077201,11251
1587118644080258,11251
1587118644087354,11251
1587118644593917,13765
1587118644595584,13765
1587118644596968,13765
1587118644599165,13765
1587118644600024,13765
1587118644605516,13765
1587118644617199,13765
1587118644628069,13765
1587118644639003,13765
1587118644640411,13765
1587118644641238,13765
1587118644642357,13765
1587118644643221,13765
1587118645160719,11711
1587118645162815,11711
1587118645163516,11711
1587118645164647,11711
1587118645170413,11711
1587118645174794,11711
1587118645181718,11711
1587118645207146,11711
1587118645225498,11711
1587118645249458,11711
1587118645266876,11711
1587118646276015,11711
1587118646280347,11711
1587118646976128,14959
1587118646988012,14959
1587118646990709,14959
1587118646991972,14959
1587118646993143,14959
1587118646993553,14959
1587118646994303,14959
1587118646995535,14959
1587118646997360,14959
1587118647012476,14959
1587118647016679,14959
1587118647021167,14959
1587118647024368,14959
1587118647539546,13568
1587118647541906,13568
1587118647544384,13568
1587118647546041,13568
1587118647547172,13568
1587118647548734,13568
1587118647561546,13568
1587118647562781,13568
1587118647566138,13568
1587118647630505,13568
1587118647645224,13568
1587118647661256,13568
1587118647662800,13568
1587118648172035,13157
1587118648173135,13157
1587118648175223,13157
1587118648180295,13157
1587118648183506,13157
1587118648184917,13157
1587118648186174,13157
1587118648200953,13157
1587118648206735,13157
1587118648218000,13157
1587118648219564,13157
1587118648232294,13157
1587118648247061,13157
1587118648762653,13690
1587118648767522,13690
1587118648768667,13690
1587118648769576,13690
1587118648776270,13690
1587118648780400,13690
1587118648783922,13690
1587118648784556,13690
1587118648796482,13690
1587118648801877,13690
1587118648804769,13690
1587118648806409,13690
1587118648808048,13690
1587118649315578,13921
1587118649316151,13921
1587118649317211,13921
1587118649318304,13921
1587118649319234,13921
1587118649324209,13921
1587118649325449,13921
1587118649328454,13921
1587118649360929,13921
1587118649372283,13921
1587118649373916,13921
1587118649385058,13921
1587118649395936,13921
1587118649909825,14985
1587118649917682,14985
1587118649918571,14985
1587118649919325,14985
1587118649919961,14985
1587118649930983,14985
1587118649931776,14985
1587118649932949,14985
1587118649933658,14985
1587118649935651,14985
1587118649939104,14985
1587118649939572,14985
1587118649940437,14985
1587118650456021,14863
1587118650457157,14863
1587118650459187,14863
1587118650459882,14863
1587118650461415,14863
1587118650463283,14863
1587118650464461,14863
1587118650465534,14863
1587118650467021,14863
1587118650467789,14863
1587118650468228,14863
1587118650470393,14863
1587118650471686,14863
1587118650980172,15068
1587118650981241,15068
1587118650986407,15068
1587118650988478,15068
1587118650990101,15068
1587118650991518,15068
1587118650994475,15068
1587118651019266,15068
1587118651033686,15068
1587118651057031,15068
1587118651071092,15068
1587118651072066,15068
1587118651072735,15068
1587118651576094,15422
1587118651597287,15422
1587118651603042,15422
1587118651605053,15422
1587118651608966,15422
1587118651609806,15422
1587118651610187,15422
1587118651610962,15422
1587118651612404,15422
1587118651622962,15422
1587118651623656,15422
1587118651624889,15422
1587118651626215,15422
1587118652131189,15719
1587118652132143,15719
1587118652132580,15719
1587118652133287,15719
1587118652134634,15719
1587118652136058,15719
1587118652138258,15719
1587118652148937,15719
1587118652151494,15719
1587118652155039,15719
1587118652166012,15719
1587118652167937,15719
1587118652168960,15719
1587118652674284,16486
1587118652676561,16486
1587118652688075,16486
1587118652700950,16486
1587118652701788,16486
1587118652704069,16486
1587118652706125,16486
1587118652706836,16486
1587118652891737,16486
1587118652903718,16486
1587118652904667,16486
1587118652909118,16486
1587118652909820,16486
1587118653417740,16111
1587118653418666,16111
1587118653419635,16111
1587118653420720,16111
1587118653422674,16111
1587118653423337,16111
1587118653424351,16111
1587118653428524,16111
1587118653429207,16111
1587118653430216,16111
1587118653441221,16111
1587118653452106,16111
1587118653453281,16111
1587118653960296,16460
1587118653961020,16460
1587118653962078,16460
1587118653963272,16460
1587118653975000,16460
1587118653994772,16460
1587118653995805,16460
1587118653996804,16460
1587118653997656,16460
1587118653998606,16460
1587118654000929,16460
1587118654001956,16460
1587118654003431,16460
1587118654472312,37
1587118654518602,16598
1587118654520021,16598
1587118654530969,16598
1587118654532403,16598
1587118654533200,16598
1587118654533931,16598
1587118654534475,16598
1587118654535581,16598
1587118654536730,16598
1587118654539230,16598
1587118654539910,16598
1587118654541434,16598
1587118654542795,16598
1587118655045789,16893
1587118655057009,16893
1587118655068223,16893
1587118655068907,16893
1587118655070008,16893
1587118655072924,16893
1587118655073772,16893
1587118655074585,16893
1587118655075198,16893
1587118655086087,16893
1587118655086833,16893
1587118655087860,16893
1587118655088588,16893
1587118655595410,17313
1587118655595952,17313
1587118655597025,17313
1587118655598437,17313
1587118655599323,17313
1587118655599832,17313
1587118655611044,17313
1587118655611494,17313
1587118655612832,17313
1587118655613304,17313
1587118655613870,17313
1587118655621295,17313
1587118655622589,17313
1587118656131319,19272
1587118656132207,19272
1587118656132657,19272
1587118656133345,19272
1587118656137581,19272
1587118656138858,19272
1587118656140027,19272
1587118656141037,19272
1587118656144336,19272
1587118656146453,19272
1587118656147566,19272
1587118656148635,19272
1587118656159996,19272
1587118656300580,37
1587118656670200,17841
1587118656671310,17841
1587118656674662,17841
1587118656687002,17841
1587118656688203,17841
1587118656689592,17841
1587118656691050,17841
1587118656695070,17841
1587118656705987,17841
1587118656709601,17841
1587118656712889,17841
1587118656713990,17841
1587118656716725,17841
1587118657180151,37
1587118657231612,18191
1587118657235524,37
1587118657235741,18191
1587118657236620,18191
1587118657237522,18191
1587118657238469,18191
1587118657239393,18191
1587118657241760,18191
1587118657249127,18191
1587118657261155,18191
1587118657270630,18191
1587118657275812,18191
1587118657277198,18191
1587118657278737,18191
1587118657603371,37
1587118657707444,37
1587118657798950,18721
1587118657804929,18721
1587118657806240,18721
1587118657807793,18721
1587118657809502,18721
1587118657810494,18721
1587118657822536,18721
1587118657823366,18721
1587118657824942,18721
1587118657836531,18721
1587118657837328,18721
1587118657838188,18721
1587118657838608,18721
1587118658341625,19119
1587118658342652,19119
1587118658354004,19119
1587118658354650,19119
1587118658356579,19119
1587118658357799,19119
1587118658358127,19119
1587118658359242,19119
1587118658374177,19119
1587118658385844,19119
1587118658387310,19119
1587118658388143,19119
1587118658392672,19119
1587118658894825,18797
1587118658905955,18797
1587118658907461,18797
1587118658909130,18797
1587118658909738,18797
1587118658911027,18797
1587118658911377,18797
1587118658912403,18797
1587118658914093,18797
1587118658914826,18797
1587118658925975,18797
1587118658936999,18797
1587118658948740,18797
1587118659046096,62
1587118659474801,19267
1587118659487065,19267
1587118659498236,19267
1587118659500051,19267
1587118659502124,19267
1587118659502739,19267
1587118659504012,19267
1587118659505618,19267
1587118659506047,19267
1587118659507276,19267
1587118659572589,19267
1587118659575664,19267
1587118659578670,19267
1587118660086853,19489
1587118660087722,19489
1587118660088062,19489
1587118660089202,19489
1587118660110853,19489
1587118660111948,19489
1587118660112822,19489
1587118660113719,19489
1587118660116487,19489
1587118660121345,19489
1587118660131954,19489
1587118660133886,19489
1587118660134810,19489
1587118660403477,37
1587118660644200,19266
1587118660645087,19266
1587118660651953,19266
1587118660662969,19266
1587118660665536,19266
1587118660667272,19266
1587118660677966,19266
1587118660679411,19266
1587118660679773,19266
1587118660685657,19266
1587118660686973,19266
1587118660687845,19266
1587118660695819,19266
1587118664775622,19236
1587118664776105,19236
1587118664777172,19236
1587118664778003,19236
1587118671799032,19236
1587118671799915,19236
1587118671800329,19236
1587118671801680,19236
1587118671802736,19236
1587118671814161,19236
1587118671814891,19236
1587118671815254,19236
1587118671815865,19236
1587118672317567,34196
1587118672318251,34196
1587118672319997,34196
1587118672320737,34196
1587118672321503,34196
1587118672329337,34196
1587118672331862,34196
1587118672332305,34196
1587118672333457,34196
1587118672344890,34196
1587118673356079,34196
1587118673356992,34196
1587118673358216,34196
1587118673877027,30148
1587118673888294,30148
1587118673889893,30148
1587118673890885,30148
1587118673902280,30148
1587118673913300,30148
1587118673917865,30148
1587118673929192,30148
1587118673930180,30148
1587118673930893,30148
1587118673932282,30148
1587118673933677,30148
1587118673934945,30148
1587118674438925,30371
1587118674439486,30371
1587118674441050,30371
1587118674441434,30371
1587118674442185,30371
1587118674442929,30371
1587118674444182,30371
1587118674445905,30371
1587118674446721,30371
1587118674448774,30371
1587118674460022,30371
1587118674460831,30371
1587118674461985,30371
1587118674970813,29689
1587118674972017,29689
1587118674972651,29689
1587118674973351,29689
1587118674982169,29689
1587118674992995,29689
1587118674993942,29689
1587118674995326,29689
1587118675006120,29689
1587118675007007,29689
1587118675007844,29689
1587118675019124,29689
1587118675020009,29689
1587118675532204,30065
1587118675533058,30065
1587118675534318,30065
1587118675534906,30065
1587118675535989,30065
1587118675546986,30065
1587118675547731,30065
1587118675548385,30065
1587118675549792,30065
1587118675550309,30065
1587118675551177,30065
1587118675552268,30065
1587118675563036,30065
1587118676076184,29889
1587118676076963,29889
1587118676088172,29889
1587118676089808,29889
1587118676090437,29889
1587118676090892,29889
1587118676091409,29889
1587118676091789,29889
1587118676093524,29889
1587118676095092,29889
1587118676095877,29889
1587118676107131,29889
1587118676112448,29889
1587118676629004,30421
1587118676629897,30421
1587118676631146,30421
1587118676631496,30421
1587118676632019,30421
1587118676638112,30421
1587118676638503,30421
1587118676639470,30421
1587118676640842,30421
1587118676646201,30421
1587118676647446,30421
1587118676649887,30421
1587118676661012,30421
1587118677174042,32140
1587118677174566,32140
1587118677175200,32140
1587118677186028,32140
1587118677197007,32140
1587118677197398,32140
1587118677209325,32140
1587118677209731,32140
1587118677210421,32140
1587118677212015,32140
1587118677212656,32140
1587118677213056,32140
1587118677214472,32140
1587118679082470,30946
1587118679086234,30946
1587118679087165,30946
1587118679090204,30946
1587118679091210,30946
1587118679092298,30946
1587118679093125,30946
1587118679094201,30946
1587118679095087,30946
1587118679096906,30946
1587118679097880,30946
1587118679099554,30946
1587118679111015,30946
1587118679620324,33812
1587118679632781,33812
1587118679633693,33812
1587118679634610,33812
1587118679635658,33812
1587118679636630,33812
1587118679638420,33812
1587118679639259,33812
1587118679643111,33812
1587118679647565,33812
1587118679661453,33812
1587118679662367,33812
1587118679663573,33812
1587118680170570,34293
1587118680171862,34293
1587118680173881,34293
1587118680176614,34293
1587118680193654,34293
1587118680195560,34293
1587118680202000,34293
1587118680203815,34293
1587118680208732,34293
1587118680211120,34293
1587118680224353,34293
1587118680226360,34293
1587118680227560,34293
1587118680740122,33479
1587118680744291,33479
1587118680745267,33479
1587118680746283,33479
1587118680747203,33479
1587118680751504,33479
1587118680753602,33479
1587118680755577,33479
1587118680767281,33479
1587118680769870,33479
1587118680773292,33479
1587118683783031,33479
1587118683908195,62
1587118683908600,33479
1587118684410053,36623
1587118684410879,36623
1587118684412085,36623
1587118684414334,36623
1587118684425074,36623
1587118684436673,36623
1587118684447966,36623
1587118684448739,36623
1587118684449458,36623
1587118684450120,36623
1587118684454706,36623
1587118684455234,36623
1587118684456574,36623
1587118684966871,36061
1587118684969129,36061
1587118684970484,36061
1587118684970991,36061
1587118684971815,36061
1587118684972913,36061
1587118685006018,36061
1587118685017819,36061
1587118685020319,36061
1587118685024832,36061
1587118685036261,36061
1587118685037696,36061
1587118685065301,36061
1587118685569510,35568
1587118685570623,35568
1587118685582023,35568
1587118685583568,35568
1587118685584388,35568
1587118685589611,35568
1587118685601013,35568
1587118685601923,35568
1587118685603199,35568
1587118685603988,35568
1587118685604812,35568
1587118685605631,35568
1587118685612329,35568
1587118686124215,36169
1587118686135059,36169
1587118686135639,36169
1587118686135976,36169
1587118686136639,36169
1587118686137409,36169
1587118686138692,36169
1587118686140008,36169
1587118686141272,36169
1587118686141664,36169
1587118686153301,36169
1587118686154389,36169
1587118686155574,36169
1587118686657694,36630
1587118686669030,36630
1587118686669848,36630
1587118686671270,36630
1587118686672096,36630
1587118686673451,36630
1587118686675239,36630
1587118686675938,63
1587118686676305,36630
1587118686677920,36630
1587118686688964,36630
1587118686689448,36630
1587118686690243,36630
1587118686691085,36630
1587118687202249,36834
1587118687212970,36834
1587118687221723,36834
1587118687222925,36834
1587118687223818,36834
1587118687225848,36834
1587118687226705,36834
1587118687227803,36834
1587118687246035,36834
1587118687250678,36834
1587118687263186,36834
1587118687275965,36834
1587118687287038,36834
1587118687838840,36609
1587118687840105,36609
1587118687840999,36609
1587118687841651,36609
1587118687842476,36609
1587118687843633,36609
1587118687855653,36609
1587118687868188,36609
1587118687869191,36609
1587118687870278,36609
1587118687871199,36609
1587118687879312,36609
1587118687891258,36609
1587118688236728,63
1587118688399045,38226
1587118688400604,38226
1587118688401038,38226
1587118688412073,38226
1587118688412926,38226
1587118688424059,38226
1587118688425188,38226
1587118688426388,38226
1587118688427233,38226
1587118688428691,38226
1587118688429382,38226
1587118688430470,38226
1587118688443606,38226
1587118688609680,62
1587118688957049,37675
1587118688963894,37675
1587118688974988,37675
1587118688986060,37675
1587118688987089,37675
1587118688988896,37675
1587118688989584,37675
1587118689001173,37675
1587118689003042,37675
1587118689003800,37675
1587118689004995,37675
1587118689005395,37675
1587118689015977,37675
1587118689522088,37538
1587118689532971,37538
1587118689533319,37538
1587118689543972,37538
1587118689544645,37538
1587118689546056,37538
1587118689546429,37538
1587118689547784,37538
1587118689559221,37538
1587118689570015,37538
1587118689570825,37538
1587118689573483,37538
1587118689584176,37538
1587118689706841,61
1587118690091493,38384
1587118690092190,38384
1587118690093488,38384
1587118690093911,38384
1587118690094463,38384
1587118690096348,38384
1587118690106953,38384
1587118690107379,38384
1587118690108108,38384
1587118690108961,38384
1587118690109646,63
1587118690111832,38384
1587118690134085,38384
1587118690145436,38384
1587118690650146,38652
1587118690652412,38652
1587118690653264,38652
1587118690673976,38652
1587118690675069,38652
1587118690676299,38652
1587118690676991,38652
1587118690678205,38652
1587118690678885,38652
1587118690679788,38652
1587118690680460,38652
1587118690681328,38652
1587118690683524,38652
1587118691191065,38804
1587118691202228,38804
1587118691213146,38804
1587118691214499,38804
1587118691214932,38804
1587118691216179,38804
1587118691216883,38804
1587118691220123,38804
1587118691223560,38804
1587118691225895,38804
1587118691226579,38804
1587118691227479,38804
1587118691228988,38804
1587118691736881,38787
1587118691737587,38787
1587118691738242,38787
1587118691739511,38787
1587118691750077,38787
1587118691754060,38787
1587118691754944,38787
1587118691756300,38787
1587118691757958,38787
1587118691758358,38787
1587118691758647,38787
1587118691760031,38787
1587118691761301,38787
1587118692576888,38667
1587118692578068,38667
1587118692578806,38667
1587118692579438,38667
1587118692580366,38667
1587118692583675,38667
1587118692584568,38667
1587118692590511,38667
1587118692591724,38667
1587118692592333,38667
1587118692604996,38667
1587118692607238,38667
1587118692618039,38667
1587118693120966,39759
1587118694122322,39759
1587118694134078,39759
1587118694134668,39759
1587118694135409,39759
1587118694136607,39759
1587118694137139,39759
1587118694137804,39759
1587118694139285,39759
1587118694149999,39759
1587118694152473,39759
1587118694163482,39759
1587118694164270,39759
1587118694677039,41218
1587118694688092,41218
1587118694688985,41218
1587118694689643,41218
1587118694690273,41218
1587118694691780,41218
1587118694695817,41218
1587118694697086,41218
1587118694697970,41218
1587118694698313,41218
1587118694699659,41218
1587118694711209,41218
1587118694711941,41218
1587118696231079,40046
1587118696231881,40046
1587118696243410,40046
1587118696244008,40046
1587118696245395,40046
1587118696256021,40046
1587118696257666,40046
1587118696258399,40046
1587118696259686,40046
1587118696270961,40046
1587118696281943,40046
1587118696282649,40046
1587118696284377,40046
1587118696840115,40986
1587118696841315,40986
1587118696845848,40986
1587118696856950,40986
1587118696858453,40986
1587118696859077,40986
1587118696867516,40986
1587118696868704,40986
1587118696869920,40986
1587118696870676,40986
1587118696881996,40986
1587118696882902,40986
1587118696894375,40986
1587118697406141,42216
1587118697417693,42216
1587118697428949,42216
1587118697429383,42216
1587118697430002,42216
1587118697431131,42216
1587118697441968,42216
1587118697442697,42216
1587118697443404,42216
1587118697444596,42216
1587118697447729,42216
1587118697459228,42216
1587118697470060,42216
1587118697472993,63
1587118697986015,41704
1587118697986836,41704
1587118697987473,41704
1587118697988665,41704
1587118697999969,41704
1587118698011272,41704
1587118698022059,41704
1587118698022944,41704
1587118698023561,41704
1587118698024709,41704
1587118698025885,41704
1587118698026566,41704
1587118698026969,41704
1587118698258390,4
1587118701534045,4
1587118701547619,63
1587118701548660,49764
1587118701549931,49764
1587118701550767,49764
1587118701551925,49764
1587118701552845,49764
1587118701554108,49764
1587118701555509,49764
1587118701555897,49764
1587118701567224,49764
1587118701569647,49764
1587118701581091,49764
1587118701593690,49764
1587118701594649,49764
1587118702101310,45835
1587118702102265,45835
1587118702103112,45835
1587118702103812,45835
1587118702107438,45835
1587118702108484,45835
1587118702109246,45835
1587118702109945,45835
1587118702112330,45835
1587118702113505,45835
1587118702123976,45835
1587118702125575,45835
1587118702134569,45835
1587118702637148,46218
1587118702638502,46218
1587118702643226,46218
1587118702644702,46218
1587118702645923,46218
1587118702651565,46218
1587118702652217,46218
1587118702653399,46218
1587118702671807,46218
1587118702673379,46218
1587118702674243,46218
1587118702685044,46218
1587118702685981,46218
1587118703442331,61
1587118703447224,46709
1587118703448281,46709
1587118703449775,46709
1587118703451516,46709
1587118703462362,46709
1587118703464022,46709
1587118703465075,46709
1587118703465765,46709
1587118703466663,46709
1587118703467726,46709
1587118703468761,46709
1587118703484430,46709
1587118703495867,46709
1587118703832368,411
1587118704013067,47297
1587118704015401,47297
1587118704021630,47297
1587118704022887,47297
1587118704023697,47297
1587118704024788,47297
1587118704025545,47297
1587118704026958,47297
1587118704027337,47297
1587118704038048,47297
1587118704039418,47297
1587118704043385,47297
1587118704046151,47297
1587118704556330,46800
1587118704558158,46800
1587118704569071,46800
1587118704579986,46800
1587118704580700,46800
1587118704591983,46800
1587118704593709,46800
1587118704594529,46800
1587118704595450,46800
1587118704595846,46800
1587118704597069,46800
1587118704614229,46800
1587118704614633,46800
1587118705118093,48459
1587118705120479,48459
1587118705122180,48459
1587118705133167,48459
1587118705144655,48459
1587118705146439,48459
1587118705147186,48459
1587118705149027,48459
1587118705149349,48459
1587118705149738,48459
1587118705151460,48459
1587118705153144,48459
1587118705156206,48459
1587118705661449,51648
1587118705662015,51648
1587118705662839,51648
1587118705663668,51648
1587118705667012,51648
1587118705668696,51648
1587118705673032,51648
1587118705684290,51648
1587118705695035,51648
1587118705695609,51648
1587118705696532,51648
1587118705696940,51648
1587118705700303,51648
1587118706210674,52223
1587118706211997,52223
1587118706213496,52223
1587118706214219,52223
1587118706215094,52223
1587118706215717,52223
1587118707219404,52223
1587118707231108,52223
1587118707231983,52223
1587118707232660,52223
1587118707233065,52223
1587118707233676,52223
1587118707234092,52223
1587118707747315,54183
1587118707750087,54183
1587118707750912,54183
1587118707753457,54183
1587118707764301,54183
1587118707765440,54183
1587118707766317,54183
1587118707769460,54183
1587118707770893,54183
1587118707782268,54183
1587118707793612,54183
1587118707794440,54183
1587118707795529,54183
1587118708305307,54363
1587118708306013,54363
1587118708306373,54363
1587118708807308,62
1587118709314049,54363
1587118709326056,54363
1587118709327157,54363
1587118709327591,54363
1587118709339828,54363
1587118709352190,54363
1587118709354733,54363
1587118709356349,54363
1587118709357382,54363
1587118709358943,54363
1587118709860439,54646
1587118709861349,54646
1587118709862281,54646
1587118709863027,54646
1587118709863999,54646
1587118709865419,54646
1587118709871682,54646
1587118709884381,54646
1587118709885720,54646
1587118709887608,54646
1587118709898553,54646
1587118709901278,54646
1587118709902819,54646
1587118710423422,54292
1587118710425375,54292
1587118710428194,54292
1587118710429495,54292
1587118710430655,54292
1587118710432448,54292
1587118710434077,54292
1587118710435446,54292
1587118710436261,54292
1587118710437615,54292
1587118710439303,54292
1587118710461342,54292
1587118710475333,54292
1587118710979800,53722
1587118710981598,53722
1587118711001018,53722
1587118711002879,53722
1587118711004187,53722
1587118711005541,53722
1587118711007601,53722
1587118711008410,53722
1587118711008758,53722
1587118712740101,4
1587118713802188,4
1587118716034982,61
1587118718023227,53722
1587118718024001,53722
1587118718024737,53722
1587118718025739,53722
1587118718533254,65509
1587118718534684,65509
1587118718536684,65509
1587118718537341,65509
1587118718538841,65509
1587118718550019,65509
1587118720919415,62
1587118721564672,65509
1587118721566178,65509
1587118721567701,65509
1587118721568237,65509
1587118721568916,65509
1587118721570276,65509
1587118721582585,65509
1587118722084026,67313
1587118722086657,62
1587118722823442,60
1587118723090586,67313
1587118723091279,67313
1587118723093007,67313
1587118723093721,67313
1587118723094374,67313
1587118723096121,67313
1587118723096616,67313
1587118723107690,67313
1587118723119135,67313
1587118723120138,67313
1587118723121595,67313
1587118723133049,67313
1587118723536123,37
1587118723641987,64965
1587118723643025,64965
1587118723654401,64965
1587118723656164,64965
1587118723657554,64965
1587118723668005,64965
1587118723668677,64965
1587118723670735,64965
1587118723671457,64965
1587118723684009,64965
1587118723684891,64965
1587118723687149,64965
1587118723696647,64965
1587118724080453,37
1587118724082820,37
1587118724204899,65367
1587118724216484,65367
1587118724217521,65367
1587118724219243,65367
1587118724220735,65367
1587118724221364,65367
1587118724405001,65367
1587118724406548,65367
1587118724407994,65367
1587118724419192,65367
1587118724419604,65367
1587118724421012,65367
1587118724422550,65367
1587118724615631,37
1587118724925057,65483
1587118724926772,65483
1587118724928332,65483
1587118724939709,65483
1587118724940772,65483
1587118724942723,65483
1587118724943806,65483
1587118724948863,65483
1587118724952346,65483
1587118724963569,65483
1587118724964438,65483
1587118724976038,65483
1587118724978820,65483
1587118725561213,64796
1587118725570638,64796
1587118725582050,64796
1587118725583554,64796
1587118725594208,64796
1587118725598920,64796
1587118725600500,64796
1587118725611722,64796
1587118725624050,64796
1587118725625097,64796
1587118725626118,64796
1587118727733629,37
1587118727977401,61
1587118731933605,4
1587118732650648,64796
1587118732651387,64796
1587118732862487,4
1587118733169065,76151
1587118733180632,76151
1587118733181814,76151
1587118733183618,76151
1587118733195105,76151
1587118733195673,76151
1587118733196338,76151
1587118733198131,76151
1587118733210093,76151
1587118733211961,76151
1587118733223378,76151
1587118733225433,76151
1587118733227420,76151
1587118733729981,70779
1587118733731141,70779
1587118733732569,70779
1587118733732996,70779
1587118733736992,70779
1587118733737953,70779
1587118733739973,70779
1587118733740973,70779
1587118733754000,70779
1587118733754856,70779
1587118733755273,70779
1587118733756650,70779
1587118733757852,70779
1587118734271552,72218
1587118734274005,72218
1587118734274841,72218
1587118734277147,72218
1587118734278504,72218
1587118734282943,72218
1587118734286101,72218
1587118734288450,72218
1587118734300678,72218
1587118734301942,72218
1587118734303028,72218
1587118734305361,72218
1587118735094307,60
1587118735156775,4
1587118735308852,72218
1587118735821084,72982
1587118735822111,72982
1587118735830017,72982
1587118735831419,72982
1587118735833041,72982
1587118735833622,72982
1587118735835296,72982
1587118735835662,72982
1587118735846988,72982
1587118735847593,72982
1587118735849410,72982
1587118735851008,72982
1587118735851944,72982
1587118736357461,73111
1587118736358522,73111
1587118736360194,73111
1587118736371059,73111
1587118736372234,73111
1587118736372955,73111
1587118736373654,73111
1587118736376480,73111
1587118736380198,73111
1587118736384860,73111
1587118736387439,73111
1587118736399671,73111
1587118736400328,73111
1587118736961275,73141
1587118736962730,73141
1587118736963928,73141
1587118736964886,73141
1587118736976069,73141
1587118736976911,73141
1587118736977975,73141
1587118736979442,73141
1587118736980885,73141
1587118736982957,73141
1587118736994322,73141
1587118737005083,73141
1587118737005737,73141
1587118737051374,4
1587118737369280,37
1587118737403197,37
1587118737517798,73284
1587118737518879,73284
1587118737520024,73284
1587118737521237,73284
1587118737522536,73284
1587118737524377,73284
1587118737535004,73284
1587118737536126,73284
1587118737537330,73284
1587118737537789,73284
1587118737539362,73284
1587118737540339,73284
1587118737543271,73284
1587118738044614,73730
1587118738045846,73730
1587118738046991,73730
1587118738049533,73730
1587118738050462,73730
1587118738068409,73730
1587118738071213,73730
1587118738073712,73730
1587118738074089,73730
1587118738085806,73730
1587118738100156,73730
1587118738101444,73730
1587118738113015,73730
1587118738623152,74531
1587118738624133,74531
1587118738625465,74531
1587118738626709,74531
1587118738627336,74531
1587118738628585,74531
1587118738631988,74531
1587118738633427,74531
1587118738644462,74531
1587118738655315,74531
1587118738656708,74531
1587118738658770,74531
1587118738660061,74531
1587118739182221,74002
1587118739183255,74002
1587118739183622,74002
1587118739184006,74002
1587118739186002,74002
1587118739199397,74002
1587118739200789,74002
1587118739201707,74002
1587118739204918,74002
1587118739217835,74002
1587118739219200,74002
1587118739221225,74002
1587118739222701,74002
1587118739728024,75621
1587118739729015,75621
1587118739730116,75621
1587118739732027,75621
1587118739734718,75621
1587118739736353,75621
1587118739752577,75621
1587118739754314,75621
1587118739756592,75621
1587118739758274,75621
1587118739760474,75621
1587118739762475,75621
1587118739768013,75621
1587118740277303,75257
1587118740278723,75257
1587118740279929,75257
1587118740280615,75257
1587118740281890,75257
1587118740285046,75257
1587118740286679,75257
1587118740304291,75257
1587118740306391,75257
1587118740312165,75257
1587118740313677,75257
1587118740318108,75257
1587118740319247,75257
1587118740821444,76849
1587118740822164,76849
1587118740824015,76849
1587118740835008,76849
1587118740835682,76849
1587118740837198,76849
1587118740847962,76849
1587118740849455,76849
1587118740850423,76849
1587118740852199,76849
1587118740854316,76849
1587118740856129,76849
1587118740857250,76849
1587118741367679,76961
1587118741369155,76961
1587118741372587,76961
1587118741383090,76961
1587118741385223,76961
1587118741396026,76961
1587118741397951,76961
1587118741399239,76961
1587118741400184,76961
1587118741401165,76961
1587118741402427,76961
1587118741413853,76961
1587118741414891,76961
1587118741698875,37
1587118741930140,79453
1587118741932288,79453
1587118741934541,79453
1587118741936739,79453
1587118741937339,79453
1587118741938130,79453
1587118741940244,79453
1587118741940911,79453
1587118741941903,79453
1587118741944767,79453
1587118741946558,79453
1587118741947272,79453
1587118741948617,79453
1587118742457895,78063
1587118742458834,78063
1587118742459860,78063
1587118742462182,78063
1587118742474246,78063
1587118742475273,78063
1587118742475978,78063
1587118742476710,78063
1587118742479136,78063
1587118742480916,78063
1587118742492911,78063
1587118742494727,78063
1587118742496391,78063
1587118743018373,79108
1587118743018841,79108
1587118743020392,79108
1587118743021305,79108
1587118743022949,79108
1587118743023562,79108
1587118743025312,79108
1587118743026047,79108
1587118743027287,79108
1587118743028268,79108
1587118743029472,79108
1587118743031434,79108
1587118743033667,79108
1587118743544259,78268
1587118743549885,78268
1587118743561081,78268
1587118743572132,78268
1587118743587854,78268
1587118743589641,78268
1587118743591406,78268
1587118743592913,78268
1587118743595290,78268
1587118743596257,78268
1587118743603287,78268
1587118743604812,78268
1587118743606225,78268
1587118744116969,79180
1587118744119104,79180
1587118744119996,79180
1587118744120685,79180
1587118744121086,79180
1587118744122806,79180
1587118744123216,37
1587118744123565,79180
1587118744124358,79180
1587118744127183,79180
1587118744127418,37
1587118744138329,79180
1587118744139266,79180
1587118744140647,79180
1587118744141645,79180
1587118744268918,37
1587118744306610,37
1587118744309412,37
1587118744648253,80375
1587118744660985,80375
1587118744661951,80375
1587118744666057,80375
1587118744676996,80375
1587118744677565,80375
1587118744679554,80375
1587118744680326,80375
1587118744681021,80375
1587118744685058,80375
1587118744685813,80375
1587118744697132,80375
1587118744698988,80375
1587118745162726,63
1587118745210183,79828
1587118745221020,79828
1587118745225795,79828
1587118745229344,79828
1587118745232038,79828
1587118745233056,79828
1587118745234946,79828
1587118745236588,79828
1587118745246987,79828
1587118745247611,79828
1587118745249174,79828
1587118745259970,79828
1587118745260739,79828
1587118745766929,81071
1587118745772418,81071
1587118745782983,81071
1587118745786201,81071
1587118745805023,81071
1587118745806471,81071
1587118745807968,81071
1587118745808657,81071
1587118745809005,81071
1587118745810891,81071
1587118745811479,81071
1587118745814281,81071
1587118745825016,81071
1587118746332618,80745
1587118746333787,80745
1587118746334551,80745
1587118746336169,80745
1587118746337756,80745
1587118746339737,80745
1587118746352051,80745
1587118746353976,80745
1587118746365009,80745
1587118746370710,80745
1587118746371127,80745
1587118746371898,80745
1587118746372422,80745
1587118746847740,37
1587118746885668,80632
1587118746886133,80632
1587118746887528,80632
1587118746888739,80632
1587118746890224,80632
1587118746890931,80632
1587118746892551,80632
1587118746893167,80632
1587118746896594,80632
1587118746897602,80632
1587118746899550,80632
1587118746902259,80632
1587118746906858,80632
1587118747408574,81969
1587118747410194,81969
1587118747421001,81969
1587118747421936,81969
1587118747422705,81969
1587118747426425,81969
1587118747427673,81969
1587118747428370,81969
1587118747432852,81969
1587118747444512,81969
1587118747528384,81969
1587118747530221,81969
1587118747532182,81969
1587118747876433,37
1587118747880602,37
1587118747894672,37
1587118747905279,37
1587118747911978,37
1587118748035200,82998
1587118748036083,82998
1587118748037224,82998
1587118748038229,82998
1587118748040061,82998
1587118748043279,82998
1587118748044104,82998
1587118748044515,82998
1587118748047240,82998
1587118748048032,82998
1587118748052124,82998
1587118748063042,82998
1587118748064851,82998
1587118748576100,82144
1587118748577355,82144
1587118748580334,82144
1587118748581298,82144
1587118748581808,82144
1587118748582853,82144
1587118748584216,82144
1587118748586101,82144
1587118748589985,82144
1587118748594253,82144
1587118748598531,82144
1587118748600708,82144
1587118748601984,82144
1587118749105360,82309
1587118749106904,82309
1587118749107904,82309
1587118749109264,82309
1587118749110722,82309
1587118749112948,82309
1587118749124819,82309
1587118749126414,82309
1587118749131444,82309
1587118749132708,82309
1587118749133214,82309
1587118749135083,82309
1587118749145653,82309
1587118749648255,83129
1587118749649259,83129
1587118749650356,83129
1587118749916081,37
1587118750171540,37
1587118750902150,37
1587118752150627,63
1587118752658297,83129
1587118752658950,83129
1587118752670240,83129
1587118752671457,83129
1587118752673240,83129
1587118752675026,83129
1587118752676425,83129
1587118752677501,83129
1587118752678524,83129
1587118752683413,83129
1587118753190133,90410
1587118753192421,90410
1587118753194123,90410
1587118753195446,90410
1587118753196249,90410
1587118753198798,90410
1587118753210426,90410
1587118753219038,90410
1587118753220147,90410
1587118753220819,90410
1587118753237214,90410
1587118753248672,90410
1587118753249174,90410
1587118753759021,85713
1587118753760150,85713
1587118753761311,85713
1587118753762020,85713
1587118753763502,85713
1587118753765402,85713
1587118753778535,85713
1587118753782328,85713
1587118753783647,85713
1587118753784589,85713
1587118753785364,85713
1587118753789523,85713
1587118753793192,85713
1587118754304297,87078
1587118754305754,87078
1587118754306991,87078
1587118754307798,87078
1587118754309142,87078
1587118754310162,87078
1587118754314050,87078
1587118754334869,87078
1587118754336991,87078
1587118754349550,87078
1587118754351331,87078
1587118754352272,87078
1587118754353893,87078
1587118754858210,87768
1587118754861404,87768
1587118754862880,87768
1587118754875687,87768
1587118755520963,37
1587118755549407,37
1587118755971391,62
1587118756791968,62
1587118757203783,59
1587118758405331,63
1587118758712385,4
1587118760175183,4
1587118760900410,4
1587118761467662,4
1587118762708625,62
1587118763069222,4
1587118763407788,4
1587118764334649,4
1587118764534408,4
1587118764637254,60
1587118764750003,60
1587118765124895,4
1587118765360945,4
1587118765980642,4
1587118766221758,62
1587118766228058,61
1587118768291873,61
1587118769606793,62
1587118780266572,61
1587118785312652,63
