1586929079600186,1586929078858072,51113936f296f517e98d872043ea4ac4
1586929079798790,1586929072582058,f894c52dbb08ef8c33f8d9fcfcf0a151
1586929079799115,1586929073015532,f7bef5574fd51395028170141d95bcb8
1586929079799279,1586929073731010,23a793e4ffd08ae60b1be71d5b11df3e
1586929079799456,1586929073968699,1106e07b0cdfd06a0079c3f0bc048c67
1586929079799600,1586929075470180,01883b83c0b4858f303832331c24e6a7
1586929080378631,1586929076689196,84d605fdd94786e67f73edc5b3e97df7
1586929080379879,1586929080020500,527cbc82b610297ea23593be71ac2154
1586929080955537,1586929079789703,9a366e1ec672860b31a21e4b51dce5ab
1586929081559512,1586929080095409,3c4186c1e99688906f1c13baff452597
1586929081581178,1586929061140152,79383acd66a482a0ce6de663abcab45e
1586929081581496,1586929061809108,cefee83a9e183368c12ae84763911fc8
1586929081582968,1586929064031226,ec6c7bc6e26f44b1d79b7d219664f9d8
1586929081583190,1586929067653547,580bbe2dca7c865585fe34ac47d07357
1586929082128560,1586929081513555,385eb2f75a8e44eadfdc573b7d2b1cd0
1586929082132868,1586929066234525,cb0415df19c7d8094a1d992a57ab01e4
1586929082139335,1586929063340701,f88a2d89f04f5b1e50f5441957d9a2c8
1586929082139615,1586929067652064,78b53ac086b38d695630fc5852f9526c
1586929082139787,1586929063118771,804f82a0e52c630cac82de5a6eec56ba
1586929082140055,1586929066898304,c1881a03d68eb9091f3a31b8b50e423f
1586929082140259,1586929068849098,f385d138d3a6c48d6eb9d5b14a2485eb
1586929082140425,1586929067413922,7241d8d4b4dd2684905a182c3eb21fff
1586929082140596,1586929069912374,55401133e69977b0409e28856ffbba17
1586929082140725,1586929067126093,ea1f069a91ecdbc8a289bc3d43c32b97
1586929082143029,1586929069622544,f399a50f7dfebcdd1378c46d18d63839
1586929082143175,1586929063087308,235d96bc37e983b34d1936d2bca0d495
1586929082143399,1586929070268269,1328bc08f6ed108f246dfcd56d78a6ca
1586929082143533,1586929066765591,6c6899d9689edd191851b8cb13e89ca1
1586929082143738,1586929067441419,70d30dbf1977e9780101fe51d5565308
1586929082339788,1586929081317762,fd9c865a30f43f0c6a61b3d911851c61
1586929083666723,1586929076747553,400cb56bb0f32c6b661047d03020e2e8
1586929083669900,1586929076390414,06368ca49721eeab01da36db16d513a6
1586929083671019,1586929077573355,76d37a61cf0b2461461b186dd856292c
1586929083969998,1586929083855966,23693cdf2750d0cf9e4bb994eaf3d752
1586929084037205,1586929081256130,2932e955dfab893aac549d72a8ff4b91
1586929084351621,1586929083786351,7057e9584b0359ec56bbec05598060bf
1586929084563470,1586929084409549,5dbc7ed55740b21ddfd8b9d0972a6bf0
1586929084879725,1586929084154756,41d3953f4b64799e44e505eddcc0769d
1586929085593041,1586929085229972,794d698cff5964395c136ca5c91aeeca
1586929086036602,1586929085717097,1fc47c07513fe0e4dccc6d1d4ce2ebe9
1586929086808694,1586929086507414,36052066db71e0d17157404160852805
1586929089627997,1586929089134579,fd08ae33594b86c9dd89173149f118da
1586929090131109,1586929089930402,9ff6a66ee940de6c416130d48338990c
1586929090194309,1586929089284244,0a8529e9c8d649253d726d947a2c2ac3
1586929092966188,1586929092535544,e0276ac5b7fea0c8dda2f09b1a39dcbe
1586929093326365,1586929093076633,e26af8597da7d028192815fb8f548c0a
1586929095203168,1586929094822909,118b8e83bd81982756e5af1d9d8c9944
1586929095679012,1586929095128736,6cd43d1d4ccb6230dadd0200ccd68e57
1586929096532911,1586929095919631,d7618339b7a3acf83b611659c0a5969a
1586929097813589,1586929097677980,d9db5de1730c9aa7b51c0811082b8d88
1586929099819558,1586929099364226,348039cdc70822715a6e204378e082a7
1586929099884266,1586929099516924,51e3f0b562f54ecba83a034a225a1b9b
1586929101130260,1586929100712696,b1c5c5749aebc3b0d6fcd531f166c099
1586929101621082,1586929101146656,cc91053a61832d5901d441dd794bc5cf
1586929102702327,1586929102366404,e0b58e8e042ff46db97a4cba8f7782e5
1586929102902255,1586929102492055,730e4bd3509b9b20c775ea902a3e33dc
1586929103530464,1586929103332531,d7dd6a581dbc8af5015742abaa3493fc
1586929103557337,1586929103324039,6b4b059f63234961ee358db645606028
1586929103798054,1586929103212331,e630dc157bcfb67c2fd977c253c9d444
1586929105102287,1586929104718318,38b2d1daf478e86d445f5f828571abae
1586929105517434,1586929104825017,e6f04125ba679f17e86a8edfab138afe
1586929105678798,1586929105479174,df5f6d36235110c3c88a402128a8dd59
1586929108730733,1586929108398163,3fbde2e2017c2f45b5fa36d60a451e47
1586929108976247,1586929108341584,0873bfd38c25fb202f6a99989a86e243
1586929109248836,1586929108970280,0e1fa963f7e03a5ec467d366c46d0d5e
1586929109769104,1586929109520420,54c9b55a288eedd9f1fda81033ba8ff2
1586929110009954,1586929109701221,3ac54449ffe5d95f192fd39f57c40547
1586929110237030,1586929109873939,36f3db9805dd6fcf57ae8ce33aa21b90
1586929110807968,1586929110422053,5f5aad7221c9e65da456d6e20822cf5e
1586929111284014,1586929110557705,e0cb29fb8b8308bc459c11ebad728a19
1586929111611749,1586929111315043,0c9198a884d5b038930e5149fa2ae1ec
1586929113515798,1586929113060431,4b7acc52ba2d0ea3226021a61feff5a4
1586929114733693,1586929114661704,90299f89911839035c8a75ee451b0fcf
1586929115390117,1586929115087248,627c09ea495d9d1aa78918ca091fd251
1586929115947746,1586929115343087,efb004bee90837c617a90a484723c332
1586929116712920,1586929116306598,4b4da78d786f040ce5548b8c853bff2b
1586929117595272,1586929117282572,857cfa243913ae4e0976e32c8316b67d
1586929118132652,1586929117276111,04d0b3decbe8818dd20009be46d93d17
1586929123645711,1586929121685696,2f8d45c280a80387fe7a37f35dc5de45
1586929125240961,1586929123150708,eb8163187c965c0816fc7d424288ad16
1586929125387914,1586929123477589,51ce35a359350f2bf056e4da0fd10316
1586929125895955,1586929124550234,de28a28c2208046841486b46c4479243
1586929126314904,1586929125232711,c9d7817c29c0c8d8fe744b035d574eb8
1586929126443348,1586929125133008,9c26293c2452c22fcd723d9e7b781161
1586929126491142,1586929125171601,449a92b12814cc42564445de2ee39220
1586929126826600,1586929125226250,436686bf932c6479c972a2637d6aa0d4
1586929128548740,1586929125092408,e959afe9e5199f730ab7b4cac83a09eb
1586929128925067,1586929127872730,8b5bd165528eb8085e255e78a654915b
1586929131702388,1586929131469229,2f0869255d0131e39797ffca6a5aa177
1586929132093035,1586929131685961,311dcfac5044e596322ad4f41f60262f
1586929132394752,1586929131839663,09e9d6ef3483f1237df2d65425de8d2e
1586929133535566,1586929133486213,5c21373298b40a579121f2e836aef76a
1586929137053767,1586929136776057,fd11017321ca3f148def60c04c0bb134
1586929138339302,1586929138039873,ca3ae1c94a6e576cbf7209b215ca4793
1586929139145686,1586929138675080,b3c565e09346376cbe53aeeab7c15247
1586929139811122,1586929139569510,462b0aa405e3cc0a410d8ce3959116d6
1586929140894070,1586929140891639,cdd80fc07ce1a10bcdf94fcc0f0abf76
1586929141236498,1586929140645093,7d68c6e5a6209f62f5312f998ed54936
1586929143382182,1586929142858141,12f49e08eaf5392bc8cbb45655ebf31c
1586929146232395,1586929145513410,bef394d1c0f1fc73ce4613278ecbb793
1586929147323347,1586929146919648,df7fa849b5251391ceb16bfd030b4811
1586929147465821,1586929147350650,e6badb76a1c8d05b6750bf2de14389d7
1586929151406788,1586929151116256,bc35b9113de2e723a21412dcc3aec2eb
1586929151567158,1586929151304996,ffde523976a8c8c50f83c2ad87900b03
1586929152065083,1586929151767183,88c7a6033b8092e37bddbb74984954bc
1586929152881831,1586929152494439,ee43d613cf062284316e88772e406678
1586929156655780,1586929155979516,074b7c9534f731c4b528e28dcbd7d5f7
1586929156705729,1586929156455068,9b3cacdd5c57bec1eae66e0979ec4287
1586929156732363,1586929156386120,bae7e5b0e8c615c308ee4ad604694491
1586929156760131,1586929156262334,49c51c8377e16a7a1cb2fc487c02e8f7
1586929157063602,1586929156442664,2ffa96d847c44d9c33f002d6eae4edfb
1586929157997575,1586929157997017,00302d2fd90f3f54b74aec9ad340dda8
1586929158559201,1586929158383554,48fc5550bc7c3d00d14440396468b210
1586929158559371,1586929158189764,172bac94b41c85f7b3f85d079818e457
1586929159023875,1586929158539241,4721800b4933690e2a63bd383664f2ba
1586929162572159,1586929162217514,69fdc0b523e394bd5be9e9cfc9eebe8b
1586929164270308,1586929164041493,c998a3e62c07c479f467847478021a91
1586929164452837,1586929163770622,d5d3b2ee915c1730aac7d265c09f6801
1586929167212968,1586929167019035,282abccc3d236f4329e5cff246445fda
1586929170350340,1586929170093642,f3bd29f3241b3538595d8729cbd9b5d9
1586929174379149,1586929174199297,0427171bada5ee8020653c1412d9650c
1586929174379293,1586929174200783,708be8f29cabcbee6347d13398a94d82
1586929177487759,1586929177046008,4fdd07112ba5599266f20f36b2177926
1586929177850863,1586929177646167,67c410f6fb4c9ce64812b10537cb03ff
1586929178109121,1586929178100344,482891ef0ce5b531d665a9b00dd226b8
1586929178373313,1586929177817935,9ef06312ba64eaa417176eff65a72fef
1586929178517889,1586929177994705,4f78f2f6548b4fc9b62f689e243461d2
1586929180692130,1586929180354253,23df0a72e8172b9c8ea51f9ea00c27e1
1586929181531156,1586929180995553,62a580338c5ece0c111974a47d0e972d
1586929181577567,1586929181086149,201116c5bf02187f66e4764844a7e137
1586929181721993,1586929181206789,ac739aa1f567eb37f40d158136a75c54
1586929182747882,1586929182144268,de5e116c8bf43e57adaba969281ec737
1586929183096799,1586929182812634,61c33ce2acf2ca1a8afecbcbbbf67fcb
1586929183194007,1586929182658357,b75ab9ec4221d5f285699f768c3fcdda
1586929183194217,1586929182734035,cb5be7f3671ffbcdaa2af971a12f1cab
1586929185191836,1586929184643965,a1cb943551bb2cdda2041517abec43f7
1586929185541484,1586929184864764,2223c8aa961f789d1458f412263bcdb1
1586929185849039,1586929185360825,cd130640b172158c2653ca5af57cfcb2
1586929186746215,1586929186247254,4a1e1944278387f04324b4f6bc873511
1586929187023037,1586929186615222,88a0d027613d53c040dc45dba7044738
1586929187555590,1586929187355562,cd8691521d3230666cf053f4e06aafd5
1586929188447268,1586929187737497,2dd248e91cdc7816ef64e6c65ff3c97e
1586929188812208,1586929188336631,c77f93e0344c4a55c54bace059bf7226
1586929189716539,1586929189058882,05c7a4b074a529b9612564a8e5684951
1586929190867167,1586929190315756,9b8c66416be5c877c21c43878c4f5833
1586929193384377,1586929192768800,f2f18db95b7fe0475923a11d37acbc5e
1586929193685850,1586929193620224,4cf8f02755301886ce9bf63622b3f967
1586929195370740,1586929194730930,a5b277972711e518f2c0b1587370f183
1586929195789131,1586929195170949,2cecf72de5324df17a8aaaf55a248e8a
1586929196393152,1586929195917245,b0035ff5ecedb731f8464a382dde2486
1586929196532109,1586929196153187,5f92af9847361ea0607514db1a2df105
1586929196532233,1586929196000865,9e91aa0b6e490d404b3abcd443345451
1586929196815907,1586929196070507,b8454f3c6903556bd66b48eaea704c40
1586929198113233,1586929197578168,989c7e2aeddcbd32bd5dfd1787dc7147
1586929198856121,1586929198793969,899cbd55fce476a00d54f2e87ebb4462
1586929199901606,1586929199526231,b98b678921aff8499f1f9b4f46ec2fa7
1586929200361193,1586929199671974,816fd58bedffd7febdf221f33ee6e8ad
1586929200684939,1586929200260530,c843d8562d3d47076295f37a192e1cc5
1586929200805586,1586929200182926,1d2e062347d83647bb2c846124f347ca
1586929200805702,1586929200281002,369d556230b4951c9c96298867c2d534
1586929201234915,1586929200634798,54c0f4140232df538742a72420f27197
1586929202465241,1586929202271957,62a0c10f2c69ed4f4eaf48b4b6d0cc6e
1586929203879780,1586929203203557,1f9c2ef7a32617a2055dced703a7bae3
1586929204902425,1586929204422394,783080ae131384e9a2b13cbf0e4a5467
1586929205505496,1586929205136033,f814115b12e06208bd01ffd75201785b
1586929205642180,1586929205063262,e33a6bf110aa5dba19cdc45f26d631b7
1586929206191694,1586929205652120,ff69d90b86f4c8379f05fe92acd57b2a
1586929207496185,1586929207246304,cc2c2688ebe78ab9fb468644bf02edea
1586929208200502,1586929207848511,b8fde03f9c14c48ab62da338b322920d
1586929208742553,1586929208564495,ea8af5a8ba2f6f7a2bdbd4629c20a87e
1586929208742694,1586929208461785,e7b955c34dfa28ef78f2c725403151cc
1586929209445314,1586929209135593,972a66941f2675b7d7ebf385bb4346ed
1586929211609376,1586929211607630,a09a4a1f524e70bd34b0a3ff5562a4b4
1586929213442631,1586929213047678,60fce4c130ee157f172b4c6e65b04a99
1586929214549626,1586929214077359,12471514cf332ed54c1470673decba7b
1586929215337923,1586929215083390,e2b0dedcd230a0244595c7ba3c1df933
1586929216974405,1586929216258210,da26b5c46c65eb17de1313bf2a7206cc
1586929217061675,1586929216318876,cb069baf7c9fec53bb1b62461eefaada
1586929217332442,1586929217101718,822242e6ca2b9d4fe514373621b217eb
1586929217559782,1586929217002087,ab442d8280aea6e3004e52888492b83f
1586929219367357,1586929218771959,b042d5b972f0117d19a6dbf1d1fe9f25
1586929221023283,1586929220590314,c9ab1d7c01aa6542683f9fc337a7ecbc
1586929221852216,1586929221563849,d83083c856393d29f8662824a17ed6c7
1586929224521145,1586929224002887,02226da953efb0bff5140f9c970c4350
1586929227789494,1586929227339731,d1b249ebded1ef1de04839390bd07576
1586929229055927,1586929228256209,0c1d41188bc07efb069c3d5741dcc8e8
1586929229724489,1586929229364872,ebad6b251b25704ec30b1e943fea2ac4
1586929229815939,1586929229385431,4e97d9cf50d9d5d67f8b78d64e3dfd65
1586929232447574,1586929231626192,eb910bc0ffaac5d2ee7bf0a18a45224c
1586929234301274,1586929233682823,d477f584509765f62310cda818c4a363
1586929234436651,1586929234436141,784913033588b38fb8ef0087c5aa4c2d
1586929234927461,1586929234701952,e072502efb1ab5d5d8e3409fecb3c95f
1586929237874935,1586929236993931,3506e613a803ba24448efdf7a97e1fe0
1586929238922564,1586929238044582,d936af9214efd3da97c205572ddc0b43
1586929239044376,1586929238765843,d363fc090d2c5a17f081fa53c05ab9e5
1586929239093709,1586929238860493,cabd123d729f369d683f8143d3cbbc85
1586929239965134,1586929238969102,f8d2b7c289f903a83b8e9f363862477d
1586929240821174,1586929240815611,94f4df4810db42f494196c67e96679e1
1586929241736342,1586929241076420,16dc75ad7b0e3fb1234a21bf1bf816c9
1586929244720337,1586929244431900,5fefc191462ae53d2db7a5fb76a017b7
1586929244827117,1586929244339234,9b749f3b10192ba7be3d5e6377dc4fb7
1586929245213952,1586929244701690,2f2bd7cf3382c55d806bfd46b6b4f48e
1586929245273733,1586929245139705,c4998715f9f122f5428d956173420e92
1586929245432384,1586929245252873,ca91121e31c2945a1e46aa0c4c8d3cf0
1586929245747106,1586929245736753,a6f3efb63dd2908fe2126cf27546e9eb
1586929245762042,1586929245233373,a22ac249d803235614ad9033e9a304cf
1586929247271201,1586929246630171,96a6a169d2f30903cd95ad73102b1641
1586929249943410,1586929249492622,57b14332478856a15788267ece7832af
1586929250512858,1586929250134142,a6792e632148eb21a66ab1d054e0c9d2
1586929250818153,1586929250121642,6448431142d6687a16aa2764d9a7620a
1586929253124248,1586929252456885,3a9754af98b70c35f307962d90e031b8
1586929253291356,1586929252753715,61bc2e00c1c7565b1c20dc9bc33fd230
1586929254700625,1586929254104643,e606f4c998c4cf37598b52328ef3c079
1586929255797656,1586929255605703,f21b9b2f8aa8898801fac5fe634812e2
1586929256305672,1586929255850484,b3ba70160a36582724fb0ad17a698b05
1586929256827921,1586929256739001,1aef2a6598c3ea48e53d3ae8e3714821
1586929258387855,1586929258198033,752ed08922600f4ef70dd3e9b55a494f
1586929260471770,1586929260229287,7a0d4a8c68b7ddb58b1a9a6cc2f2bf78
1586929260852334,1586929260212628,6717fc3273711ab102ab2a4587a84a65
1586929262070090,1586929261552148,274824d0b5bd6dd37305d6d31a078b79
1586929263013073,1586929262769938,e5e902668d0e6bf9f3ff42983afa2447
1586929268432459,1586929268193729,9fafe1c6fa6104d636e701a67f27f0ed
1586929268975567,1586929267792641,ecd87058e34e7e990afcddf625ff3678
1586929270036024,1586929269067133,c830d40e4c83ccde4d1910885de3f3e6
1586929270633072,1586929270628217,fb88f18e5775551786e8ffb2b2bb1d16
1586929272221398,1586929271574738,5b0951d959dd65f53f6b473dd34ced91
1586929272637173,1586929272551683,c111f8da88eb576c3795d5629834153f
1586929272781909,1586929272165855,218aa553cc6e4768b9f5814cbe8faaad
1586929272782131,1586929272453675,631a1177d0e24752c2240b8abe75c39c
1586929273155514,1586929272470181,ff610825e2b575114a6e7ea6c3c4da9b
1586929274015296,1586929274011707,2c195f40d87fbad2206ca75e82ed5f79
1586929274915959,1586929274911818,16f7819bc15d6494151e33893800ebd7
1586929274916878,1586929274582405,fa6b12d3afdad44beafba1c4312e41be
1586929275011236,1586929274181437,31f5902cc0c26fef2f623a61a721f6c6
1586929275122098,1586929275120783,2754fd3222982ff92c7d9424c88552d1
1586929275465787,1586929274825196,91eea662148b21223e5873b8e8a235ab
1586929277051085,1586929276743982,59104977cc45a472f8cbf2bb39c5d763
1586929277988018,1586929277351257,11c6cd7a89f31cc0d29b737bc0320d5d
1586929278118546,1586929277365782,8ba7aa4d177f114015bf84300879d37a
1586929279909431,1586929279113962,5af49d940f2541fd29ba268bfb6ec09e
1586929283603997,1586929283073468,25430cb33742d8d0aa8fb2c21af10730
1586929283743293,1586929283156076,f4acd08011b4576dc70aeadb3a132ace
1586929284837710,1586929284090529,ff597b951b77780f5da3d31a873f086f
1586929285820674,1586929285588563,6a093a6f32f9bfe130245d1becb6b6fc
1586929287400346,1586929287096632,89ff33dce95a3522a75e342a4fdfbae1
1586929287884125,1586929287167208,f30a4bf8189f69d0566b7a40f39f2da5
1586929288350166,1586929288002216,4b08430b92e00b7987463178b3e2a923
1586929288350256,1586929287913531,c844488a0a29d1d7b70e1f5e3fa6e730
1586929289682757,1586929289500307,db218fa2d6833925fa42e9921ae96db4
1586929290122014,1586929289718084,fc00d5eb5360cc629150ab20dcc69f1e
1586929291245405,1586929290862746,2d0093be382a692a90cde046ed1d5fbd
1586929293623520,1586929292925853,a873d29cc1d36903584d9522e78ed147
1586929294848104,1586929294380880,aee782209052c8d17fc1cb3f6c459060
1586929296020073,1586929295783830,6cf4264584848c9e5e3d4d3385d79ac7
1586929297964161,1586929297408010,ee139984e64070bf0f5eb7037f60d2fa
1586929300205717,1586929299686647,6ba347bac21219dafaf1c04f76336d5c
1586929300234630,1586929300080625,5aa2db24175cb6c513a220ebd187ef31
1586929301779040,1586929301451586,27e3d0444e2bba55af54c5a6c56c7d1c
1586929302523262,1586929301936890,73441e1278097eec817fb3c73d1fd959
1586929303049893,1586929302772257,97c8723068821036a380837aba521fbc
1586929303827642,1586929303772846,f1ae562c03596d722e53c1baa6ae8658
1586929304120315,1586929303861475,9b09cf31873bc3cb0c4b7554fe3fe971
1586929305159608,1586929305054205,901786c8c1571d1c0c41b74fd1cc97f7
1586929306015716,1586929305918742,4f1dd58b7041fd85de9147fffc45fa27
1586929308705511,1586929308045398,23b2d65df37d577325a9793c4f931d14
1586929309087661,1586929308588538,956ebe980b40ffe14001286d93b553fa
1586929309385072,1586929309259735,15a7155f4e425f732440899ec37cc318
1586929311009897,1586929310722625,8418a83d75ff79abf0b49d1a12dee832
1586929311619477,1586929311134568,46195e184e97cef1da75c99a7678d598
1586929312671471,1586929312458971,c2c8df804204bcefe26abf956bf5ce0d
1586929313037238,1586929312252188,ad6b7a5bc2cbbf4aa35985999baaa0d2
1586929313064421,1586929312756791,76f1fd5a9918048df028f7bb53693df4
1586929315641669,1586929314800425,58e08978bb2a9a791aa39d07fb2c3348
1586929316884601,1586929316570720,7a2303974ecf92a6c8637a1294622b52
1586929318836310,1586929318382070,a7f640589d2737a3d7d0e2eec1523948
1586929320849088,1586929320691891,d33309e5ea1e5e250a8668562cf6e7c2
1586929321089224,1586929320825618,b3777384650292d2d17be676c3da9512
1586929321861413,1586929321641967,dd8fd53e9056d02f35dd8ce897275fc2
1586929323758472,1586929323570429,0a77397fea7c200d5c1e229d9c10d5cb
1586929325286810,1586929325011755,cd14a12a17e2e854c13e19e3b61fd791
1586929325460124,1586929324686831,612648d575df548bd6a3f5a961800d91
1586929325974610,1586929325153430,2390dd76404c5845973fbbe788564a9f
1586929326264290,1586929325781626,f7583b331043d3d95db03f247e297abb
1586929328105422,1586929327555950,19467c05e2951cd0b83c09eabc7a33bc
1586929328322464,1586929327970908,4a612b3ea4854bb603d5f0a051f5ac28
1586929328601524,1586929328024498,7e00d9284a9165a184a665dde30a7e9c
1586929329137990,1586929328543463,039386bfaebf2367587ae0dc0d8f846f
1586929330297616,1586929330003486,e95261f4e7e914b3cbfaacdf739487a8
1586929331225228,1586929330729745,f0127f28ada3d3de32a6f46a369a6413
1586929331428159,1586929331280930,49246886ef1b5e3c1473bbf5c20debc1
1586929332813790,1586929331964159,4bebfe9f61064fb048a472e02e1a00eb
1586929333878754,1586929333123928,bb2e76ee113b7f3bdebf53d0ff5e9013
1586929336006817,1586929335332642,9d04806c1cf3dcb9cec35e6aa5de2310
1586929338728525,1586929337840713,91548442b18c3e7f3d9878c076ee7537
1586929340809901,1586929339979446,b8491cb1ee00b6a8dfb427ca63d91212
1586929341082501,1586929340771307,4de2f93957488d23bd2c7ce549c48b22
1586929341249873,1586929340544564,00147088f3f7f9030f1d69eb245113ee
1586929341681061,1586929341325579,ace816a1e40f775f1c20b135638db3a4
1586929344809893,1586929344467222,fb1161ba278753c76a766b975cd34a76
1586929350304096,1586929349632945,59d440e8f9c0ec3fdc40ebec10de718e
1586929351318165,1586929351029854,578ba24dc01fd9b497a0e7f32228a806
1586929352837501,1586929352535905,af830aab4925bc6fa3d2fa3890eee2e5
1586929354084702,1586929353393334,90de49fa2fb0b3123c8b6818bade5b5c
1586929354150296,1586929353651148,783b03979ca35f92907b00d75cd73fac
1586929354820426,1586929354378513,49def3d7b2a645ffea9b9c605721a0d4
1586929357444787,1586929356712371,21fee01ccdbc70f631ad30faa4a9d848
1586929358871690,1586929358045253,bc317c5b8d5f83394af14d1ef2e25e39
